      *      CREATED BY CONVERT/DB V8R01 ON 05/01/00 AT 11:32         *
YYY991     MOVE '985-CURR-R4205-APRVL-LVL' TO DBLINK-CURR-PARAGRAPH.    276 BRTN
YYY991                                                                  276 BRTN
YYY991*%****************************** *                                276 BRTN
YYY991*%INITIALIZE DBLINK SUBSCHEMA-CTRL                                276 BRTN
YYY991*%****************************** *                                276 BRTN
YYY991     MOVE ZERO TO ERROR-STATUS.                                   276 BRTN
YYY991     MOVE SPACES TO ERROR-AREA.                                   276 BRTN
YYY991     MOVE SPACES TO ERROR-SET.                                    276 BRTN
YYY991     MOVE SPACES TO ERROR-RECORD.                                 276 BRTN
YYY991     MOVE 'R4205-APRVL-LVL' TO RECORD-NAME.                       276 BRTN
YYY991     MOVE 'F-APPROVAL' TO AREA-NAME.                              276 BRTN
YYY991                                                                  276 BRTN
YYY991*%****************************** *                                276 BRTN
YYY991*%CLOSE ALL RECORD-RELATED CURSORS                                276 BRTN
YYY991*%****************************** *                                276 BRTN
YYY991     MOVE DBLINK-R4205-APRVL-LVL TO DBLINK-RECORD-MADE-CURRENT.   276 BRTN
YYY991     MOVE ' ' TO DBLINK-CURSOR-NAME-WORK.                         276 BRTN
YYY991     PERFORM 991-CLOSE-CURSORS                                    276 BRTN
YYY991        THRU 991-CLOSE-CURSORS-EXIT.                              276 BRTN
YYY991     IF ERROR-STATUS = DBLINK-DB2-ERROR                           276 BRTN
YYY991         GO TO 985-CURR-R4205-APRVL-LVL-EXIT                      276 BRTN
YYY991     END-IF.                                                      276 BRTN
YYY991     MOVE ' ' TO DBLINK-RECORD-MADE-CURRENT.                      276 BRTN
YYY991                                                                  276 BRTN
YYY991*%****************************** *                                276 BRTN
YYY991*%SET RECORD KEY                                                  276 BRTN
YYY991*%****************************** *                                276 BRTN
YYY991     IF DBLINK-TYPE-GET NOT = DBLINK-CURR                         276 BRTN
YYY991         MOVE APL-FK-APV-SEQ-NBR TO DBLINK-R4205-APRVL-LVL-01     276 BRTN
YYY991         MOVE APL-FK-APV-USER-ID TO DBLINK-R4205-APRVL-LVL-02     276 BRTN
YYY991         MOVE APL-FK-APV-APV-TPLT-CD TO DBLINK-R4205-APRVL-LVL-03 276 BRTN
YYY991         MOVE APL-LEVEL-SEQ-NBR TO DBLINK-R4205-APRVL-LVL-04      276 BRTN
YYY991     END-IF.                                                      276 BRTN
YYY991                                                                  276 BRTN
YYY991*%****************************** *                                276 BRTN
YYY991*%SET CURRENT OF RUN-UNIT                                         276 BRTN
YYY991*%****************************** *                                276 BRTN
YYY991     MOVE DBLINK-R4205-APRVL-LVL TO DBLINK-VIEW-NAME-CURRENT.     276 BRTN
YYY991     MOVE DBLINK-R4205-APRVL-LVL-KEY TO DBLINK-VIEW-200-CURRENT.  276 BRTN
YYY991                                                                  276 BRTN
YYY991*%****************************** *                                276 BRTN
YYY991*%SET KEYS FOR SETS WHICH RECORD OWNS                             276 BRTN
YYY991*%****************************** *                                276 BRTN
YYY991                                                                  276 BRTN
YYY991*%****************************** *                                276 BRTN
YYY991*%SET S-4205-4211                                                 276 BRTN
YYY991*%****************************** *                                276 BRTN
YYY991     MOVE DBLINK-R4205-APRVL-LVL-01 TO DBLINK-S-4205-4211-01.     276 BRTN
YYY991     MOVE DBLINK-R4205-APRVL-LVL-02 TO DBLINK-S-4205-4211-02.     276 BRTN
YYY991     MOVE DBLINK-R4205-APRVL-LVL-03 TO DBLINK-S-4205-4211-03.     276 BRTN
YYY991     MOVE DBLINK-R4205-APRVL-LVL-04 TO DBLINK-S-4205-4211-04.     276 BRTN
YYY991     MOVE LOW-VALUES TO DBLINK-S-4205-4211-KEY-M.                 276 BRTN
YYY991                                                                  276 BRTN
YYY991*%****************************** *                                276 BRTN
YYY991*%SET S-4205-4212                                                 276 BRTN
YYY991*%****************************** *                                276 BRTN
YYY991     MOVE DBLINK-R4205-APRVL-LVL-01 TO DBLINK-S-4205-4212-01.     276 BRTN
YYY991     MOVE DBLINK-R4205-APRVL-LVL-02 TO DBLINK-S-4205-4212-02.     276 BRTN
YYY991     MOVE DBLINK-R4205-APRVL-LVL-03 TO DBLINK-S-4205-4212-03.     276 BRTN
YYY991     MOVE DBLINK-R4205-APRVL-LVL-04 TO DBLINK-S-4205-4212-04.     276 BRTN
YYY991     MOVE LOW-VALUES TO DBLINK-S-4205-4212-KEY-M.                 276 BRTN
YYY991                                                                  276 BRTN
YYY991*%****************************** *                                276 BRTN
YYY991*%SET KEYS FOR SETS IN WHICH RECORD IS MEMBER                     276 BRTN
YYY991*%****************************** *                                276 BRTN
YYY991                                                                  276 BRTN
YYY991*%****************************** *                                276 BRTN
YYY991*%SET S-4215-4205                                                 276 BRTN
YYY991*%****************************** *                                276 BRTN
YYY991     MOVE APL-FK-APV-SEQ-NBR TO DBLINK-S-4215-4205-01.            276 BRTN
YYY991     MOVE APL-FK-APV-USER-ID TO DBLINK-S-4215-4205-02.            276 BRTN
YYY991     MOVE APL-FK-APV-APV-TPLT-CD TO DBLINK-S-4215-4205-03.        276 BRTN
YYY991     MOVE APL-LEVEL-SEQ-NBR TO DBLINK-S-4215-4205-04.             276 BRTN
