    ***Created by Convert/DC version V8R03 on 12/11/00 at 14:00***

      *%--------------------------------------------------------------%*
           MOVE DCLINK-MESSAGE  TO WK01-ZZMESSAGE.
      *%--------------------------------------------------------------%*
           MOVE AGR-DATE OF ADSO-APPLICATION-GLOBAL-RECORD TO WK01-DATE.
      *%--------------------------------------------------------------%*
           MOVE AGR-USER-ID OF ADSO-APPLICATION-GLOBAL-RECORD TO
                WK01-USER-ID.
      *%--------------------------------------------------------------%*
           MOVE AGR-FUNC-DESCRIPTION OF ADSO-APPLICATION-GLOBAL-RECORD
                TO WK01-FUNC-DESCRIPTION.
      *%--------------------------------------------------------------%*
           MOVE AGR-PASSED-ONE OF ADSO-APPLICATION-GLOBAL-RECORD TO
                WK01-PASSED-ONE.
      *%--------------------------------------------------------------%*
           MOVE AGR-MAP-RESPONSE OF ADSO-APPLICATION-GLOBAL-RECORD TO
                WK01-MAP-RESPONSE.
      *%--------------------------------------------------------------%*
           MOVE TRMNL-ID-SY00 OF FSYWG00M TO WK01-ID-SY00.
      *%--------------------------------------------------------------%*
           MOVE FULL-NAME-6001-SY00 OF FSYWG00M TO WK01-NAME-6001-SY00.
      *%--------------------------------------------------------------%*
           MOVE AM-PM-FLAG-SY00 OF FSYWG00M TO WK01-PM-FLAG-SY00.
      *%--------------------------------------------------------------%*
           MOVE CURR-RSPNS-ID-SY00 OF FSYWG00M TO WK01-RSPNS-ID-SY00.
      *%--------------------------------------------------------------%*
           MOVE ERROR-TEXT-SY00 OF FSYWG00M TO WK01-TEXT-SY00.
      *%--------------------------------------------------------------%*
           MOVE PAGE-STATUS-CODE-SY00 OF FSYWG00M TO
                WK01-STATUS-CODE-SY00.
      *%--------------------------------------------------------------%*
           MOVE WORK-HH-MM-TIME-SY00 OF FSYWG00M TO
                WK01-HH-MM-TIME-SY00.
      *%--------------------------------------------------------------%*
           MOVE DCSD-TEXT-SY01 OF FSYWG01M TO WK01-TEXT-SY01.
      *%--------------------------------------------------------------%*
           MOVE CNFDL-TEXT-SY01 OF FSYWG01M TO WK01-TEXT-SY0A.
      *%--------------------------------------------------------------%*
           MOVE HOLDS-TEXT-SY01 OF FSYWG01M TO WK01-TEXT-SY0B.
      *%--------------------------------------------------------------%*
           MOVE RQST-COA-CODE-4053-CH20 OF FCHWK20 TO
                WK01-COA-CODE-4053-CH20.
      *%--------------------------------------------------------------%*
           MOVE RQST-INTRL-ENTY-CODE-4053-CH20 OF FCHWK20 TO
                WK01-INTRL-ENTY-CD-4053-CH2.
      *%--------------------------------------------------------------%*
           MOVE ACTN-CODE-CH20 OF FCHWM20(0001) TO WK01-CODE-CH201.
      *%--------------------------------------------------------------%*
           MOVE ACTN-CODE-CH20 OF FCHWM20(0002) TO WK01-CODE-CH202.
      *%--------------------------------------------------------------%*
           MOVE ACTN-CODE-CH20 OF FCHWM20(0003) TO WK01-CODE-CH203.
      *%--------------------------------------------------------------%*
           MOVE ACTN-CODE-CH20 OF FCHWM20(0004) TO WK01-CODE-CH204.
      *%--------------------------------------------------------------%*
           MOVE ACTN-CODE-CH20 OF FCHWM20(0005) TO WK01-CODE-CH205.
      *%--------------------------------------------------------------%*
           MOVE ACTN-CODE-CH20 OF FCHWM20(0006) TO WK01-CODE-CH206.
      *%--------------------------------------------------------------%*
           MOVE ACTN-CODE-CH20 OF FCHWM20(0007) TO WK01-CODE-CH207.
      *%--------------------------------------------------------------%*
           MOVE ACTN-CODE-CH20 OF FCHWM20(0008) TO WK01-CODE-CH208.
      *%--------------------------------------------------------------%*
           MOVE ACTN-CODE-CH20 OF FCHWM20(0009) TO WK01-CODE-CH209.
      *%--------------------------------------------------------------%*
           MOVE ACTN-CODE-CH20 OF FCHWM20(0010) TO WK01-CODE-CH2010.
      *%--------------------------------------------------------------%*
           MOVE ACTN-CODE-CH20 OF FCHWM20(0011) TO WK01-CODE-CH2011.
      *%--------------------------------------------------------------%*
           MOVE ACTN-CODE-CH20 OF FCHWM20(0012) TO WK01-CODE-CH2012.
      *%--------------------------------------------------------------%*
           MOVE ACTN-CODE-CH20 OF FCHWM20(0013) TO WK01-CODE-CH2013.
      *%--------------------------------------------------------------%*
           MOVE COA-CODE-4053-CH20 OF FCHWM20(0001) TO
                WK01-CODE-4053-CH201.
      *%--------------------------------------------------------------%*
           MOVE COA-CODE-4053-CH20 OF FCHWM20(0002) TO
                WK01-CODE-4053-CH202.
      *%--------------------------------------------------------------%*
           MOVE COA-CODE-4053-CH20 OF FCHWM20(0003) TO
                WK01-CODE-4053-CH203.
      *%--------------------------------------------------------------%*
           MOVE COA-CODE-4053-CH20 OF FCHWM20(0004) TO
                WK01-CODE-4053-CH204.
      *%--------------------------------------------------------------%*
           MOVE COA-CODE-4053-CH20 OF FCHWM20(0005) TO
                WK01-CODE-4053-CH205.
      *%--------------------------------------------------------------%*
           MOVE COA-CODE-4053-CH20 OF FCHWM20(0006) TO
                WK01-CODE-4053-CH206.
      *%--------------------------------------------------------------%*
           MOVE COA-CODE-4053-CH20 OF FCHWM20(0007) TO
                WK01-CODE-4053-CH207.
      *%--------------------------------------------------------------%*
           MOVE COA-CODE-4053-CH20 OF FCHWM20(0008) TO
                WK01-CODE-4053-CH208.
      *%--------------------------------------------------------------%*
           MOVE COA-CODE-4053-CH20 OF FCHWM20(0009) TO
                WK01-CODE-4053-CH209.
      *%--------------------------------------------------------------%*
           MOVE COA-CODE-4053-CH20 OF FCHWM20(0010) TO
                WK01-CODE-4053-CH2010.
      *%--------------------------------------------------------------%*
           MOVE COA-CODE-4053-CH20 OF FCHWM20(0011) TO
                WK01-CODE-4053-CH2011.
      *%--------------------------------------------------------------%*
           MOVE COA-CODE-4053-CH20 OF FCHWM20(0012) TO
                WK01-CODE-4053-CH2012.
      *%--------------------------------------------------------------%*
           MOVE COA-CODE-4053-CH20 OF FCHWM20(0013) TO
                WK01-CODE-4053-CH2013.
      *%--------------------------------------------------------------%*
           MOVE INTRL-ENTY-CODE-4053-CH20 OF FCHWM20(0001) TO
                WK01-ENTY-CODE-4053-CH201.
      *%--------------------------------------------------------------%*
           MOVE INTRL-ENTY-CODE-4053-CH20 OF FCHWM20(0002) TO
                WK01-ENTY-CODE-4053-CH202.
      *%--------------------------------------------------------------%*
           MOVE INTRL-ENTY-CODE-4053-CH20 OF FCHWM20(0003) TO
                WK01-ENTY-CODE-4053-CH203.
      *%--------------------------------------------------------------%*
           MOVE INTRL-ENTY-CODE-4053-CH20 OF FCHWM20(0004) TO
                WK01-ENTY-CODE-4053-CH204.
      *%--------------------------------------------------------------%*
           MOVE INTRL-ENTY-CODE-4053-CH20 OF FCHWM20(0005) TO
                WK01-ENTY-CODE-4053-CH205.
      *%--------------------------------------------------------------%*
           MOVE INTRL-ENTY-CODE-4053-CH20 OF FCHWM20(0006) TO
                WK01-ENTY-CODE-4053-CH206.
      *%--------------------------------------------------------------%*
           MOVE INTRL-ENTY-CODE-4053-CH20 OF FCHWM20(0007) TO
                WK01-ENTY-CODE-4053-CH207.
      *%--------------------------------------------------------------%*
           MOVE INTRL-ENTY-CODE-4053-CH20 OF FCHWM20(0008) TO
                WK01-ENTY-CODE-4053-CH208.
      *%--------------------------------------------------------------%*
           MOVE INTRL-ENTY-CODE-4053-CH20 OF FCHWM20(0009) TO
                WK01-ENTY-CODE-4053-CH209.
      *%--------------------------------------------------------------%*
           MOVE INTRL-ENTY-CODE-4053-CH20 OF FCHWM20(0010) TO
                WK01-ENTY-CODE-4053-CH2010.
      *%--------------------------------------------------------------%*
           MOVE INTRL-ENTY-CODE-4053-CH20 OF FCHWM20(0011) TO
                WK01-ENTY-CODE-4053-CH2011.
      *%--------------------------------------------------------------%*
           MOVE INTRL-ENTY-CODE-4053-CH20 OF FCHWM20(0012) TO
                WK01-ENTY-CODE-4053-CH2012.
      *%--------------------------------------------------------------%*
           MOVE INTRL-ENTY-CODE-4053-CH20 OF FCHWM20(0013) TO
                WK01-ENTY-CODE-4053-CH2013.
      *%--------------------------------------------------------------%*
           MOVE INTRL-ENTY-DESC-4053-CH20 OF FCHWM20(0001) TO
                WK01-ENTY-DESC-4053-CH201.
      *%--------------------------------------------------------------%*
           MOVE INTRL-ENTY-DESC-4053-CH20 OF FCHWM20(0002) TO
                WK01-ENTY-DESC-4053-CH202.
      *%--------------------------------------------------------------%*
           MOVE INTRL-ENTY-DESC-4053-CH20 OF FCHWM20(0003) TO
                WK01-ENTY-DESC-4053-CH203.
      *%--------------------------------------------------------------%*
           MOVE INTRL-ENTY-DESC-4053-CH20 OF FCHWM20(0004) TO
                WK01-ENTY-DESC-4053-CH204.
      *%--------------------------------------------------------------%*
           MOVE INTRL-ENTY-DESC-4053-CH20 OF FCHWM20(0005) TO
                WK01-ENTY-DESC-4053-CH205.
      *%--------------------------------------------------------------%*
           MOVE INTRL-ENTY-DESC-4053-CH20 OF FCHWM20(0006) TO
                WK01-ENTY-DESC-4053-CH206.
      *%--------------------------------------------------------------%*
           MOVE INTRL-ENTY-DESC-4053-CH20 OF FCHWM20(0007) TO
                WK01-ENTY-DESC-4053-CH207.
      *%--------------------------------------------------------------%*
           MOVE INTRL-ENTY-DESC-4053-CH20 OF FCHWM20(0008) TO
                WK01-ENTY-DESC-4053-CH208.
      *%--------------------------------------------------------------%*
           MOVE INTRL-ENTY-DESC-4053-CH20 OF FCHWM20(0009) TO
                WK01-ENTY-DESC-4053-CH209.
      *%--------------------------------------------------------------%*
           MOVE INTRL-ENTY-DESC-4053-CH20 OF FCHWM20(0010) TO
                WK01-ENTY-DESC-4053-CH2010.
      *%--------------------------------------------------------------%*
           MOVE INTRL-ENTY-DESC-4053-CH20 OF FCHWM20(0011) TO
                WK01-ENTY-DESC-4053-CH2011.
      *%--------------------------------------------------------------%*
           MOVE INTRL-ENTY-DESC-4053-CH20 OF FCHWM20(0012) TO
                WK01-ENTY-DESC-4053-CH2012.
      *%--------------------------------------------------------------%*
           MOVE INTRL-ENTY-DESC-4053-CH20 OF FCHWM20(0013) TO
                WK01-ENTY-DESC-4053-CH2013.
