    ***Created by Convert/DC version V8R03 on 12/11/00 at 10:00***

      *%--------------------------------------------------------------%*
           MOVE DCLINK-MESSAGE  TO WK01-ZZMESSAGE.
      *%--------------------------------------------------------------%*
           MOVE AGR-DATE OF ADSO-APPLICATION-GLOBAL-RECORD TO WK01-DATE.
      *%--------------------------------------------------------------%*
           MOVE AGR-USER-ID OF ADSO-APPLICATION-GLOBAL-RECORD TO
                WK01-USER-ID.
      *%--------------------------------------------------------------%*
           MOVE AGR-FUNC-DESCRIPTION OF ADSO-APPLICATION-GLOBAL-RECORD
                TO WK01-FUNC-DESCRIPTION.
      *%--------------------------------------------------------------%*
           MOVE AGR-PASSED-ONE OF ADSO-APPLICATION-GLOBAL-RECORD TO
                WK01-PASSED-ONE.
      *%--------------------------------------------------------------%*
           MOVE AGR-MAP-RESPONSE OF ADSO-APPLICATION-GLOBAL-RECORD TO
                WK01-MAP-RESPONSE.
      *%--------------------------------------------------------------%*
           MOVE TRMNL-ID-SY00 OF FSYWG00M TO WK01-ID-SY00.
      *%--------------------------------------------------------------%*
           MOVE FULL-NAME-6001-SY00 OF FSYWG00M TO WK01-NAME-6001-SY00.
      *%--------------------------------------------------------------%*
           MOVE AM-PM-FLAG-SY00 OF FSYWG00M TO WK01-PM-FLAG-SY00.
      *%--------------------------------------------------------------%*
           MOVE CURR-RSPNS-ID-SY00 OF FSYWG00M TO WK01-RSPNS-ID-SY00.
      *%--------------------------------------------------------------%*
           MOVE ERROR-TEXT-SY00 OF FSYWG00M TO WK01-TEXT-SY00.
      *%--------------------------------------------------------------%*
           MOVE PAGE-STATUS-CODE-SY00 OF FSYWG00M TO
                WK01-STATUS-CODE-SY00.
      *%--------------------------------------------------------------%*
           MOVE WORK-HH-MM-TIME-SY00 OF FSYWG00M TO
                WK01-HH-MM-TIME-SY00.
      *%--------------------------------------------------------------%*
           MOVE RQST-AGNCY-LAST-NINE-CH74 OF FCHWK74 TO
                WK01-AGNCY-LAST-NINE-CH74.
      *%--------------------------------------------------------------%*
           MOVE AGNCY-LAST-NINE-4056-CH74 OF FCHWM74(0001) TO
                WK01-LAST-NINE-4056-CH741.
      *%--------------------------------------------------------------%*
           MOVE AGNCY-LAST-NINE-4056-CH74 OF FCHWM74(0002) TO
                WK01-LAST-NINE-4056-CH742.
      *%--------------------------------------------------------------%*
           MOVE AGNCY-LAST-NINE-4056-CH74 OF FCHWM74(0003) TO
                WK01-LAST-NINE-4056-CH743.
      *%--------------------------------------------------------------%*
           MOVE AGNCY-LAST-NINE-4056-CH74 OF FCHWM74(0004) TO
                WK01-LAST-NINE-4056-CH744.
      *%--------------------------------------------------------------%*
           MOVE AGNCY-LAST-NINE-4056-CH74 OF FCHWM74(0005) TO
                WK01-LAST-NINE-4056-CH745.
      *%--------------------------------------------------------------%*
           MOVE AGNCY-LAST-NINE-4056-CH74 OF FCHWM74(0006) TO
                WK01-LAST-NINE-4056-CH746.
      *%--------------------------------------------------------------%*
           MOVE AGNCY-LAST-NINE-4056-CH74 OF FCHWM74(0007) TO
                WK01-LAST-NINE-4056-CH747.
      *%--------------------------------------------------------------%*
           MOVE AGNCY-LAST-NINE-4056-CH74 OF FCHWM74(0008) TO
                WK01-LAST-NINE-4056-CH748.
      *%--------------------------------------------------------------%*
           MOVE AGNCY-LAST-NINE-4056-CH74 OF FCHWM74(0009) TO
                WK01-LAST-NINE-4056-CH749.
      *%--------------------------------------------------------------%*
           MOVE AGNCY-LAST-NINE-4056-CH74 OF FCHWM74(0010) TO
                WK01-LAST-NINE-4056-CH7410.
      *%--------------------------------------------------------------%*
           MOVE AGNCY-LAST-NINE-4056-CH74 OF FCHWM74(0011) TO
                WK01-LAST-NINE-4056-CH7411.
      *%--------------------------------------------------------------%*
           MOVE ACTN-CODE-CH74 OF FCHWM74(0001) TO WK01-CODE-CH741.
      *%--------------------------------------------------------------%*
           MOVE ACTN-CODE-CH74 OF FCHWM74(0002) TO WK01-CODE-CH742.
      *%--------------------------------------------------------------%*
           MOVE ACTN-CODE-CH74 OF FCHWM74(0003) TO WK01-CODE-CH743.
      *%--------------------------------------------------------------%*
           MOVE ACTN-CODE-CH74 OF FCHWM74(0004) TO WK01-CODE-CH744.
      *%--------------------------------------------------------------%*
           MOVE ACTN-CODE-CH74 OF FCHWM74(0005) TO WK01-CODE-CH745.
      *%--------------------------------------------------------------%*
           MOVE ACTN-CODE-CH74 OF FCHWM74(0006) TO WK01-CODE-CH746.
      *%--------------------------------------------------------------%*
           MOVE ACTN-CODE-CH74 OF FCHWM74(0007) TO WK01-CODE-CH747.
      *%--------------------------------------------------------------%*
           MOVE ACTN-CODE-CH74 OF FCHWM74(0008) TO WK01-CODE-CH748.
      *%--------------------------------------------------------------%*
           MOVE ACTN-CODE-CH74 OF FCHWM74(0009) TO WK01-CODE-CH749.
      *%--------------------------------------------------------------%*
           MOVE ACTN-CODE-CH74 OF FCHWM74(0010) TO WK01-CODE-CH7410.
      *%--------------------------------------------------------------%*
           MOVE ACTN-CODE-CH74 OF FCHWM74(0011) TO WK01-CODE-CH7411.
      *%--------------------------------------------------------------%*
           MOVE NAME-KEY-6311-CH74 OF FCHWM74(0001) TO
                WK01-KEY-6311-CH741.
      *%--------------------------------------------------------------%*
           MOVE NAME-KEY-6311-CH74 OF FCHWM74(0002) TO
                WK01-KEY-6311-CH742.
      *%--------------------------------------------------------------%*
           MOVE NAME-KEY-6311-CH74 OF FCHWM74(0003) TO
                WK01-KEY-6311-CH743.
      *%--------------------------------------------------------------%*
           MOVE NAME-KEY-6311-CH74 OF FCHWM74(0004) TO
                WK01-KEY-6311-CH744.
      *%--------------------------------------------------------------%*
           MOVE NAME-KEY-6311-CH74 OF FCHWM74(0005) TO
                WK01-KEY-6311-CH745.
      *%--------------------------------------------------------------%*
           MOVE NAME-KEY-6311-CH74 OF FCHWM74(0006) TO
                WK01-KEY-6311-CH746.
      *%--------------------------------------------------------------%*
           MOVE NAME-KEY-6311-CH74 OF FCHWM74(0007) TO
                WK01-KEY-6311-CH747.
      *%--------------------------------------------------------------%*
           MOVE NAME-KEY-6311-CH74 OF FCHWM74(0008) TO
                WK01-KEY-6311-CH748.
      *%--------------------------------------------------------------%*
           MOVE NAME-KEY-6311-CH74 OF FCHWM74(0009) TO
                WK01-KEY-6311-CH749.
      *%--------------------------------------------------------------%*
           MOVE NAME-KEY-6311-CH74 OF FCHWM74(0010) TO
                WK01-KEY-6311-CH7410.
      *%--------------------------------------------------------------%*
           MOVE NAME-KEY-6311-CH74 OF FCHWM74(0011) TO
                WK01-KEY-6311-CH7411.
