    ***Created by Convert/DC version V8R03 on 12/13/00 at 15:00***

      *%--------------------------------------------------------------%*
           MOVE DCLINK-MESSAGE  TO WK01-ZZMESSAGE.
      *%--------------------------------------------------------------%*
           MOVE AGR-DATE OF ADSO-APPLICATION-GLOBAL-RECORD TO WK01-DATE.
      *%--------------------------------------------------------------%*
           MOVE AGR-USER-ID OF ADSO-APPLICATION-GLOBAL-RECORD TO
                WK01-USER-ID.
      *%--------------------------------------------------------------%*
           MOVE AGR-FUNC-DESCRIPTION OF ADSO-APPLICATION-GLOBAL-RECORD
                TO WK01-FUNC-DESCRIPTION.
      *%--------------------------------------------------------------%*
           MOVE AGR-PASSED-ONE OF ADSO-APPLICATION-GLOBAL-RECORD TO
                WK01-PASSED-ONE.
      *%--------------------------------------------------------------%*
           MOVE AGR-MAP-RESPONSE OF ADSO-APPLICATION-GLOBAL-RECORD TO
                WK01-MAP-RESPONSE.
      *%--------------------------------------------------------------%*
           MOVE TRMNL-ID-SY00 OF FZYWG00M TO WK01-ID-SY00.
      *%--------------------------------------------------------------%*
           MOVE FULL-NAME-6001-SY00 OF FZYWG00M TO WK01-NAME-6001-SY00.
      *%--------------------------------------------------------------%*
           MOVE AM-PM-FLAG-SY00 OF FZYWG00M TO WK01-PM-FLAG-SY00.
      *%--------------------------------------------------------------%*
           MOVE CURR-RSPNS-ID-SY00 OF FZYWG00M TO WK01-RSPNS-ID-SY00.
      *%--------------------------------------------------------------%*
           MOVE ERROR-TEXT-SY00 OF FZYWG00M TO WK01-TEXT-SY00.
      *%--------------------------------------------------------------%*
           MOVE PAGE-STATUS-CODE-SY00 OF FZYWG00M TO
                WK01-STATUS-CODE-SY00.
      *%--------------------------------------------------------------%*
           MOVE WORK-HH-MM-TIME-SY00 OF FZYWG00M TO
                WK01-HH-MM-TIME-SY00.
      *%--------------------------------------------------------------%*
           MOVE RQST-USER-CODE-CO16 OF FCOWK16 TO WK01-USER-CODE-CO16.
      *%--------------------------------------------------------------%*
           MOVE ACTN-CODE-CO16 OF FCOWM16(0001) TO WK01-CODE-CO161.
      *%--------------------------------------------------------------%*
           MOVE ACTN-CODE-CO16 OF FCOWM16(0002) TO WK01-CODE-CO162.
      *%--------------------------------------------------------------%*
           MOVE ACTN-CODE-CO16 OF FCOWM16(0003) TO WK01-CODE-CO163.
      *%--------------------------------------------------------------%*
           MOVE ACTN-CODE-CO16 OF FCOWM16(0004) TO WK01-CODE-CO164.
      *%--------------------------------------------------------------%*
           MOVE ACTN-CODE-CO16 OF FCOWM16(0005) TO WK01-CODE-CO165.
      *%--------------------------------------------------------------%*
           MOVE ACTN-CODE-CO16 OF FCOWM16(0006) TO WK01-CODE-CO166.
      *%--------------------------------------------------------------%*
           MOVE ACTN-CODE-CO16 OF FCOWM16(0007) TO WK01-CODE-CO167.
      *%--------------------------------------------------------------%*
           MOVE ACTN-CODE-CO16 OF FCOWM16(0008) TO WK01-CODE-CO168.
      *%--------------------------------------------------------------%*
           MOVE ACTN-CODE-CO16 OF FCOWM16(0009) TO WK01-CODE-CO169.
      *%--------------------------------------------------------------%*
           MOVE ACTN-CODE-CO16 OF FCOWM16(0010) TO WK01-CODE-CO1610.
      *%--------------------------------------------------------------%*
           MOVE ACTN-CODE-CO16 OF FCOWM16(0011) TO WK01-CODE-CO1611.
      *%--------------------------------------------------------------%*
           MOVE ACTN-CODE-CO16 OF FCOWM16(0012) TO WK01-CODE-CO1612.
      *%--------------------------------------------------------------%*
           MOVE COMM-REF-NMBR-6605-CO16 OF FCOWM16(0001) TO
                WK01-REF-NMBR-6605-CO161.
      *%--------------------------------------------------------------%*
           MOVE COMM-REF-NMBR-6605-CO16 OF FCOWM16(0002) TO
                WK01-REF-NMBR-6605-CO162.
      *%--------------------------------------------------------------%*
           MOVE COMM-REF-NMBR-6605-CO16 OF FCOWM16(0003) TO
                WK01-REF-NMBR-6605-CO163.
      *%--------------------------------------------------------------%*
           MOVE COMM-REF-NMBR-6605-CO16 OF FCOWM16(0004) TO
                WK01-REF-NMBR-6605-CO164.
      *%--------------------------------------------------------------%*
           MOVE COMM-REF-NMBR-6605-CO16 OF FCOWM16(0005) TO
                WK01-REF-NMBR-6605-CO165.
      *%--------------------------------------------------------------%*
           MOVE COMM-REF-NMBR-6605-CO16 OF FCOWM16(0006) TO
                WK01-REF-NMBR-6605-CO166.
      *%--------------------------------------------------------------%*
           MOVE COMM-REF-NMBR-6605-CO16 OF FCOWM16(0007) TO
                WK01-REF-NMBR-6605-CO167.
      *%--------------------------------------------------------------%*
           MOVE COMM-REF-NMBR-6605-CO16 OF FCOWM16(0008) TO
                WK01-REF-NMBR-6605-CO168.
      *%--------------------------------------------------------------%*
           MOVE COMM-REF-NMBR-6605-CO16 OF FCOWM16(0009) TO
                WK01-REF-NMBR-6605-CO169.
      *%--------------------------------------------------------------%*
           MOVE COMM-REF-NMBR-6605-CO16 OF FCOWM16(0010) TO
                WK01-REF-NMBR-6605-CO1610.
      *%--------------------------------------------------------------%*
           MOVE COMM-REF-NMBR-6605-CO16 OF FCOWM16(0011) TO
                WK01-REF-NMBR-6605-CO1611.
      *%--------------------------------------------------------------%*
           MOVE COMM-REF-NMBR-6605-CO16 OF FCOWM16(0012) TO
                WK01-REF-NMBR-6605-CO1612.
      *%--------------------------------------------------------------%*
           MOVE TEXT-CODE-6605-CO16 OF FCOWM16(0001) TO
                WK01-CODE-6605-CO161.
      *%--------------------------------------------------------------%*
           MOVE TEXT-CODE-6605-CO16 OF FCOWM16(0002) TO
                WK01-CODE-6605-CO162.
      *%--------------------------------------------------------------%*
           MOVE TEXT-CODE-6605-CO16 OF FCOWM16(0003) TO
                WK01-CODE-6605-CO163.
      *%--------------------------------------------------------------%*
           MOVE TEXT-CODE-6605-CO16 OF FCOWM16(0004) TO
                WK01-CODE-6605-CO164.
      *%--------------------------------------------------------------%*
           MOVE TEXT-CODE-6605-CO16 OF FCOWM16(0005) TO
                WK01-CODE-6605-CO165.
      *%--------------------------------------------------------------%*
           MOVE TEXT-CODE-6605-CO16 OF FCOWM16(0006) TO
                WK01-CODE-6605-CO166.
      *%--------------------------------------------------------------%*
           MOVE TEXT-CODE-6605-CO16 OF FCOWM16(0007) TO
                WK01-CODE-6605-CO167.
      *%--------------------------------------------------------------%*
           MOVE TEXT-CODE-6605-CO16 OF FCOWM16(0008) TO
                WK01-CODE-6605-CO168.
      *%--------------------------------------------------------------%*
           MOVE TEXT-CODE-6605-CO16 OF FCOWM16(0009) TO
                WK01-CODE-6605-CO169.
      *%--------------------------------------------------------------%*
           MOVE TEXT-CODE-6605-CO16 OF FCOWM16(0010) TO
                WK01-CODE-6605-CO1610.
      *%--------------------------------------------------------------%*
           MOVE TEXT-CODE-6605-CO16 OF FCOWM16(0011) TO
                WK01-CODE-6605-CO1611.
      *%--------------------------------------------------------------%*
           MOVE TEXT-CODE-6605-CO16 OF FCOWM16(0012) TO
                WK01-CODE-6605-CO1612.
      *%--------------------------------------------------------------%*
           MOVE PRNTD-FLAG-6605-CO16 OF FCOWM16(0001) TO
                WK01-FLAG-6605-CO161.
      *%--------------------------------------------------------------%*
           MOVE PRNTD-FLAG-6605-CO16 OF FCOWM16(0002) TO
                WK01-FLAG-6605-CO162.
      *%--------------------------------------------------------------%*
           MOVE PRNTD-FLAG-6605-CO16 OF FCOWM16(0003) TO
                WK01-FLAG-6605-CO163.
      *%--------------------------------------------------------------%*
           MOVE PRNTD-FLAG-6605-CO16 OF FCOWM16(0004) TO
                WK01-FLAG-6605-CO164.
      *%--------------------------------------------------------------%*
           MOVE PRNTD-FLAG-6605-CO16 OF FCOWM16(0005) TO
                WK01-FLAG-6605-CO165.
      *%--------------------------------------------------------------%*
           MOVE PRNTD-FLAG-6605-CO16 OF FCOWM16(0006) TO
                WK01-FLAG-6605-CO166.
      *%--------------------------------------------------------------%*
           MOVE PRNTD-FLAG-6605-CO16 OF FCOWM16(0007) TO
                WK01-FLAG-6605-CO167.
      *%--------------------------------------------------------------%*
           MOVE PRNTD-FLAG-6605-CO16 OF FCOWM16(0008) TO
                WK01-FLAG-6605-CO168.
      *%--------------------------------------------------------------%*
           MOVE PRNTD-FLAG-6605-CO16 OF FCOWM16(0009) TO
                WK01-FLAG-6605-CO169.
      *%--------------------------------------------------------------%*
           MOVE PRNTD-FLAG-6605-CO16 OF FCOWM16(0010) TO
                WK01-FLAG-6605-CO1610.
      *%--------------------------------------------------------------%*
           MOVE PRNTD-FLAG-6605-CO16 OF FCOWM16(0011) TO
                WK01-FLAG-6605-CO1611.
      *%--------------------------------------------------------------%*
           MOVE PRNTD-FLAG-6605-CO16 OF FCOWM16(0012) TO
                WK01-FLAG-6605-CO1612.
      *%--------------------------------------------------------------%*
           MOVE BATCH-USER-CODE-6605-CO16 OF FCOWM16(0001) TO
                WK01-USER-CODE-6605-CO161.
      *%--------------------------------------------------------------%*
           MOVE BATCH-USER-CODE-6605-CO16 OF FCOWM16(0002) TO
                WK01-USER-CODE-6605-CO162.
      *%--------------------------------------------------------------%*
           MOVE BATCH-USER-CODE-6605-CO16 OF FCOWM16(0003) TO
                WK01-USER-CODE-6605-CO163.
      *%--------------------------------------------------------------%*
           MOVE BATCH-USER-CODE-6605-CO16 OF FCOWM16(0004) TO
                WK01-USER-CODE-6605-CO164.
      *%--------------------------------------------------------------%*
           MOVE BATCH-USER-CODE-6605-CO16 OF FCOWM16(0005) TO
                WK01-USER-CODE-6605-CO165.
      *%--------------------------------------------------------------%*
           MOVE BATCH-USER-CODE-6605-CO16 OF FCOWM16(0006) TO
                WK01-USER-CODE-6605-CO166.
      *%--------------------------------------------------------------%*
           MOVE BATCH-USER-CODE-6605-CO16 OF FCOWM16(0007) TO
                WK01-USER-CODE-6605-CO167.
      *%--------------------------------------------------------------%*
           MOVE BATCH-USER-CODE-6605-CO16 OF FCOWM16(0008) TO
                WK01-USER-CODE-6605-CO168.
      *%--------------------------------------------------------------%*
           MOVE BATCH-USER-CODE-6605-CO16 OF FCOWM16(0009) TO
                WK01-USER-CODE-6605-CO169.
      *%--------------------------------------------------------------%*
           MOVE BATCH-USER-CODE-6605-CO16 OF FCOWM16(0010) TO
                WK01-USER-CODE-6605-CO1610.
      *%--------------------------------------------------------------%*
           MOVE BATCH-USER-CODE-6605-CO16 OF FCOWM16(0011) TO
                WK01-USER-CODE-6605-CO1611.
      *%--------------------------------------------------------------%*
           MOVE BATCH-USER-CODE-6605-CO16 OF FCOWM16(0012) TO
                WK01-USER-CODE-6605-CO1612.
      *%--------------------------------------------------------------%*
           MOVE CNFRM-DLT-FLAG-CO16 OF FCOWM16(0001) TO
                WK01-DLT-FLAG-CO161.
      *%--------------------------------------------------------------%*
           MOVE CNFRM-DLT-FLAG-CO16 OF FCOWM16(0002) TO
                WK01-DLT-FLAG-CO162.
      *%--------------------------------------------------------------%*
           MOVE CNFRM-DLT-FLAG-CO16 OF FCOWM16(0003) TO
                WK01-DLT-FLAG-CO163.
      *%--------------------------------------------------------------%*
           MOVE CNFRM-DLT-FLAG-CO16 OF FCOWM16(0004) TO
                WK01-DLT-FLAG-CO164.
      *%--------------------------------------------------------------%*
           MOVE CNFRM-DLT-FLAG-CO16 OF FCOWM16(0005) TO
                WK01-DLT-FLAG-CO165.
      *%--------------------------------------------------------------%*
           MOVE CNFRM-DLT-FLAG-CO16 OF FCOWM16(0006) TO
                WK01-DLT-FLAG-CO166.
      *%--------------------------------------------------------------%*
           MOVE CNFRM-DLT-FLAG-CO16 OF FCOWM16(0007) TO
                WK01-DLT-FLAG-CO167.
      *%--------------------------------------------------------------%*
           MOVE CNFRM-DLT-FLAG-CO16 OF FCOWM16(0008) TO
                WK01-DLT-FLAG-CO168.
      *%--------------------------------------------------------------%*
           MOVE CNFRM-DLT-FLAG-CO16 OF FCOWM16(0009) TO
                WK01-DLT-FLAG-CO169.
      *%--------------------------------------------------------------%*
           MOVE CNFRM-DLT-FLAG-CO16 OF FCOWM16(0010) TO
                WK01-DLT-FLAG-CO1610.
      *%--------------------------------------------------------------%*
           MOVE CNFRM-DLT-FLAG-CO16 OF FCOWM16(0011) TO
                WK01-DLT-FLAG-CO1611.
      *%--------------------------------------------------------------%*
           MOVE CNFRM-DLT-FLAG-CO16 OF FCOWM16(0012) TO
                WK01-DLT-FLAG-CO1612.
      *%--------------------------------------------------------------%*
           MOVE COMM-DATE-6605-CO16 OF FCOWM16(0001) TO
                WK01-DATE-6605-CO161.
      *%--------------------------------------------------------------%*
           MOVE COMM-DATE-6605-CO16 OF FCOWM16(0002) TO
                WK01-DATE-6605-CO162.
      *%--------------------------------------------------------------%*
           MOVE COMM-DATE-6605-CO16 OF FCOWM16(0003) TO
                WK01-DATE-6605-CO163.
      *%--------------------------------------------------------------%*
           MOVE COMM-DATE-6605-CO16 OF FCOWM16(0004) TO
                WK01-DATE-6605-CO164.
      *%--------------------------------------------------------------%*
           MOVE COMM-DATE-6605-CO16 OF FCOWM16(0005) TO
                WK01-DATE-6605-CO165.
      *%--------------------------------------------------------------%*
           MOVE COMM-DATE-6605-CO16 OF FCOWM16(0006) TO
                WK01-DATE-6605-CO166.
      *%--------------------------------------------------------------%*
           MOVE COMM-DATE-6605-CO16 OF FCOWM16(0007) TO
                WK01-DATE-6605-CO167.
      *%--------------------------------------------------------------%*
           MOVE COMM-DATE-6605-CO16 OF FCOWM16(0008) TO
                WK01-DATE-6605-CO168.
      *%--------------------------------------------------------------%*
           MOVE COMM-DATE-6605-CO16 OF FCOWM16(0009) TO
                WK01-DATE-6605-CO169.
      *%--------------------------------------------------------------%*
           MOVE COMM-DATE-6605-CO16 OF FCOWM16(0010) TO
                WK01-DATE-6605-CO1610.
      *%--------------------------------------------------------------%*
           MOVE COMM-DATE-6605-CO16 OF FCOWM16(0011) TO
                WK01-DATE-6605-CO1611.
      *%--------------------------------------------------------------%*
           MOVE COMM-DATE-6605-CO16 OF FCOWM16(0012) TO
                WK01-DATE-6605-CO1612.
