    ***Created by Convert/DC version V8R03 on 12/13/00 at 09:00***

      *%--------------------------------------------------------------%*
           MOVE DCLINK-MESSAGE  TO WK01-ZZMESSAGE.
      *%--------------------------------------------------------------%*
           MOVE AGR-DATE OF ADSO-APPLICATION-GLOBAL-RECORD TO WK01-DATE.
      *%--------------------------------------------------------------%*
           MOVE AGR-USER-ID OF ADSO-APPLICATION-GLOBAL-RECORD TO
                WK01-USER-ID.
      *%--------------------------------------------------------------%*
           MOVE AGR-FUNC-DESCRIPTION OF ADSO-APPLICATION-GLOBAL-RECORD
                TO WK01-FUNC-DESCRIPTION.
      *%--------------------------------------------------------------%*
           MOVE AGR-PASSED-ONE OF ADSO-APPLICATION-GLOBAL-RECORD TO
                WK01-PASSED-ONE.
      *%--------------------------------------------------------------%*
           MOVE AGR-MAP-RESPONSE OF ADSO-APPLICATION-GLOBAL-RECORD TO
                WK01-MAP-RESPONSE.
      *%--------------------------------------------------------------%*
           MOVE TRMNL-ID-SY00 OF FZYWG00M TO WK01-ID-SY00.
      *%--------------------------------------------------------------%*
           MOVE FULL-NAME-6001-SY00 OF FZYWG00M TO WK01-NAME-6001-SY00.
      *%--------------------------------------------------------------%*
           MOVE AM-PM-FLAG-SY00 OF FZYWG00M TO WK01-PM-FLAG-SY00.
      *%--------------------------------------------------------------%*
           MOVE CURR-RSPNS-ID-SY00 OF FZYWG00M TO WK01-RSPNS-ID-SY00.
      *%--------------------------------------------------------------%*
           MOVE ERROR-TEXT-SY00 OF FZYWG00M TO WK01-TEXT-SY00.
      *%--------------------------------------------------------------%*
           MOVE PAGE-STATUS-CODE-SY00 OF FZYWG00M TO
                WK01-STATUS-CODE-SY00.
      *%--------------------------------------------------------------%*
           MOVE WORK-HH-MM-TIME-SY00 OF FZYWG00M TO
                WK01-HH-MM-TIME-SY00.
      *%--------------------------------------------------------------%*
           MOVE COMM-REF-NMBR-6273-CO13 OF FCOWK13 TO
                WK01-REF-NMBR-6273-CO13.
      *%--------------------------------------------------------------%*
           MOVE COMM-TYPE-6273-CO13 OF FCOWM13 TO WK01-TYPE-6273-CO13.
      *%--------------------------------------------------------------%*
           MOVE COMM-PLAN-CODE-6273-CO13 OF FCOWM13 TO
                WK01-PLAN-CODE-6273-CO13.
      *%--------------------------------------------------------------%*
           MOVE LONG-DESC-6258-CO13 OF FCOWM13 TO WK01-DESC-6258-CO13.
      *%--------------------------------------------------------------%*
           MOVE COMM-DATE-6273-CO13 OF FCOWM13 TO WK01-DATE-6273-CO13.
      *%--------------------------------------------------------------%*
           MOVE RQST-COMM-NAME-6274-CO13 OF FCOWK13 TO
                WK01-COMM-NAME-6274-CO13.
      *%--------------------------------------------------------------%*
           MOVE LONG-DESC-6258-CO13 OF FCOWM13 TO WK01-DESC-6258-CO1A.
      *%--------------------------------------------------------------%*
           MOVE LONG-DESC-6259-CO13 OF FCOWM13 TO WK01-DESC-6259-CO13.
      *%--------------------------------------------------------------%*
           MOVE TEXT-CODE-6273-CO13 OF FCOWK13 TO WK01-CODE-6273-CO13.
      *%--------------------------------------------------------------%*
           MOVE COMM-NAME-6274-CO13 OF FCOWM13(0001) TO
                WK01-NAME-6274-CO131.
      *%--------------------------------------------------------------%*
           MOVE COMM-NAME-6274-CO13 OF FCOWM13(0002) TO
                WK01-NAME-6274-CO132.
      *%--------------------------------------------------------------%*
           MOVE COMM-NAME-6274-CO13 OF FCOWM13(0003) TO
                WK01-NAME-6274-CO133.
      *%--------------------------------------------------------------%*
           MOVE COMM-NAME-6274-CO13 OF FCOWM13(0004) TO
                WK01-NAME-6274-CO134.
      *%--------------------------------------------------------------%*
           MOVE COMM-NAME-6274-CO13 OF FCOWM13(0005) TO
                WK01-NAME-6274-CO135.
      *%--------------------------------------------------------------%*
           MOVE COMM-NAME-6274-CO13 OF FCOWM13(0006) TO
                WK01-NAME-6274-CO136.
      *%--------------------------------------------------------------%*
           MOVE COMM-NAME-6274-CO13 OF FCOWM13(0007) TO
                WK01-NAME-6274-CO137.
      *%--------------------------------------------------------------%*
           MOVE COMM-NAME-6274-CO13 OF FCOWM13(0008) TO
                WK01-NAME-6274-CO138.
      *%--------------------------------------------------------------%*
           MOVE PRSN-ID-LAST-NINE-6157-CO13 OF FCOWM13(0001) TO
                WK01-ID-LAST-NIN-6157-C131.
      *%--------------------------------------------------------------%*
           MOVE PRSN-ID-LAST-NINE-6157-CO13 OF FCOWM13(0002) TO
                WK01-ID-LAST-NIN-6157-C132.
      *%--------------------------------------------------------------%*
           MOVE PRSN-ID-LAST-NINE-6157-CO13 OF FCOWM13(0003) TO
                WK01-ID-LAST-NIN-6157-C133.
      *%--------------------------------------------------------------%*
           MOVE PRSN-ID-LAST-NINE-6157-CO13 OF FCOWM13(0004) TO
                WK01-ID-LAST-NIN-6157-C134.
      *%--------------------------------------------------------------%*
           MOVE PRSN-ID-LAST-NINE-6157-CO13 OF FCOWM13(0005) TO
                WK01-ID-LAST-NIN-6157-C135.
      *%--------------------------------------------------------------%*
           MOVE PRSN-ID-LAST-NINE-6157-CO13 OF FCOWM13(0006) TO
                WK01-ID-LAST-NIN-6157-C136.
      *%--------------------------------------------------------------%*
           MOVE PRSN-ID-LAST-NINE-6157-CO13 OF FCOWM13(0007) TO
                WK01-ID-LAST-NIN-6157-C137.
      *%--------------------------------------------------------------%*
           MOVE PRSN-ID-LAST-NINE-6157-CO13 OF FCOWM13(0008) TO
                WK01-ID-LAST-NIN-6157-C138.
      *%--------------------------------------------------------------%*
           MOVE COMM-VARIABLE-6274-CO13 OF FCOWM13(0001) TO
                WK01-VARIABLE-6274-CO131.
      *%--------------------------------------------------------------%*
           MOVE COMM-VARIABLE-6274-CO13 OF FCOWM13(0002) TO
                WK01-VARIABLE-6274-CO132.
      *%--------------------------------------------------------------%*
           MOVE COMM-VARIABLE-6274-CO13 OF FCOWM13(0003) TO
                WK01-VARIABLE-6274-CO133.
      *%--------------------------------------------------------------%*
           MOVE COMM-VARIABLE-6274-CO13 OF FCOWM13(0004) TO
                WK01-VARIABLE-6274-CO134.
      *%--------------------------------------------------------------%*
           MOVE COMM-VARIABLE-6274-CO13 OF FCOWM13(0005) TO
                WK01-VARIABLE-6274-CO135.
      *%--------------------------------------------------------------%*
           MOVE COMM-VARIABLE-6274-CO13 OF FCOWM13(0006) TO
                WK01-VARIABLE-6274-CO136.
      *%--------------------------------------------------------------%*
           MOVE COMM-VARIABLE-6274-CO13 OF FCOWM13(0007) TO
                WK01-VARIABLE-6274-CO137.
      *%--------------------------------------------------------------%*
           MOVE COMM-VARIABLE-6274-CO13 OF FCOWM13(0008) TO
                WK01-VARIABLE-6274-CO138.
      *%--------------------------------------------------------------%*
           MOVE ACTN-CODE-CO13  OF FCOWM13(0001)
                                    TO WK01-CODE-CO1A11.
      *%--------------------------------------------------------------%*
           MOVE FUND-CODE-CO13 OF FCOWM13(0001) TO WK01-FUND-CODE01.
      *%--------------------------------------------------------------%*
           MOVE ACTN-CODE-CO13  OF FCOWM13(0002)
                                    TO WK01-CODE-CO1A12.
      *%--------------------------------------------------------------%*
           MOVE FUND-CODE-CO13 OF FCOWM13(0002) TO WK01-FUND-CODE02.
      *%--------------------------------------------------------------%*
           MOVE ACTN-CODE-CO13  OF FCOWM13(0003)
                                    TO WK01-CODE-CO1A13.
      *%--------------------------------------------------------------%*
           MOVE FUND-CODE-CO13 OF FCOWM13(0003) TO WK01-FUND-CODE03.
      *%--------------------------------------------------------------%*
           MOVE ACTN-CODE-CO13  OF FCOWM13(0004)
                                    TO WK01-CODE-CO1A14.
      *%--------------------------------------------------------------%*
           MOVE FUND-CODE-CO13 OF FCOWM13(0004) TO WK01-FUND-CODE04.
      *%--------------------------------------------------------------%*
           MOVE ACTN-CODE-CO13  OF FCOWM13(0005)
                                    TO WK01-CODE-CO1A15.
      *%--------------------------------------------------------------%*
           MOVE FUND-CODE-CO13 OF FCOWM13(0005) TO WK01-FUND-CODE05.
      *%--------------------------------------------------------------%*
           MOVE ACTN-CODE-CO13  OF FCOWM13(0006)
                                    TO WK01-CODE-CO1A16.
      *%--------------------------------------------------------------%*
           MOVE FUND-CODE-CO13 OF FCOWM13(0006) TO WK01-FUND-CODE06.
      *%--------------------------------------------------------------%*
           MOVE ACTN-CODE-CO13  OF FCOWM13(0007)
                                    TO WK01-CODE-CO1A17.
      *%--------------------------------------------------------------%*
           MOVE FUND-CODE-CO13 OF FCOWM13(0007) TO WK01-FUND-CODE07.
      *%--------------------------------------------------------------%*
           MOVE ACTN-CODE-CO13  OF FCOWM13(0008)
                                    TO WK01-CODE-CO1A18.
      *%--------------------------------------------------------------%*
           MOVE FUND-CODE-CO13 OF FCOWM13(0008) TO WK01-FUND-CODE08.
