    ***Created by Convert/DC version V8R03 on 12/13/00 at 16:00***

      *%--------------------------------------------------------------%*
           MOVE DCLINK-MESSAGE  TO WK01-ZZMESSAGE.
      *%--------------------------------------------------------------%*
           MOVE AGR-DATE OF ADSO-APPLICATION-GLOBAL-RECORD TO WK01-DATE.
      *%--------------------------------------------------------------%*
           MOVE AGR-USER-ID OF ADSO-APPLICATION-GLOBAL-RECORD TO
                WK01-USER-ID.
      *%--------------------------------------------------------------%*
           MOVE AGR-FUNC-DESCRIPTION OF ADSO-APPLICATION-GLOBAL-RECORD
                TO WK01-FUNC-DESCRIPTION.
      *%--------------------------------------------------------------%*
           MOVE AGR-PASSED-ONE OF ADSO-APPLICATION-GLOBAL-RECORD TO
                WK01-PASSED-ONE.
      *%--------------------------------------------------------------%*
           MOVE AGR-MAP-RESPONSE OF ADSO-APPLICATION-GLOBAL-RECORD TO
                WK01-MAP-RESPONSE.
      *%--------------------------------------------------------------%*
           MOVE TRMNL-ID-SY00 OF FZYWG00M TO WK01-ID-SY00.
      *%--------------------------------------------------------------%*
           MOVE FULL-NAME-6001-SY00 OF FZYWG00M TO WK01-NAME-6001-SY00.
      *%--------------------------------------------------------------%*
           MOVE AM-PM-FLAG-SY00 OF FZYWG00M TO WK01-PM-FLAG-SY00.
      *%--------------------------------------------------------------%*
           MOVE CURR-RSPNS-ID-SY00 OF FZYWG00M TO WK01-RSPNS-ID-SY00.
      *%--------------------------------------------------------------%*
           MOVE ERROR-TEXT-SY00 OF FZYWG00M TO WK01-TEXT-SY00.
      *%--------------------------------------------------------------%*
           MOVE PAGE-STATUS-CODE-SY00 OF FZYWG00M TO
                WK01-STATUS-CODE-SY00.
      *%--------------------------------------------------------------%*
           MOVE WORK-HH-MM-TIME-SY00 OF FZYWG00M TO
                WK01-HH-MM-TIME-SY00.
      *%--------------------------------------------------------------%*
           MOVE LONG-DESC-6268-CO10 OF FCOWM10 TO WK01-DESC-6268-CO10.
      *%--------------------------------------------------------------%*
           MOVE OFC-CODE-6268-CO10 OF FCOWM10 TO WK01-CODE-6268-CO10.
      *%--------------------------------------------------------------%*
           MOVE FULL-NAME-2155-CO10 OF FCOWM10 TO WK01-NAME-2155-CO10.
      *%--------------------------------------------------------------%*
           MOVE COMM-VIEW-6268-CO10 OF FCOWM10 TO WK01-VIEW-6268-CO10.
      *%--------------------------------------------------------------%*
           MOVE LONG-DESC-6257-CO10 OF FCOWM10 TO WK01-DESC-6257-CO10.
      *%--------------------------------------------------------------%*
           MOVE PARA-TEXT-6269-CO10 OF FCOWM10(0001) TO
                WK01-TEXT-6269-CO101.
      *%--------------------------------------------------------------%*
           MOVE PARA-TEXT-6269-CO10 OF FCOWM10(0002) TO
                WK01-TEXT-6269-CO102.
      *%--------------------------------------------------------------%*
           MOVE PARA-TEXT-6269-CO10 OF FCOWM10(0003) TO
                WK01-TEXT-6269-CO103.
      *%--------------------------------------------------------------%*
           MOVE PARA-TEXT-6269-CO10 OF FCOWM10(0004) TO
                WK01-TEXT-6269-CO104.
      *%--------------------------------------------------------------%*
           MOVE PARA-TEXT-6269-CO10 OF FCOWM10(0005) TO
                WK01-TEXT-6269-CO105.
      *%--------------------------------------------------------------%*
           MOVE PARA-TEXT-6269-CO10 OF FCOWM10(0006) TO
                WK01-TEXT-6269-CO106.
      *%--------------------------------------------------------------%*
           MOVE PARA-TEXT-6269-CO10 OF FCOWM10(0007) TO
                WK01-TEXT-6269-CO107.
      *%--------------------------------------------------------------%*
           MOVE PARA-TEXT-6269-CO10 OF FCOWM10(0008) TO
                WK01-TEXT-6269-CO108.
      *%--------------------------------------------------------------%*
           MOVE PARA-TEXT-6269-CO10 OF FCOWM10(0009) TO
                WK01-TEXT-6269-CO109.
      *%--------------------------------------------------------------%*
           MOVE PARA-TEXT-6269-CO10 OF FCOWM10(0010) TO
                WK01-TEXT-6269-CO1010.
      *%--------------------------------------------------------------%*
           MOVE PARA-TEXT-6269-CO10 OF FCOWM10(0011) TO
                WK01-TEXT-6269-CO1011.
      *%--------------------------------------------------------------%*
           MOVE PARA-TEXT-6269-CO10 OF FCOWM10(0012) TO
                WK01-TEXT-6269-CO1012.
      *%--------------------------------------------------------------%*
           MOVE PARA-CODE-KEY-CO10 OF FCOWK10 TO WK01-CODE-KEY-CO10.
