    ***Created by Convert/DC version V8R03 on 12/11/00 at 08:00***

      *%--------------------------------------------------------------%*
           MOVE DCLINK-MESSAGE  TO WK01-ZZMESSAGE.
      *%--------------------------------------------------------------%*
           MOVE AGR-DATE OF ADSO-APPLICATION-GLOBAL-RECORD TO WK01-DATE.
      *%--------------------------------------------------------------%*
           MOVE AGR-USER-ID OF ADSO-APPLICATION-GLOBAL-RECORD TO
                WK01-USER-ID.
      *%--------------------------------------------------------------%*
           MOVE AGR-FUNC-DESCRIPTION OF ADSO-APPLICATION-GLOBAL-RECORD
                TO WK01-FUNC-DESCRIPTION.
      *%--------------------------------------------------------------%*
           MOVE AGR-PASSED-ONE OF ADSO-APPLICATION-GLOBAL-RECORD TO
                WK01-PASSED-ONE.
      *%--------------------------------------------------------------%*
           MOVE AGR-MAP-RESPONSE OF ADSO-APPLICATION-GLOBAL-RECORD TO
                WK01-MAP-RESPONSE.
      *%--------------------------------------------------------------%*
           MOVE TRMNL-ID-SY00 OF FZYWG00M TO WK01-ID-SY00.
      *%--------------------------------------------------------------%*
           MOVE FULL-NAME-6001-SY00 OF FZYWG00M TO WK01-NAME-6001-SY00.
      *%--------------------------------------------------------------%*
           MOVE AM-PM-FLAG-SY00 OF FZYWG00M TO WK01-PM-FLAG-SY00.
      *%--------------------------------------------------------------%*
           MOVE CURR-RSPNS-ID-SY00 OF FZYWG00M TO WK01-RSPNS-ID-SY00.
      *%--------------------------------------------------------------%*
           MOVE ERROR-TEXT-SY00 OF FZYWG00M TO WK01-TEXT-SY00.
      *%--------------------------------------------------------------%*
           MOVE PAGE-STATUS-CODE-SY00 OF FZYWG00M TO
                WK01-STATUS-CODE-SY00.
      *%--------------------------------------------------------------%*
           MOVE WORK-HH-MM-TIME-SY00 OF FZYWG00M TO
                WK01-HH-MM-TIME-SY00.
      *%--------------------------------------------------------------%*
           MOVE ACTN-CODE-PE01 OF FPEWM01(0001) TO WK01-CODE-PE011.
      *%--------------------------------------------------------------%*
           MOVE ACTN-CODE-PE01 OF FPEWM01(0002) TO WK01-CODE-PE012.
      *%--------------------------------------------------------------%*
           MOVE ACTN-CODE-PE01 OF FPEWM01(0003) TO WK01-CODE-PE013.
      *%--------------------------------------------------------------%*
           MOVE ACTN-CODE-PE01 OF FPEWM01(0004) TO WK01-CODE-PE014.
      *%--------------------------------------------------------------%*
           MOVE ACTN-CODE-PE01 OF FPEWM01(0005) TO WK01-CODE-PE015.
      *%--------------------------------------------------------------%*
           MOVE ACTN-CODE-PE01 OF FPEWM01(0006) TO WK01-CODE-PE016.
      *%--------------------------------------------------------------%*
           MOVE ACTN-CODE-PE01 OF FPEWM01(0007) TO WK01-CODE-PE017.
      *%--------------------------------------------------------------%*
           MOVE ACTN-CODE-PE01 OF FPEWM01(0008) TO WK01-CODE-PE018.
      *%--------------------------------------------------------------%*
           MOVE ACTN-CODE-PE01 OF FPEWM01(0009) TO WK01-CODE-PE019.
      *%--------------------------------------------------------------%*
           MOVE ACTN-CODE-PE01 OF FPEWM01(0010) TO WK01-CODE-PE0110.
      *%--------------------------------------------------------------%*
           MOVE ACTN-CODE-PE01 OF FPEWM01(0011) TO WK01-CODE-PE0111.
      *%--------------------------------------------------------------%*
           MOVE ACTN-CODE-PE01 OF FPEWM01(0012) TO WK01-CODE-PE0112.
      *%--------------------------------------------------------------%*
           MOVE ADR-TYPE-CODE-6137-PE01 OF FPEWM01(0001) TO
                WK01-TYPE-CODE-6137-PE011.
      *%--------------------------------------------------------------%*
           MOVE ADR-TYPE-CODE-6137-PE01 OF FPEWM01(0002) TO
                WK01-TYPE-CODE-6137-PE012.
      *%--------------------------------------------------------------%*
           MOVE ADR-TYPE-CODE-6137-PE01 OF FPEWM01(0003) TO
                WK01-TYPE-CODE-6137-PE013.
      *%--------------------------------------------------------------%*
           MOVE ADR-TYPE-CODE-6137-PE01 OF FPEWM01(0004) TO
                WK01-TYPE-CODE-6137-PE014.
      *%--------------------------------------------------------------%*
           MOVE ADR-TYPE-CODE-6137-PE01 OF FPEWM01(0005) TO
                WK01-TYPE-CODE-6137-PE015.
      *%--------------------------------------------------------------%*
           MOVE ADR-TYPE-CODE-6137-PE01 OF FPEWM01(0006) TO
                WK01-TYPE-CODE-6137-PE016.
      *%--------------------------------------------------------------%*
           MOVE ADR-TYPE-CODE-6137-PE01 OF FPEWM01(0007) TO
                WK01-TYPE-CODE-6137-PE017.
      *%--------------------------------------------------------------%*
           MOVE ADR-TYPE-CODE-6137-PE01 OF FPEWM01(0008) TO
                WK01-TYPE-CODE-6137-PE018.
      *%--------------------------------------------------------------%*
           MOVE ADR-TYPE-CODE-6137-PE01 OF FPEWM01(0009) TO
                WK01-TYPE-CODE-6137-PE019.
      *%--------------------------------------------------------------%*
           MOVE ADR-TYPE-CODE-6137-PE01 OF FPEWM01(0010) TO
                WK01-TYPE-CODE-6137-PE0110.
      *%--------------------------------------------------------------%*
           MOVE ADR-TYPE-CODE-6137-PE01 OF FPEWM01(0011) TO
                WK01-TYPE-CODE-6137-PE0111.
      *%--------------------------------------------------------------%*
           MOVE ADR-TYPE-CODE-6137-PE01 OF FPEWM01(0012) TO
                WK01-TYPE-CODE-6137-PE0112.
      *%--------------------------------------------------------------%*
           MOVE DSPLY-PRTY-SEQ-6137-PE01 OF FPEWM01(0001) TO
                WK01-PRTY-SEQ-6137-PE011.
      *%--------------------------------------------------------------%*
           MOVE DSPLY-PRTY-SEQ-6137-PE01 OF FPEWM01(0002) TO
                WK01-PRTY-SEQ-6137-PE012.
      *%--------------------------------------------------------------%*
           MOVE DSPLY-PRTY-SEQ-6137-PE01 OF FPEWM01(0003) TO
                WK01-PRTY-SEQ-6137-PE013.
      *%--------------------------------------------------------------%*
           MOVE DSPLY-PRTY-SEQ-6137-PE01 OF FPEWM01(0004) TO
                WK01-PRTY-SEQ-6137-PE014.
      *%--------------------------------------------------------------%*
           MOVE DSPLY-PRTY-SEQ-6137-PE01 OF FPEWM01(0005) TO
                WK01-PRTY-SEQ-6137-PE015.
      *%--------------------------------------------------------------%*
           MOVE DSPLY-PRTY-SEQ-6137-PE01 OF FPEWM01(0006) TO
                WK01-PRTY-SEQ-6137-PE016.
      *%--------------------------------------------------------------%*
           MOVE DSPLY-PRTY-SEQ-6137-PE01 OF FPEWM01(0007) TO
                WK01-PRTY-SEQ-6137-PE017.
      *%--------------------------------------------------------------%*
           MOVE DSPLY-PRTY-SEQ-6137-PE01 OF FPEWM01(0008) TO
                WK01-PRTY-SEQ-6137-PE018.
      *%--------------------------------------------------------------%*
           MOVE DSPLY-PRTY-SEQ-6137-PE01 OF FPEWM01(0009) TO
                WK01-PRTY-SEQ-6137-PE019.
      *%--------------------------------------------------------------%*
           MOVE DSPLY-PRTY-SEQ-6137-PE01 OF FPEWM01(0010) TO
                WK01-PRTY-SEQ-6137-PE0110.
      *%--------------------------------------------------------------%*
           MOVE DSPLY-PRTY-SEQ-6137-PE01 OF FPEWM01(0011) TO
                WK01-PRTY-SEQ-6137-PE0111.
      *%--------------------------------------------------------------%*
           MOVE DSPLY-PRTY-SEQ-6137-PE01 OF FPEWM01(0012) TO
                WK01-PRTY-SEQ-6137-PE0112.
      *%--------------------------------------------------------------%*
           MOVE SHORT-DESC-6137-PE01 OF FPEWM01(0001) TO
                WK01-DESC-6137-PE011.
      *%--------------------------------------------------------------%*
           MOVE SHORT-DESC-6137-PE01 OF FPEWM01(0002) TO
                WK01-DESC-6137-PE012.
      *%--------------------------------------------------------------%*
           MOVE SHORT-DESC-6137-PE01 OF FPEWM01(0003) TO
                WK01-DESC-6137-PE013.
      *%--------------------------------------------------------------%*
           MOVE SHORT-DESC-6137-PE01 OF FPEWM01(0004) TO
                WK01-DESC-6137-PE014.
      *%--------------------------------------------------------------%*
           MOVE SHORT-DESC-6137-PE01 OF FPEWM01(0005) TO
                WK01-DESC-6137-PE015.
      *%--------------------------------------------------------------%*
           MOVE SHORT-DESC-6137-PE01 OF FPEWM01(0006) TO
                WK01-DESC-6137-PE016.
      *%--------------------------------------------------------------%*
           MOVE SHORT-DESC-6137-PE01 OF FPEWM01(0007) TO
                WK01-DESC-6137-PE017.
      *%--------------------------------------------------------------%*
           MOVE SHORT-DESC-6137-PE01 OF FPEWM01(0008) TO
                WK01-DESC-6137-PE018.
      *%--------------------------------------------------------------%*
           MOVE SHORT-DESC-6137-PE01 OF FPEWM01(0009) TO
                WK01-DESC-6137-PE019.
      *%--------------------------------------------------------------%*
           MOVE SHORT-DESC-6137-PE01 OF FPEWM01(0010) TO
                WK01-DESC-6137-PE0110.
      *%--------------------------------------------------------------%*
           MOVE SHORT-DESC-6137-PE01 OF FPEWM01(0011) TO
                WK01-DESC-6137-PE0111.
      *%--------------------------------------------------------------%*
           MOVE SHORT-DESC-6137-PE01 OF FPEWM01(0012) TO
                WK01-DESC-6137-PE0112.
      *%--------------------------------------------------------------%*
           MOVE LONG-DESC-6137-PE01 OF FPEWM01(0001) TO
                WK01-DESC-6137-PE0A1.
      *%--------------------------------------------------------------%*
           MOVE LONG-DESC-6137-PE01 OF FPEWM01(0002) TO
                WK01-DESC-6137-PE0A2.
      *%--------------------------------------------------------------%*
           MOVE LONG-DESC-6137-PE01 OF FPEWM01(0003) TO
                WK01-DESC-6137-PE0A3.
      *%--------------------------------------------------------------%*
           MOVE LONG-DESC-6137-PE01 OF FPEWM01(0004) TO
                WK01-DESC-6137-PE0A4.
      *%--------------------------------------------------------------%*
           MOVE LONG-DESC-6137-PE01 OF FPEWM01(0005) TO
                WK01-DESC-6137-PE0A5.
      *%--------------------------------------------------------------%*
           MOVE LONG-DESC-6137-PE01 OF FPEWM01(0006) TO
                WK01-DESC-6137-PE0A6.
      *%--------------------------------------------------------------%*
           MOVE LONG-DESC-6137-PE01 OF FPEWM01(0007) TO
                WK01-DESC-6137-PE0A7.
      *%--------------------------------------------------------------%*
           MOVE LONG-DESC-6137-PE01 OF FPEWM01(0008) TO
                WK01-DESC-6137-PE0A8.
      *%--------------------------------------------------------------%*
           MOVE LONG-DESC-6137-PE01 OF FPEWM01(0009) TO
                WK01-DESC-6137-PE0A9.
      *%--------------------------------------------------------------%*
           MOVE LONG-DESC-6137-PE01 OF FPEWM01(0010) TO
                WK01-DESC-6137-PE0A10.
      *%--------------------------------------------------------------%*
           MOVE LONG-DESC-6137-PE01 OF FPEWM01(0011) TO
                WK01-DESC-6137-PE0A11.
      *%--------------------------------------------------------------%*
           MOVE LONG-DESC-6137-PE01 OF FPEWM01(0012) TO
                WK01-DESC-6137-PE0A12.
      *%--------------------------------------------------------------%*
           MOVE RQST-ADR-TYPE-CODE-PE01 OF FPEWK01 TO
                WK01-ADR-TYPE-CODE-PE01.
