    ***Created by Convert/DC version V8R03 on 12/04/00 at 11:00***

      *%--------------------------------------------------------------%*
           MOVE DCLINK-MESSAGE  TO WK01-ZZMESSAGE.
      *%--------------------------------------------------------------%*
           MOVE AGR-DATE OF ADSO-APPLICATION-GLOBAL-RECORD TO WK01-DATE.
      *%--------------------------------------------------------------%*
           MOVE AGR-USER-ID OF ADSO-APPLICATION-GLOBAL-RECORD TO
                WK01-USER-ID.
      *%--------------------------------------------------------------%*
           MOVE AGR-FUNC-DESCRIPTION OF ADSO-APPLICATION-GLOBAL-RECORD
                TO WK01-FUNC-DESCRIPTION.
      *%--------------------------------------------------------------%*
           MOVE AGR-PASSED-ONE OF ADSO-APPLICATION-GLOBAL-RECORD TO
                WK01-PASSED-ONE.
      *%--------------------------------------------------------------%*
           MOVE AGR-MAP-RESPONSE OF ADSO-APPLICATION-GLOBAL-RECORD TO
                WK01-MAP-RESPONSE.
      *%--------------------------------------------------------------%*
           MOVE TRMNL-ID-SY00 OF FSYWG00M TO WK01-ID-SY00.
      *%--------------------------------------------------------------%*
           MOVE FULL-NAME-6001-SY00 OF FSYWG00M TO WK01-NAME-6001-SY00.
      *%--------------------------------------------------------------%*
           MOVE AM-PM-FLAG-SY00 OF FSYWG00M TO WK01-PM-FLAG-SY00.
      *%--------------------------------------------------------------%*
           MOVE CURR-RSPNS-ID-SY00 OF FSYWG00M TO WK01-RSPNS-ID-SY00.
      *%--------------------------------------------------------------%*
           MOVE ERROR-TEXT-SY00 OF FSYWG00M TO WK01-TEXT-SY00.
      *%--------------------------------------------------------------%*
           MOVE PAGE-STATUS-CODE-SY00 OF FSYWG00M TO
                WK01-STATUS-CODE-SY00.
      *%--------------------------------------------------------------%*
           MOVE WORK-HH-MM-TIME-SY00 OF FSYWG00M TO
                WK01-HH-MM-TIME-SY00.
      *%--------------------------------------------------------------%*
           MOVE BUYER-NAME-4072-PU32 OF FPUWM32 TO WK01-NAME-4072-PU32.
      *%--------------------------------------------------------------%*
           MOVE EMPID-PU32           OF FPUWM32 TO WK01-EMPID-PU32.
      *%--------------------------------------------------------------%*
           MOVE TAXID-PU32           OF FPUWM32 TO WK01-TAXID-PU32.
      *%--------------------------------------------------------------%*
           MOVE EMP-STATUS-PU32      OF FPUWM32 TO WK01-EMP-STATUS-PU32
      *%--------------------------------------------------------------%*
           MOVE START-DATE-4072-PU32 OF FPUWM32 TO WK01-DATE-4072-PU32.
      *%--------------------------------------------------------------%*
           MOVE END-DATE-4072-PU32 OF FPUWM32 TO WK01-DATE-4072-PU3A.
      *%--------------------------------------------------------------%*
           MOVE ACTVY-DATE-4072-PU32 OF FPUWM32 TO WK01-DATE-4072-PU3B.
      *%--------------------------------------------------------------%*
           MOVE TLPHN-AREA-CODE-PU32 OF FPUWM32 TO WK01-AREA-CODE-PU32.
      *%--------------------------------------------------------------%*
           MOVE TLPHN-XCHNG-ID-PU32 OF FPUWM32 TO WK01-XCHNG-ID-PU32.
      *%--------------------------------------------------------------%*
           MOVE TLPHN-SEQ-ID-PU32 OF FPUWM32 TO WK01-SEQ-ID-PU32.
      *%--------------------------------------------------------------%*
           MOVE TLPHN-XTNSN-ID-PU32 OF FPUWM32 TO WK01-XTNSN-ID-PU32.
      *%--------------------------------------------------------------%*
           MOVE BUYER-CODE-KEY-4072-PU32 OF FPUWK32 TO
                WK01-CODE-KEY-4072-PU32.
      *%--------------------------------------------------------------%*
           MOVE BUYER-EMAIL-ADR-PU32 OF FPUWM32 TO
                WK01-EMAIL-ADR-PU32.
      *%--------------------------------------------------------------%*
           MOVE CMDTY-CODE-4101-PU32 OF FPUWM32(0001) TO
                WK01-CODE-4101-PU321.
      *%--------------------------------------------------------------%*
           MOVE CMDTY-CODE-4101-PU32 OF FPUWM32(0002) TO
                WK01-CODE-4101-PU322.
      *%--------------------------------------------------------------%*
           MOVE CMDTY-CODE-4101-PU32 OF FPUWM32(0003) TO
                WK01-CODE-4101-PU323.
      *%--------------------------------------------------------------%*
           MOVE CMDTY-CODE-4101-PU32 OF FPUWM32(0004) TO
                WK01-CODE-4101-PU324.
      *%--------------------------------------------------------------%*
           MOVE CMDTY-CODE-4101-PU32 OF FPUWM32(0005) TO
                WK01-CODE-4101-PU325.
      *%--------------------------------------------------------------%*
           MOVE CMDTY-CODE-4101-PU32 OF FPUWM32(0006) TO
                WK01-CODE-4101-PU326.
      *%--------------------------------------------------------------%*
           MOVE CMDTY-CODE-4101-PU32 OF FPUWM32(0007) TO
                WK01-CODE-4101-PU327.
      *%--------------------------------------------------------------%*
           MOVE CMDTY-CODE-4101-PU32 OF FPUWM32(0008) TO
                WK01-CODE-4101-PU328.
      *%--------------------------------------------------------------%*
           MOVE ACTN-CODE-4101-PU32 OF FPUWM32(0001) TO
                WK01-CODE-4101-PU3A1.
      *%--------------------------------------------------------------%*
           MOVE ACTN-CODE-4101-PU32 OF FPUWM32(0002) TO
                WK01-CODE-4101-PU3A2.
      *%--------------------------------------------------------------%*
           MOVE ACTN-CODE-4101-PU32 OF FPUWM32(0003) TO
                WK01-CODE-4101-PU3A3.
      *%--------------------------------------------------------------%*
           MOVE ACTN-CODE-4101-PU32 OF FPUWM32(0004) TO
                WK01-CODE-4101-PU3A4.
      *%--------------------------------------------------------------%*
           MOVE ACTN-CODE-4101-PU32 OF FPUWM32(0005) TO
                WK01-CODE-4101-PU3A5.
      *%--------------------------------------------------------------%*
           MOVE ACTN-CODE-4101-PU32 OF FPUWM32(0006) TO
                WK01-CODE-4101-PU3A6.
      *%--------------------------------------------------------------%*
           MOVE ACTN-CODE-4101-PU32 OF FPUWM32(0007) TO
                WK01-CODE-4101-PU3A7.
      *%--------------------------------------------------------------%*
           MOVE ACTN-CODE-4101-PU32 OF FPUWM32(0008) TO
                WK01-CODE-4101-PU3A8.
      *%--------------------------------------------------------------%*
           MOVE CHART-CODE-4100-PU32 OF FPUWM32(0001) TO
                WK01-CODE-4100-PU321.
      *%--------------------------------------------------------------%*
           MOVE CHART-CODE-4100-PU32 OF FPUWM32(0002) TO
                WK01-CODE-4100-PU322.
      *%--------------------------------------------------------------%*
           MOVE CHART-CODE-4100-PU32 OF FPUWM32(0003) TO
                WK01-CODE-4100-PU323.
      *%--------------------------------------------------------------%*
           MOVE CHART-CODE-4100-PU32 OF FPUWM32(0004) TO
                WK01-CODE-4100-PU324.
      *%--------------------------------------------------------------%*
           MOVE CHART-CODE-4100-PU32 OF FPUWM32(0005) TO
                WK01-CODE-4100-PU325.
      *%--------------------------------------------------------------%*
           MOVE CHART-CODE-4100-PU32 OF FPUWM32(0006) TO
                WK01-CODE-4100-PU326.
      *%--------------------------------------------------------------%*
           MOVE CHART-CODE-4100-PU32 OF FPUWM32(0007) TO
                WK01-CODE-4100-PU327.
      *%--------------------------------------------------------------%*
           MOVE CHART-CODE-4100-PU32 OF FPUWM32(0008) TO
                WK01-CODE-4100-PU328.
      *%--------------------------------------------------------------%*
           MOVE ORGZN-CODE-4100-PU32 OF FPUWM32(0001) TO
                WK01-CODE-4100-PU3A1.
      *%--------------------------------------------------------------%*
           MOVE ORGZN-CODE-4100-PU32 OF FPUWM32(0002) TO
                WK01-CODE-4100-PU3A2.
      *%--------------------------------------------------------------%*
           MOVE ORGZN-CODE-4100-PU32 OF FPUWM32(0003) TO
                WK01-CODE-4100-PU3A3.
      *%--------------------------------------------------------------%*
           MOVE ORGZN-CODE-4100-PU32 OF FPUWM32(0004) TO
                WK01-CODE-4100-PU3A4.
      *%--------------------------------------------------------------%*
           MOVE ORGZN-CODE-4100-PU32 OF FPUWM32(0005) TO
                WK01-CODE-4100-PU3A5.
      *%--------------------------------------------------------------%*
           MOVE ORGZN-CODE-4100-PU32 OF FPUWM32(0006) TO
                WK01-CODE-4100-PU3A6.
      *%--------------------------------------------------------------%*
           MOVE ORGZN-CODE-4100-PU32 OF FPUWM32(0007) TO
                WK01-CODE-4100-PU3A7.
      *%--------------------------------------------------------------%*
           MOVE ORGZN-CODE-4100-PU32 OF FPUWM32(0008) TO
                WK01-CODE-4100-PU3A8.
      *%--------------------------------------------------------------%*
           MOVE ACTN-CODE-4138-PU32 OF FPUWM32(0001) TO
                WK01-CODE-4138-PU321.
      *%--------------------------------------------------------------%*
           MOVE ACTN-CODE-4138-PU32 OF FPUWM32(0002) TO
                WK01-CODE-4138-PU322.
      *%--------------------------------------------------------------%*
           MOVE ACTN-CODE-4138-PU32 OF FPUWM32(0003) TO
                WK01-CODE-4138-PU323.
      *%--------------------------------------------------------------%*
           MOVE ACTN-CODE-4138-PU32 OF FPUWM32(0004) TO
                WK01-CODE-4138-PU324.
      *%--------------------------------------------------------------%*
           MOVE ACTN-CODE-4138-PU32 OF FPUWM32(0005) TO
                WK01-CODE-4138-PU325.
      *%--------------------------------------------------------------%*
           MOVE ACTN-CODE-4138-PU32 OF FPUWM32(0006) TO
                WK01-CODE-4138-PU326.
      *%--------------------------------------------------------------%*
           MOVE ACTN-CODE-4138-PU32 OF FPUWM32(0007) TO
                WK01-CODE-4138-PU327.
      *%--------------------------------------------------------------%*
           MOVE ACTN-CODE-4138-PU32 OF FPUWM32(0008) TO
                WK01-CODE-4138-PU328.
      *%--------------------------------------------------------------%*
           MOVE PO-CLASS-CODE-4138-PU32 OF FPUWM32(0001) TO
                WK01-CLASS-CODE-4138-PU321.
      *%--------------------------------------------------------------%*
           MOVE PO-CLASS-CODE-4138-PU32 OF FPUWM32(0002) TO
                WK01-CLASS-CODE-4138-PU322.
      *%--------------------------------------------------------------%*
           MOVE PO-CLASS-CODE-4138-PU32 OF FPUWM32(0003) TO
                WK01-CLASS-CODE-4138-PU323.
      *%--------------------------------------------------------------%*
           MOVE PO-CLASS-CODE-4138-PU32 OF FPUWM32(0004) TO
                WK01-CLASS-CODE-4138-PU324.
      *%--------------------------------------------------------------%*
           MOVE PO-CLASS-CODE-4138-PU32 OF FPUWM32(0005) TO
                WK01-CLASS-CODE-4138-PU325.
      *%--------------------------------------------------------------%*
           MOVE PO-CLASS-CODE-4138-PU32 OF FPUWM32(0006) TO
                WK01-CLASS-CODE-4138-PU326.
      *%--------------------------------------------------------------%*
           MOVE PO-CLASS-CODE-4138-PU32 OF FPUWM32(0007) TO
                WK01-CLASS-CODE-4138-PU327.
      *%--------------------------------------------------------------%*
           MOVE PO-CLASS-CODE-4138-PU32 OF FPUWM32(0008) TO
                WK01-CLASS-CODE-4138-PU328.
      *%--------------------------------------------------------------%*
           MOVE MAX-AMT-4084-PU32 OF FPUWM32(0001) TO
                WK01-AMT-4084-PU321.
      *%--------------------------------------------------------------%*
           MOVE MAX-AMT-4084-PU32 OF FPUWM32(0002) TO
                WK01-AMT-4084-PU322.
      *%--------------------------------------------------------------%*
           MOVE MAX-AMT-4084-PU32 OF FPUWM32(0003) TO
                WK01-AMT-4084-PU323.
      *%--------------------------------------------------------------%*
           MOVE MAX-AMT-4084-PU32 OF FPUWM32(0004) TO
                WK01-AMT-4084-PU324.
      *%--------------------------------------------------------------%*
           MOVE MAX-AMT-4084-PU32 OF FPUWM32(0005) TO
                WK01-AMT-4084-PU325.
      *%--------------------------------------------------------------%*
           MOVE MAX-AMT-4084-PU32 OF FPUWM32(0006) TO
                WK01-AMT-4084-PU326.
      *%--------------------------------------------------------------%*
           MOVE MAX-AMT-4084-PU32 OF FPUWM32(0007) TO
                WK01-AMT-4084-PU327.
      *%--------------------------------------------------------------%*
           MOVE MAX-AMT-4084-PU32 OF FPUWM32(0008) TO
                WK01-AMT-4084-PU328.
      *%--------------------------------------------------------------%*
           MOVE ACTN-CODE-4100-PU32 OF FPUWM32(0001) TO
                WK01-CODE-4100-PU3B1.
      *%--------------------------------------------------------------%*
           MOVE ACTN-CODE-4100-PU32 OF FPUWM32(0002) TO
                WK01-CODE-4100-PU3B2.
      *%--------------------------------------------------------------%*
           MOVE ACTN-CODE-4100-PU32 OF FPUWM32(0003) TO
                WK01-CODE-4100-PU3B3.
      *%--------------------------------------------------------------%*
           MOVE ACTN-CODE-4100-PU32 OF FPUWM32(0004) TO
                WK01-CODE-4100-PU3B4.
      *%--------------------------------------------------------------%*
           MOVE ACTN-CODE-4100-PU32 OF FPUWM32(0005) TO
                WK01-CODE-4100-PU3B5.
      *%--------------------------------------------------------------%*
           MOVE ACTN-CODE-4100-PU32 OF FPUWM32(0006) TO
                WK01-CODE-4100-PU3B6.
      *%--------------------------------------------------------------%*
           MOVE ACTN-CODE-4100-PU32 OF FPUWM32(0007) TO
                WK01-CODE-4100-PU3B7.
      *%--------------------------------------------------------------%*
           MOVE ACTN-CODE-4100-PU32 OF FPUWM32(0008) TO
                WK01-CODE-4100-PU3B8.
      *%--------------------------------------------------------------%*
           MOVE ACTN-CODE-4072-PU32 OF FPUWM32 TO WK01-CODE-4072-PU32.
      *%--------------------------------------------------------------%*
           MOVE RQST-CMDTY-CODE-PU32 OF FPUWM32 TO WK01-CMDTY-CODE-PU32.
      *%--------------------------------------------------------------%*
           MOVE RQST-COA-CODE-PU32 OF FPUWM32 TO WK01-COA-CODE-PU32.
      *%--------------------------------------------------------------%*
           MOVE RQST-ORGZN-CODE-PU32 OF FPUWM32 TO WK01-ORGZN-CODE-PU32.
      *%--------------------------------------------------------------%*
           MOVE RQST-PO-CLASS-CODE-PU32 OF FPUWM32 TO
                WK01-PO-CLASS-CODE-PU32.
      *%--------------------------------------------------------------%*
           MOVE BUYER-ID-LAST-NINE-PU32 OF FPUWM32 TO
                WK01-ID-LAST-NINE-PU32.
