    ***Created by Convert/DC version V8R03 on 11/20/00 at 14:00***

      *%--------------------------------------------------------------%*
           MOVE DCLINK-MESSAGE  TO WK01-ZZMESSAGE.
      *%--------------------------------------------------------------%*
           MOVE AGR-DATE OF ADSO-APPLICATION-GLOBAL-RECORD TO WK01-DATE.
      *%--------------------------------------------------------------%*
           MOVE AGR-USER-ID OF ADSO-APPLICATION-GLOBAL-RECORD TO
                WK01-USER-ID.
      *%--------------------------------------------------------------%*
           MOVE AGR-FUNC-DESCRIPTION OF ADSO-APPLICATION-GLOBAL-RECORD
                TO WK01-FUNC-DESCRIPTION.
      *%--------------------------------------------------------------%*
           MOVE AGR-PASSED-ONE OF ADSO-APPLICATION-GLOBAL-RECORD TO
                WK01-PASSED-ONE.
      *%--------------------------------------------------------------%*
           MOVE AGR-MAP-RESPONSE OF ADSO-APPLICATION-GLOBAL-RECORD TO
                WK01-MAP-RESPONSE.
      *%--------------------------------------------------------------%*
           MOVE TRMNL-ID-SY00 OF FSYWG00M TO WK01-ID-SY00.
      *%--------------------------------------------------------------%*
           MOVE FULL-NAME-6001-SY00 OF FSYWG00M TO WK01-NAME-6001-SY00.
      *%--------------------------------------------------------------%*
           MOVE AM-PM-FLAG-SY00 OF FSYWG00M TO WK01-PM-FLAG-SY00.
      *%--------------------------------------------------------------%*
           MOVE CURR-RSPNS-ID-SY00 OF FSYWG00M TO WK01-RSPNS-ID-SY00.
      *%--------------------------------------------------------------%*
           MOVE ERROR-TEXT-SY00 OF FSYWG00M TO WK01-TEXT-SY00.
      *%--------------------------------------------------------------%*
           MOVE PAGE-STATUS-CODE-SY00 OF FSYWG00M TO
                WK01-STATUS-CODE-SY00.
      *%--------------------------------------------------------------%*
           MOVE WORK-HH-MM-TIME-SY00 OF FSYWG00M TO
                WK01-HH-MM-TIME-SY00.
      *%--------------------------------------------------------------%*
           MOVE RQST-CODE-4070-PU59 OF FPUWK59 TO WK01-CODE-4070-PU59.
      *%--------------------------------------------------------------%*
           MOVE DELETE-LIT-PU59 OF FPUWM59 TO WK01-LIT-PU59.
      *%--------------------------------------------------------------%*
           MOVE ITEM-NMBR-4071-PU59 OF FPUWM59(0001) TO
                WK01-NMBR-4071-PU591.
      *%--------------------------------------------------------------%*
           MOVE ITEM-NMBR-4071-PU59 OF FPUWM59(0002) TO
                WK01-NMBR-4071-PU592.
      *%--------------------------------------------------------------%*
           MOVE ITEM-NMBR-4071-PU59 OF FPUWM59(0003) TO
                WK01-NMBR-4071-PU593.
      *%--------------------------------------------------------------%*
           MOVE ITEM-NMBR-4071-PU59 OF FPUWM59(0004) TO
                WK01-NMBR-4071-PU594.
      *%--------------------------------------------------------------%*
           MOVE ITEM-NMBR-4071-PU59 OF FPUWM59(0005) TO
                WK01-NMBR-4071-PU595.
      *%--------------------------------------------------------------%*
           MOVE RQST-ITEM-NMBR-PU59 OF FPUWK59 TO WK01-ITEM-NMBR-PU59.
      *%--------------------------------------------------------------%*
           MOVE RQST-NAME-4070-PU59 OF FPUWM59 TO WK01-NAME-4070-PU59.
      *%--------------------------------------------------------------%*
           MOVE CMDTY-CODE-4074-PU59 OF FPUWM59(0001) TO
                WK01-CODE-4074-PU591.
      *%--------------------------------------------------------------%*
           MOVE CMDTY-DESC-4074-PU59 OF FPUWM59(0001) TO
                WK01-DESC-4074-PU591.
      *%--------------------------------------------------------------%*
           MOVE CMDTY-CODE-4074-PU59 OF FPUWM59(0002) TO
                WK01-CODE-4074-PU592.
      *%--------------------------------------------------------------%*
           MOVE CMDTY-CODE-4074-PU59 OF FPUWM59(0003) TO
                WK01-CODE-4074-PU593.
      *%--------------------------------------------------------------%*
           MOVE CMDTY-CODE-4074-PU59 OF FPUWM59(0004) TO
                WK01-CODE-4074-PU594.
      *%--------------------------------------------------------------%*
           MOVE CMDTY-CODE-4074-PU59 OF FPUWM59(0005) TO
                WK01-CODE-4074-PU595.
      *%--------------------------------------------------------------%*
           MOVE DELETE-FLAG-PU59 OF FPUWM59 TO WK01-FLAG-PU59.
      *%--------------------------------------------------------------%*
           MOVE CMDTY-DESC-4074-PU59 OF FPUWM59(0002) TO
                WK01-DESC-4074-PU592.
      *%--------------------------------------------------------------%*
           MOVE CMDTY-DESC-4074-PU59 OF FPUWM59(0003) TO
                WK01-DESC-4074-PU593.
      *%--------------------------------------------------------------%*
           MOVE CMDTY-DESC-4074-PU59 OF FPUWM59(0004) TO
                WK01-DESC-4074-PU594.
      *%--------------------------------------------------------------%*
           MOVE CMDTY-DESC-4074-PU59 OF FPUWM59(0005) TO
                WK01-DESC-4074-PU595.
      *%--------------------------------------------------------------%*
           MOVE UNIT-MEA-CODE-4071-PU59 OF FPUWM59(0001) TO
                WK01-MEA-CODE-4071-PU591.
      *%--------------------------------------------------------------%*
           MOVE UNIT-MEA-CODE-4071-PU59 OF FPUWM59(0002) TO
                WK01-MEA-CODE-4071-PU592.
      *%--------------------------------------------------------------%*
           MOVE UNIT-MEA-CODE-4071-PU59 OF FPUWM59(0003) TO
                WK01-MEA-CODE-4071-PU593.
      *%--------------------------------------------------------------%*
           MOVE UNIT-MEA-CODE-4071-PU59 OF FPUWM59(0004) TO
                WK01-MEA-CODE-4071-PU594.
      *%--------------------------------------------------------------%*
           MOVE UNIT-MEA-CODE-4071-PU59 OF FPUWM59(0005) TO
                WK01-MEA-CODE-4071-PU595.
      *%--------------------------------------------------------------%*
           MOVE QTY-4071-PU59 OF FPUWM59(0001) TO WK01-4071-PU591.
      *%--------------------------------------------------------------%*
           MOVE QTY-4071-PU59 OF FPUWM59(0002) TO WK01-4071-PU592.
      *%--------------------------------------------------------------%*
           MOVE QTY-4071-PU59 OF FPUWM59(0003) TO WK01-4071-PU593.
      *%--------------------------------------------------------------%*
           MOVE QTY-4071-PU59 OF FPUWM59(0004) TO WK01-4071-PU594.
      *%--------------------------------------------------------------%*
           MOVE QTY-4071-PU59 OF FPUWM59(0005) TO WK01-4071-PU595.
      *%--------------------------------------------------------------%*
           MOVE EXTENDED-PRICE-4071-PU59 OF FPUWM59(0001) TO
                WK01-PRICE-4071-PU591.
      *%--------------------------------------------------------------%*
           MOVE EXTENDED-PRICE-4071-PU59 OF FPUWM59(0002) TO
                WK01-PRICE-4071-PU592.
      *%--------------------------------------------------------------%*
           MOVE EXTENDED-PRICE-4071-PU59 OF FPUWM59(0003) TO
                WK01-PRICE-4071-PU593.
      *%--------------------------------------------------------------%*
           MOVE EXTENDED-PRICE-4071-PU59 OF FPUWM59(0004) TO
                WK01-PRICE-4071-PU594.
      *%--------------------------------------------------------------%*
           MOVE EXTENDED-PRICE-4071-PU59 OF FPUWM59(0005) TO
                WK01-PRICE-4071-PU595.
