    ***Created by Convert/DC version V8R03 on 11/20/00 at 15:00***

      *%--------------------------------------------------------------%*
           MOVE DCLINK-MESSAGE  TO WK01-ZZMESSAGE.
      *%--------------------------------------------------------------%*
           MOVE AGR-DATE OF ADSO-APPLICATION-GLOBAL-RECORD TO WK01-DATE.
      *%--------------------------------------------------------------%*
           MOVE AGR-USER-ID OF ADSO-APPLICATION-GLOBAL-RECORD TO
                WK01-USER-ID.
      *%--------------------------------------------------------------%*
           MOVE AGR-FUNC-DESCRIPTION OF ADSO-APPLICATION-GLOBAL-RECORD
                TO WK01-FUNC-DESCRIPTION.
      *%--------------------------------------------------------------%*
           MOVE AGR-PASSED-ONE OF ADSO-APPLICATION-GLOBAL-RECORD TO
                WK01-PASSED-ONE.
      *%--------------------------------------------------------------%*
           MOVE AGR-MAP-RESPONSE OF ADSO-APPLICATION-GLOBAL-RECORD TO
                WK01-MAP-RESPONSE.
      *%--------------------------------------------------------------%*
           MOVE TRMNL-ID-SY00 OF FSYWG00M TO WK01-ID-SY00.
      *%--------------------------------------------------------------%*
           MOVE FULL-NAME-6001-SY00 OF FSYWG00M TO WK01-NAME-6001-SY00.
      *%--------------------------------------------------------------%*
           MOVE AM-PM-FLAG-SY00 OF FSYWG00M TO WK01-PM-FLAG-SY00.
      *%--------------------------------------------------------------%*
           MOVE CURR-RSPNS-ID-SY00 OF FSYWG00M TO WK01-RSPNS-ID-SY00.
      *%--------------------------------------------------------------%*
           MOVE ERROR-TEXT-SY00 OF FSYWG00M TO WK01-TEXT-SY00.
      *%--------------------------------------------------------------%*
           MOVE PAGE-STATUS-CODE-SY00 OF FSYWG00M TO
                WK01-STATUS-CODE-SY00.
      *%--------------------------------------------------------------%*
           MOVE WORK-HH-MM-TIME-SY00 OF FSYWG00M TO
                WK01-HH-MM-TIME-SY00.
      *%--------------------------------------------------------------%*
           MOVE ACTN-CODE-PU45 OF FPUWM45(0001) TO WK01-CODE-PU451.
      *%--------------------------------------------------------------%*
           MOVE CMDTY-CODE-4074-PU45 OF FPUWM45(0001) TO
                WK01-CODE-4074-PU451.
      *%--------------------------------------------------------------%*
           MOVE CMDTY-DESC-4074-PU45 OF FPUWM45(0001) TO
                WK01-DESC-4074-PU451.
      *%--------------------------------------------------------------%*
           MOVE DEFLT-ACCOUNT-CODE-PU45 OF FPUWM45(0001) TO
                WK01-DFLT-ACCT-CODE-PU451.
      *%--------------------------------------------------------------%*
           MOVE START-DATE-4074-PU45 OF FPUWM45(0001) TO
                WK01-DATE-4074-PU451.
      *%--------------------------------------------------------------%*
           MOVE ACTVY-DATE-4074-PU45 OF FPUWM45(0001) TO
                WK01-DATE-4074-PU4A1.
      *%--------------------------------------------------------------%*
           MOVE ACTN-CODE-PU45 OF FPUWM45(0002) TO WK01-CODE-PU452.
      *%--------------------------------------------------------------%*
           MOVE ACTN-CODE-PU45 OF FPUWM45(0003) TO WK01-CODE-PU453.
      *%--------------------------------------------------------------%*
           MOVE ACTN-CODE-PU45 OF FPUWM45(0004) TO WK01-CODE-PU454.
      *%--------------------------------------------------------------%*
           MOVE ACTN-CODE-PU45 OF FPUWM45(0005) TO WK01-CODE-PU455.
      *%--------------------------------------------------------------%*
           MOVE ACTN-CODE-PU45 OF FPUWM45(0006) TO WK01-CODE-PU456.
      *%--------------------------------------------------------------%*
           MOVE ACTN-CODE-PU45 OF FPUWM45(0007) TO WK01-CODE-PU457.
      *%--------------------------------------------------------------%*
           MOVE ACTN-CODE-PU45 OF FPUWM45(0008) TO WK01-CODE-PU458.
      *%--------------------------------------------------------------%*
           MOVE ACTN-CODE-PU45 OF FPUWM45(0009) TO WK01-CODE-PU459.
      *%--------------------------------------------------------------%*
           MOVE ACTN-CODE-PU45 OF FPUWM45(0010) TO WK01-CODE-PU4510.
      *%--------------------------------------------------------------%*
           MOVE ACTN-CODE-PU45 OF FPUWM45(0011) TO WK01-CODE-PU4511.
      *%--------------------------------------------------------------%*
           MOVE ACTN-CODE-PU45 OF FPUWM45(0012) TO WK01-CODE-PU4512.
      *%--------------------------------------------------------------%*
           MOVE CMDTY-CODE-4074-PU45 OF FPUWM45(0002) TO
                WK01-CODE-4074-PU452.
      *%--------------------------------------------------------------%*
           MOVE CMDTY-CODE-4074-PU45 OF FPUWM45(0003) TO
                WK01-CODE-4074-PU453.
      *%--------------------------------------------------------------%*
           MOVE CMDTY-CODE-4074-PU45 OF FPUWM45(0004) TO
                WK01-CODE-4074-PU454.
      *%--------------------------------------------------------------%*
           MOVE CMDTY-CODE-4074-PU45 OF FPUWM45(0005) TO
                WK01-CODE-4074-PU455.
      *%--------------------------------------------------------------%*
           MOVE CMDTY-CODE-4074-PU45 OF FPUWM45(0006) TO
                WK01-CODE-4074-PU456.
      *%--------------------------------------------------------------%*
           MOVE CMDTY-CODE-4074-PU45 OF FPUWM45(0007) TO
                WK01-CODE-4074-PU457.
      *%--------------------------------------------------------------%*
           MOVE CMDTY-CODE-4074-PU45 OF FPUWM45(0008) TO
                WK01-CODE-4074-PU458.
      *%--------------------------------------------------------------%*
           MOVE CMDTY-CODE-4074-PU45 OF FPUWM45(0009) TO
                WK01-CODE-4074-PU459.
      *%--------------------------------------------------------------%*
           MOVE CMDTY-CODE-4074-PU45 OF FPUWM45(0010) TO
                WK01-CODE-4074-PU4510.
      *%--------------------------------------------------------------%*
           MOVE CMDTY-CODE-4074-PU45 OF FPUWM45(0011) TO
                WK01-CODE-4074-PU4511.
      *%--------------------------------------------------------------%*
           MOVE CMDTY-CODE-4074-PU45 OF FPUWM45(0012) TO
                WK01-CODE-4074-PU4512.
      *%--------------------------------------------------------------%*
           MOVE CMDTY-DESC-4074-PU45 OF FPUWM45(0002) TO
                WK01-DESC-4074-PU452.
      *%--------------------------------------------------------------%*
           MOVE CMDTY-DESC-4074-PU45 OF FPUWM45(0003) TO
                WK01-DESC-4074-PU453.
      *%--------------------------------------------------------------%*
           MOVE CMDTY-DESC-4074-PU45 OF FPUWM45(0004) TO
                WK01-DESC-4074-PU454.
      *%--------------------------------------------------------------%*
           MOVE CMDTY-DESC-4074-PU45 OF FPUWM45(0005) TO
                WK01-DESC-4074-PU455.
      *%--------------------------------------------------------------%*
           MOVE CMDTY-DESC-4074-PU45 OF FPUWM45(0006) TO
                WK01-DESC-4074-PU456.
      *%--------------------------------------------------------------%*
           MOVE CMDTY-DESC-4074-PU45 OF FPUWM45(0007) TO
                WK01-DESC-4074-PU457.
      *%--------------------------------------------------------------%*
           MOVE CMDTY-DESC-4074-PU45 OF FPUWM45(0008) TO
                WK01-DESC-4074-PU458.
      *%--------------------------------------------------------------%*
           MOVE CMDTY-DESC-4074-PU45 OF FPUWM45(0009) TO
                WK01-DESC-4074-PU459.
      *%--------------------------------------------------------------%*
           MOVE CMDTY-DESC-4074-PU45 OF FPUWM45(0010) TO
                WK01-DESC-4074-PU4510.
      *%--------------------------------------------------------------%*
           MOVE CMDTY-DESC-4074-PU45 OF FPUWM45(0011) TO
                WK01-DESC-4074-PU4511.
      *%--------------------------------------------------------------%*
           MOVE CMDTY-DESC-4074-PU45 OF FPUWM45(0012) TO
                WK01-DESC-4074-PU4512.
      *%--------------------------------------------------------------%*
           MOVE DEFLT-ACCOUNT-CODE-PU45 OF FPUWM45(0002) TO
                WK01-DFLT-ACCT-CODE-PU452.
      *%--------------------------------------------------------------%*
           MOVE DEFLT-ACCOUNT-CODE-PU45 OF FPUWM45(0003) TO
                WK01-DFLT-ACCT-CODE-PU453.
      *%--------------------------------------------------------------%*
           MOVE DEFLT-ACCOUNT-CODE-PU45 OF FPUWM45(0004) TO
                WK01-DFLT-ACCT-CODE-PU454.
      *%--------------------------------------------------------------%*
           MOVE DEFLT-ACCOUNT-CODE-PU45 OF FPUWM45(0005) TO
                WK01-DFLT-ACCT-CODE-PU455.
      *%--------------------------------------------------------------%*
           MOVE DEFLT-ACCOUNT-CODE-PU45 OF FPUWM45(0006) TO
                WK01-DFLT-ACCT-CODE-PU456.
      *%--------------------------------------------------------------%*
           MOVE DEFLT-ACCOUNT-CODE-PU45 OF FPUWM45(0007) TO
                WK01-DFLT-ACCT-CODE-PU457.
      *%--------------------------------------------------------------%*
           MOVE DEFLT-ACCOUNT-CODE-PU45 OF FPUWM45(0008) TO
                WK01-DFLT-ACCT-CODE-PU458.
      *%--------------------------------------------------------------%*
           MOVE DEFLT-ACCOUNT-CODE-PU45 OF FPUWM45(0009) TO
                WK01-DFLT-ACCT-CODE-PU459.
      *%--------------------------------------------------------------%*
           MOVE DEFLT-ACCOUNT-CODE-PU45 OF FPUWM45(0010) TO
                WK01-DFLT-ACCT-CODE-PU4510.
      *%--------------------------------------------------------------%*
           MOVE DEFLT-ACCOUNT-CODE-PU45 OF FPUWM45(0011) TO
                WK01-DFLT-ACCT-CODE-PU4511.
      *%--------------------------------------------------------------%*
           MOVE DEFLT-ACCOUNT-CODE-PU45 OF FPUWM45(0012) TO
                WK01-DFLT-ACCT-CODE-PU4512.
      *%--------------------------------------------------------------%*
           MOVE START-DATE-4074-PU45 OF FPUWM45(0002) TO
                WK01-DATE-4074-PU452.
      *%--------------------------------------------------------------%*
           MOVE START-DATE-4074-PU45 OF FPUWM45(0003) TO
                WK01-DATE-4074-PU453.
      *%--------------------------------------------------------------%*
           MOVE START-DATE-4074-PU45 OF FPUWM45(0004) TO
                WK01-DATE-4074-PU454.
      *%--------------------------------------------------------------%*
           MOVE START-DATE-4074-PU45 OF FPUWM45(0005) TO
                WK01-DATE-4074-PU455.
      *%--------------------------------------------------------------%*
           MOVE START-DATE-4074-PU45 OF FPUWM45(0006) TO
                WK01-DATE-4074-PU456.
      *%--------------------------------------------------------------%*
           MOVE START-DATE-4074-PU45 OF FPUWM45(0007) TO
                WK01-DATE-4074-PU457.
      *%--------------------------------------------------------------%*
           MOVE START-DATE-4074-PU45 OF FPUWM45(0008) TO
                WK01-DATE-4074-PU458.
      *%--------------------------------------------------------------%*
           MOVE START-DATE-4074-PU45 OF FPUWM45(0009) TO
                WK01-DATE-4074-PU459.
      *%--------------------------------------------------------------%*
           MOVE START-DATE-4074-PU45 OF FPUWM45(0010) TO
                WK01-DATE-4074-PU4510.
      *%--------------------------------------------------------------%*
           MOVE START-DATE-4074-PU45 OF FPUWM45(0011) TO
                WK01-DATE-4074-PU4511.
      *%--------------------------------------------------------------%*
           MOVE START-DATE-4074-PU45 OF FPUWM45(0012) TO
                WK01-DATE-4074-PU4512.
      *%--------------------------------------------------------------%*
           MOVE ACTVY-DATE-4074-PU45 OF FPUWM45(0002) TO
                WK01-DATE-4074-PU4A2.
      *%--------------------------------------------------------------%*
           MOVE ACTVY-DATE-4074-PU45 OF FPUWM45(0003) TO
                WK01-DATE-4074-PU4A3.
      *%--------------------------------------------------------------%*
           MOVE ACTVY-DATE-4074-PU45 OF FPUWM45(0004) TO
                WK01-DATE-4074-PU4A4.
      *%--------------------------------------------------------------%*
           MOVE ACTVY-DATE-4074-PU45 OF FPUWM45(0005) TO
                WK01-DATE-4074-PU4A5.
      *%--------------------------------------------------------------%*
           MOVE ACTVY-DATE-4074-PU45 OF FPUWM45(0006) TO
                WK01-DATE-4074-PU4A6.
      *%--------------------------------------------------------------%*
           MOVE ACTVY-DATE-4074-PU45 OF FPUWM45(0007) TO
                WK01-DATE-4074-PU4A7.
      *%--------------------------------------------------------------%*
           MOVE ACTVY-DATE-4074-PU45 OF FPUWM45(0008) TO
                WK01-DATE-4074-PU4A8.
      *%--------------------------------------------------------------%*
           MOVE ACTVY-DATE-4074-PU45 OF FPUWM45(0009) TO
                WK01-DATE-4074-PU4A9.
      *%--------------------------------------------------------------%*
           MOVE ACTVY-DATE-4074-PU45 OF FPUWM45(0010) TO
                WK01-DATE-4074-PU4A10.
      *%--------------------------------------------------------------%*
           MOVE ACTVY-DATE-4074-PU45 OF FPUWM45(0011) TO
                WK01-DATE-4074-PU4A11.
      *%--------------------------------------------------------------%*
           MOVE ACTVY-DATE-4074-PU45 OF FPUWM45(0012) TO
                WK01-DATE-4074-PU4A12.
      *%--------------------------------------------------------------%*
           MOVE RQST-CMDTY-DESC-PU45 OF FPUWK45 TO WK01-CMDTY-DESC-PU45.
           MOVE RQST-CMDTY-CODE-PU45 OF FPUWK45 TO WK01-CMDTY-CODE-PU45.
           MOVE DISP-OPTION-PU45  OF FPUWK45 TO WK01-DISP-OPTION-PU45.
           MOVE EQUIP-PRICE-RNG-PU45 OF FPUWK45 TO
                                        WK01-EQUP-PRICE-RNG-PU45.
