    ***Created by Convert/DC version V8R03 on 11/20/00 at 13:00***

      *%--------------------------------------------------------------%*
           MOVE DCLINK-MESSAGE  TO WK01-ZZMESSAGE.
      *%--------------------------------------------------------------%*
           MOVE AGR-DATE OF ADSO-APPLICATION-GLOBAL-RECORD TO WK01-DATE.
      *%--------------------------------------------------------------%*
           MOVE AGR-USER-ID OF ADSO-APPLICATION-GLOBAL-RECORD TO
                WK01-USER-ID.
      *%--------------------------------------------------------------%*
           MOVE AGR-FUNC-DESCRIPTION OF ADSO-APPLICATION-GLOBAL-RECORD
                TO WK01-FUNC-DESCRIPTION.
      *%--------------------------------------------------------------%*
           MOVE AGR-PASSED-ONE OF ADSO-APPLICATION-GLOBAL-RECORD TO
                WK01-PASSED-ONE.
      *%--------------------------------------------------------------%*
           MOVE AGR-MAP-RESPONSE OF ADSO-APPLICATION-GLOBAL-RECORD TO
                WK01-MAP-RESPONSE.
      *%--------------------------------------------------------------%*
           MOVE TRMNL-ID-SY00 OF FSYWG00M TO WK01-ID-SY00.
      *%--------------------------------------------------------------%*
           MOVE FULL-NAME-6001-SY00 OF FSYWG00M TO WK01-NAME-6001-SY00.
      *%--------------------------------------------------------------%*
           MOVE AM-PM-FLAG-SY00 OF FSYWG00M TO WK01-PM-FLAG-SY00.
      *%--------------------------------------------------------------%*
           MOVE CURR-RSPNS-ID-SY00 OF FSYWG00M TO WK01-RSPNS-ID-SY00.
      *%--------------------------------------------------------------%*
           MOVE ERROR-TEXT-SY00 OF FSYWG00M TO WK01-TEXT-SY00.
      *%--------------------------------------------------------------%*
           MOVE PAGE-STATUS-CODE-SY00 OF FSYWG00M TO
                WK01-STATUS-CODE-SY00.
      *%--------------------------------------------------------------%*
           MOVE WORK-HH-MM-TIME-SY00 OF FSYWG00M TO
                WK01-HH-MM-TIME-SY00.
      *%--------------------------------------------------------------%*
           MOVE ACTN-CODE-PU64 OF FPUWM64(0001) TO WK01-CODE-PU641.
      *%--------------------------------------------------------------%*
           MOVE CMDTY-CODE-4074-PU64 OF FPUWM64(0001) TO
                WK01-CODE-4074-PU641.
      *%--------------------------------------------------------------%*
           MOVE CMDTY-DESC-4074-PU64 OF FPUWM64(0001) TO
                WK01-DESC-4074-PU641.
      *%--------------------------------------------------------------%*
           MOVE DEFLT-ACCOUNT-CODE-PU64 OF FPUWM64(0001) TO
                WK01-DFLT-ACCT-CODE-PU641.
      *%--------------------------------------------------------------%*
           MOVE START-DATE-4074-PU64 OF FPUWM64(0001) TO
                WK01-DATE-4074-PU641.
      *%--------------------------------------------------------------%*
           MOVE ACTVY-DATE-4074-PU64 OF FPUWM64(0001) TO
                WK01-DATE-4074-PU6A1.
      *%--------------------------------------------------------------%*
           MOVE ACTN-CODE-PU64 OF FPUWM64(0002) TO WK01-CODE-PU642.
      *%--------------------------------------------------------------%*
           MOVE ACTN-CODE-PU64 OF FPUWM64(0003) TO WK01-CODE-PU643.
      *%--------------------------------------------------------------%*
           MOVE ACTN-CODE-PU64 OF FPUWM64(0004) TO WK01-CODE-PU644.
      *%--------------------------------------------------------------%*
           MOVE ACTN-CODE-PU64 OF FPUWM64(0005) TO WK01-CODE-PU645.
      *%--------------------------------------------------------------%*
           MOVE ACTN-CODE-PU64 OF FPUWM64(0006) TO WK01-CODE-PU646.
      *%--------------------------------------------------------------%*
           MOVE ACTN-CODE-PU64 OF FPUWM64(0007) TO WK01-CODE-PU647.
      *%--------------------------------------------------------------%*
           MOVE ACTN-CODE-PU64 OF FPUWM64(0008) TO WK01-CODE-PU648.
      *%--------------------------------------------------------------%*
           MOVE ACTN-CODE-PU64 OF FPUWM64(0009) TO WK01-CODE-PU649.
      *%--------------------------------------------------------------%*
           MOVE ACTN-CODE-PU64 OF FPUWM64(0010) TO WK01-CODE-PU6410.
      *%--------------------------------------------------------------%*
           MOVE ACTN-CODE-PU64 OF FPUWM64(0011) TO WK01-CODE-PU6411.
      *%--------------------------------------------------------------%*
           MOVE ACTN-CODE-PU64 OF FPUWM64(0012) TO WK01-CODE-PU6412.
      *%--------------------------------------------------------------%*
           MOVE CMDTY-CODE-4074-PU64 OF FPUWM64(0002) TO
                WK01-CODE-4074-PU642.
      *%--------------------------------------------------------------%*
           MOVE CMDTY-CODE-4074-PU64 OF FPUWM64(0003) TO
                WK01-CODE-4074-PU643.
      *%--------------------------------------------------------------%*
           MOVE CMDTY-CODE-4074-PU64 OF FPUWM64(0004) TO
                WK01-CODE-4074-PU644.
      *%--------------------------------------------------------------%*
           MOVE CMDTY-CODE-4074-PU64 OF FPUWM64(0005) TO
                WK01-CODE-4074-PU645.
      *%--------------------------------------------------------------%*
           MOVE CMDTY-CODE-4074-PU64 OF FPUWM64(0006) TO
                WK01-CODE-4074-PU646.
      *%--------------------------------------------------------------%*
           MOVE CMDTY-CODE-4074-PU64 OF FPUWM64(0007) TO
                WK01-CODE-4074-PU647.
      *%--------------------------------------------------------------%*
           MOVE CMDTY-CODE-4074-PU64 OF FPUWM64(0008) TO
                WK01-CODE-4074-PU648.
      *%--------------------------------------------------------------%*
           MOVE CMDTY-CODE-4074-PU64 OF FPUWM64(0009) TO
                WK01-CODE-4074-PU649.
      *%--------------------------------------------------------------%*
           MOVE CMDTY-CODE-4074-PU64 OF FPUWM64(0010) TO
                WK01-CODE-4074-PU6410.
      *%--------------------------------------------------------------%*
           MOVE CMDTY-CODE-4074-PU64 OF FPUWM64(0011) TO
                WK01-CODE-4074-PU6411.
      *%--------------------------------------------------------------%*
           MOVE CMDTY-CODE-4074-PU64 OF FPUWM64(0012) TO
                WK01-CODE-4074-PU6412.
      *%--------------------------------------------------------------%*
           MOVE CMDTY-DESC-4074-PU64 OF FPUWM64(0002) TO
                WK01-DESC-4074-PU642.
      *%--------------------------------------------------------------%*
           MOVE CMDTY-DESC-4074-PU64 OF FPUWM64(0003) TO
                WK01-DESC-4074-PU643.
      *%--------------------------------------------------------------%*
           MOVE CMDTY-DESC-4074-PU64 OF FPUWM64(0004) TO
                WK01-DESC-4074-PU644.
      *%--------------------------------------------------------------%*
           MOVE CMDTY-DESC-4074-PU64 OF FPUWM64(0005) TO
                WK01-DESC-4074-PU645.
      *%--------------------------------------------------------------%*
           MOVE CMDTY-DESC-4074-PU64 OF FPUWM64(0006) TO
                WK01-DESC-4074-PU646.
      *%--------------------------------------------------------------%*
           MOVE CMDTY-DESC-4074-PU64 OF FPUWM64(0007) TO
                WK01-DESC-4074-PU647.
      *%--------------------------------------------------------------%*
           MOVE CMDTY-DESC-4074-PU64 OF FPUWM64(0008) TO
                WK01-DESC-4074-PU648.
      *%--------------------------------------------------------------%*
           MOVE CMDTY-DESC-4074-PU64 OF FPUWM64(0009) TO
                WK01-DESC-4074-PU649.
      *%--------------------------------------------------------------%*
           MOVE CMDTY-DESC-4074-PU64 OF FPUWM64(0010) TO
                WK01-DESC-4074-PU6410.
      *%--------------------------------------------------------------%*
           MOVE CMDTY-DESC-4074-PU64 OF FPUWM64(0011) TO
                WK01-DESC-4074-PU6411.
      *%--------------------------------------------------------------%*
           MOVE CMDTY-DESC-4074-PU64 OF FPUWM64(0012) TO
                WK01-DESC-4074-PU6412.
      *%--------------------------------------------------------------%*
           MOVE DEFLT-ACCOUNT-CODE-PU64 OF FPUWM64(0002) TO
                WK01-DFLT-ACCT-CODE-PU642.
      *%--------------------------------------------------------------%*
           MOVE DEFLT-ACCOUNT-CODE-PU64 OF FPUWM64(0003) TO
                WK01-DFLT-ACCT-CODE-PU643.
      *%--------------------------------------------------------------%*
           MOVE DEFLT-ACCOUNT-CODE-PU64 OF FPUWM64(0004) TO
                WK01-DFLT-ACCT-CODE-PU644.
      *%--------------------------------------------------------------%*
           MOVE DEFLT-ACCOUNT-CODE-PU64 OF FPUWM64(0005) TO
                WK01-DFLT-ACCT-CODE-PU645.
      *%--------------------------------------------------------------%*
           MOVE DEFLT-ACCOUNT-CODE-PU64 OF FPUWM64(0006) TO
                WK01-DFLT-ACCT-CODE-PU646.
      *%--------------------------------------------------------------%*
           MOVE DEFLT-ACCOUNT-CODE-PU64 OF FPUWM64(0007) TO
                WK01-DFLT-ACCT-CODE-PU647.
      *%--------------------------------------------------------------%*
           MOVE DEFLT-ACCOUNT-CODE-PU64 OF FPUWM64(0008) TO
                WK01-DFLT-ACCT-CODE-PU648.
      *%--------------------------------------------------------------%*
           MOVE DEFLT-ACCOUNT-CODE-PU64 OF FPUWM64(0009) TO
                WK01-DFLT-ACCT-CODE-PU649.
      *%--------------------------------------------------------------%*
           MOVE DEFLT-ACCOUNT-CODE-PU64 OF FPUWM64(0010) TO
                WK01-DFLT-ACCT-CODE-PU6410.
      *%--------------------------------------------------------------%*
           MOVE DEFLT-ACCOUNT-CODE-PU64 OF FPUWM64(0011) TO
                WK01-DFLT-ACCT-CODE-PU6411.
      *%--------------------------------------------------------------%*
           MOVE DEFLT-ACCOUNT-CODE-PU64 OF FPUWM64(0012) TO
                WK01-DFLT-ACCT-CODE-PU6412.
      *%--------------------------------------------------------------%*
           MOVE START-DATE-4074-PU64 OF FPUWM64(0002) TO
                WK01-DATE-4074-PU642.
      *%--------------------------------------------------------------%*
           MOVE START-DATE-4074-PU64 OF FPUWM64(0003) TO
                WK01-DATE-4074-PU643.
      *%--------------------------------------------------------------%*
           MOVE START-DATE-4074-PU64 OF FPUWM64(0004) TO
                WK01-DATE-4074-PU644.
      *%--------------------------------------------------------------%*
           MOVE START-DATE-4074-PU64 OF FPUWM64(0005) TO
                WK01-DATE-4074-PU645.
      *%--------------------------------------------------------------%*
           MOVE START-DATE-4074-PU64 OF FPUWM64(0006) TO
                WK01-DATE-4074-PU646.
      *%--------------------------------------------------------------%*
           MOVE START-DATE-4074-PU64 OF FPUWM64(0007) TO
                WK01-DATE-4074-PU647.
      *%--------------------------------------------------------------%*
           MOVE START-DATE-4074-PU64 OF FPUWM64(0008) TO
                WK01-DATE-4074-PU648.
      *%--------------------------------------------------------------%*
           MOVE START-DATE-4074-PU64 OF FPUWM64(0009) TO
                WK01-DATE-4074-PU649.
      *%--------------------------------------------------------------%*
           MOVE START-DATE-4074-PU64 OF FPUWM64(0010) TO
                WK01-DATE-4074-PU6410.
      *%--------------------------------------------------------------%*
           MOVE START-DATE-4074-PU64 OF FPUWM64(0011) TO
                WK01-DATE-4074-PU6411.
      *%--------------------------------------------------------------%*
           MOVE START-DATE-4074-PU64 OF FPUWM64(0012) TO
                WK01-DATE-4074-PU6412.
      *%--------------------------------------------------------------%*
           MOVE ACTVY-DATE-4074-PU64 OF FPUWM64(0002) TO
                WK01-DATE-4074-PU6A2.
      *%--------------------------------------------------------------%*
           MOVE ACTVY-DATE-4074-PU64 OF FPUWM64(0003) TO
                WK01-DATE-4074-PU6A3.
      *%--------------------------------------------------------------%*
           MOVE ACTVY-DATE-4074-PU64 OF FPUWM64(0004) TO
                WK01-DATE-4074-PU6A4.
      *%--------------------------------------------------------------%*
           MOVE ACTVY-DATE-4074-PU64 OF FPUWM64(0005) TO
                WK01-DATE-4074-PU6A5.
      *%--------------------------------------------------------------%*
           MOVE ACTVY-DATE-4074-PU64 OF FPUWM64(0006) TO
                WK01-DATE-4074-PU6A6.
      *%--------------------------------------------------------------%*
           MOVE ACTVY-DATE-4074-PU64 OF FPUWM64(0007) TO
                WK01-DATE-4074-PU6A7.
      *%--------------------------------------------------------------%*
           MOVE ACTVY-DATE-4074-PU64 OF FPUWM64(0008) TO
                WK01-DATE-4074-PU6A8.
      *%--------------------------------------------------------------%*
           MOVE ACTVY-DATE-4074-PU64 OF FPUWM64(0009) TO
                WK01-DATE-4074-PU6A9.
      *%--------------------------------------------------------------%*
           MOVE ACTVY-DATE-4074-PU64 OF FPUWM64(0010) TO
                WK01-DATE-4074-PU6A10.
      *%--------------------------------------------------------------%*
           MOVE ACTVY-DATE-4074-PU64 OF FPUWM64(0011) TO
                WK01-DATE-4074-PU6A11.
      *%--------------------------------------------------------------%*
           MOVE ACTVY-DATE-4074-PU64 OF FPUWM64(0012) TO
                WK01-DATE-4074-PU6A12.
      *%--------------------------------------------------------------%*
           MOVE RQST-CMDTY-DESC-PU64 OF FPUWK64 TO WK01-CMDTY-DESC-PU64.
           MOVE RQST-CMDTY-CODE-PU64 OF FPUWK64 TO WK01-CMDTY-CODE-PU64.
           MOVE DISP-OPTION-PU64  OF FPUWK64 TO WK01-DISP-OPTION-PU64.
           MOVE EQUIP-PRICE-RNG-PU64 OF FPUWK64 TO
                                        WK01-EQUP-PRICE-RNG-PU64.
