      *%---------------------------------------------------------------*
      *%                                                               *
      *%                   200-FSYIA12 ROUTINE                         *
      *%                                                               *
      *%---------------------------------------------------------------*
       200-FSYIA12.

      ******************************************************************
      *** THIS IS TO ALLOW CANCEL WHEN  THE ORIGINATOR'S TEMPLATE
      ***  IS DELETED.  THIS IS TO BE USED WITH CAN TEMPLATE ONLY
      ***
      ******************************************************************
      ** (1) CHECK FIRST IF THE AGR-USER-ID HAS 'CAN' TEMPLATE --CANCEL
      *AUTH-
      **     ORIZATION.
      ** (2) IF 'CAN' TEMPLATE EXIST, CHECK THE DOCUMENT HAS THE ORIGINA
      *L
      **     R4212-APRVL-HDR, IF NOT  CREATE A NEW AUDIT WITH NEW
      **     'CAN' TEMPLATE
      ** (3) NOTICE, THE APVL-IND-SY08 IS SET TO 'Y'.
      ******************************************************************
      *
      ******************************************************************
      ***                           CHANGE HISTORY
      ***
      *** REF  AUTH    DATE                  DESCRIPTION
      *ACR  *
      *** ---  ----  --------  --------------------------------------  -
      *---- *
      *** 001  DMW   12/01/98  SAVE THE ORIGINAL CREATOR OF R4212      A
      *P240 *
      ***                      AND SAVE THE ORIGINAL AUDITS            A
      *P240 *
      ******************************************************************
      ** READY F-APPROVAL USAGE-MODE UPDATE.
      ** READY F-INDX-UNAPRVD USAGE-MODE UPDATE.
      ** READY F-INDX-APRVL USAGE-MODE UPDATE.
      *
           MOVE UNVRS-CODE-SY08 TO UNVRS-CODE-4203.
           MOVE SEQ-NMBR-SY08 TO SEQ-NMBR-4203.
      *%   OBTAIN CALC R4203-DOCUMENT.
           MOVE 0241 TO DBLINK-CURR-IO-NUM
           MOVE DBLINK-OBTAIN TO DBLINK-TYPE-SELECT
           MOVE DBLINK-CALC TO DBLINK-TYPE-GET
           MOVE SEQ-NMBR-4203 OF R4203-DOCUMENT TO DOC-SEQ-NBR
           PERFORM 906-05-R4203-DOCUMENT
              THRU 906-05-R4203-DOCUMENT-EXIT
           PERFORM 999-SQL-STATUS
              THRU 999-SQL-STATUS-EXIT.
           IF DB-REC-NOT-FOUND
               MOVE 001546 TO MSG-ID-SY00
               PERFORM 200-APRVLERR-S01
                  THRU 200-APRVLERR-S01-EXIT
               IF AC99W-FLAG-DISPLAY = AC99W-YES-DISPLAY
                  GO TO 200-FSYIA12-EXIT
               END-IF
      *** DOCUMENT NOT DEFINED IN THE SYSTEM
               GO TO 200-FSYIA12-EXIT
           END-IF.
      *
           MOVE AGR-USER-ID TO USER-ID-4204.
      *
      *%   FIND R4204-APRVL-J WITHIN S-4203-4204 USING USER-ID-4204.
           MOVE 0242 TO DBLINK-CURR-IO-NUM
           MOVE DBLINK-FIND TO DBLINK-TYPE-SELECT
           MOVE DBLINK-SORTED TO DBLINK-TYPE-GET
           MOVE USER-ID-4204 TO DBLINK-S-4203-4204-KEY-U
           PERFORM 906-02-S-4203-4204
              THRU 906-02-S-4203-4204-EXIT
           PERFORM 999-SQL-STATUS
              THRU 999-SQL-STATUS-EXIT.
           IF DB-REC-NOT-FOUND
               MOVE 001200 TO MSG-ID-SY00
               PERFORM 200-APRVLERR-S01
                  THRU 200-APRVLERR-S01-EXIT
               IF AC99W-FLAG-DISPLAY = AC99W-YES-DISPLAY
                  GO TO 200-FSYIA12-EXIT
               END-IF
      *** APPROVAL HIERARCHY UNAVAILABLE FOR USE
               GO TO 200-FSYIA12-EXIT
           END-IF.
      *
      *
           MOVE 'CAN' TO APRVL-TMPLT-CODE-SY08.
           MOVE APRVL-TMPLT-CODE-SY08 TO APRVL-TMPLT-CODE-4215.
      *
      *%   OBTAIN R4215-APRV-TMPLT WITHIN S-4204-4215 USING
      *%        APRVL-TMPLT-CODE-4215.
           MOVE 0243 TO DBLINK-CURR-IO-NUM
           MOVE DBLINK-OBTAIN TO DBLINK-TYPE-SELECT
           MOVE DBLINK-SORTED TO DBLINK-TYPE-GET
           MOVE APRVL-TMPLT-CODE-4215 TO DBLINK-S-4204-4215-KEY-U
           PERFORM 906-02-S-4204-4215
              THRU 906-02-S-4204-4215-EXIT
           PERFORM 999-SQL-STATUS
              THRU 999-SQL-STATUS-EXIT.
           IF DB-REC-NOT-FOUND
               MOVE 002289 TO MSG-ID-SY00
               PERFORM 200-APRVLERR-S01
                  THRU 200-APRVLERR-S01-EXIT
               IF AC99W-FLAG-DISPLAY = AC99W-YES-DISPLAY
                  GO TO 200-FSYIA12-EXIT
               END-IF
      *** APPROVAL TEMPLATE UNAVAILABLE
               GO TO 200-FSYIA12-EXIT
           END-IF.
      *
      *%   OBTAIN LAST R4205-APRVL-LVL WITHIN S-4215-4205.
           MOVE 0244 TO DBLINK-CURR-IO-NUM
           MOVE DBLINK-OBTAIN TO DBLINK-TYPE-SELECT
           MOVE DBLINK-LAST TO DBLINK-TYPE-GET
           PERFORM 906-00P-S-4215-4205
              THRU 906-00P-S-4215-4205-EXIT
           PERFORM 999-SQL-STATUS
              THRU 999-SQL-STATUS-EXIT.
      ** TO HOOK UP SEQ 001
           IF DB-END-OF-SET
               MOVE 001200 TO MSG-ID-SY00
               PERFORM 200-APRVLERR-S01
                  THRU 200-APRVLERR-S01-EXIT
               IF AC99W-FLAG-DISPLAY = AC99W-YES-DISPLAY
                  GO TO 200-FSYIA12-EXIT
               END-IF
      *** APPROVAL HIERARCHY UNAVAILABLE FOR US
               GO TO 200-FSYIA12-EXIT
           END-IF.
      *
      ** IF R4212-APRVL-HDR EXIST, MODIFY THE HDR
      *
           MOVE UNVRS-CODE-SY08 TO UNVRS-CODE-4212.
           MOVE SEQ-NMBR-SY08 TO SEQ-NMBR-4212.
           MOVE DCMNT-NMBR-SY08 TO DCMNT-NMBR-4212.
           MOVE CHNG-SEQ-NMBR-SY08 TO CHNG-SEQ-NMBR-4212.
           MOVE FSCL-YR-SY08 TO FSCL-YR-4212.
      *%   OBTAIN CALC R4212-APRVL-HDR.
           MOVE 0245 TO DBLINK-CURR-IO-NUM
           MOVE DBLINK-OBTAIN TO DBLINK-TYPE-SELECT
           MOVE DBLINK-CALC TO DBLINK-TYPE-GET
           MOVE FSCL-YR-4212 OF R4212-APRVL-HDR TO APH-FSCL-YR
           MOVE SEQ-NMBR-4212 OF R4212-APRVL-HDR TO APH-SEQ-NBR
           MOVE DCMNT-NMBR-4212 OF R4212-APRVL-HDR TO APH-DOC-NBR
           MOVE CHNG-SEQ-NMBR-4212 OF R4212-APRVL-HDR TO
               APH-CHNG-SEQ-NBR
           PERFORM 906-05-R4212-APRVL-HDR
              THRU 906-05-R4212-APRVL-HDR-EXIT
           PERFORM 999-SQL-STATUS
              THRU 999-SQL-STATUS-EXIT.
           IF DB-REC-NOT-FOUND
               INITIALIZE R4212-APRVL-HDR
               MOVE UNVRS-CODE-SY08 TO UNVRS-CODE-4212
               MOVE AGR-USER-ID TO USER-ID-4212
               MOVE 'Y' TO APRVL-IND-4212
               MOVE APRVL-ID-4205 TO APRVL-ID-4212
               MOVE SEQ-NMBR-SY08 TO SEQ-NMBR-4212
               MOVE DCMNT-NMBR-SY08 TO DCMNT-NMBR-4212
               MOVE CHNG-SEQ-NMBR-SY08 TO CHNG-SEQ-NMBR-4212
               MOVE APRVL-TMPLT-CODE-SY08 TO APRVL-TMPLT-CODE-4212
               MOVE FSCL-YR-SY08 TO FSCL-YR-4212
      *%       STORE R4212-APRVL-HDR
               MOVE 0246 TO DBLINK-CURR-IO-NUM
               MOVE DBLINK-STORE TO DBLINK-TYPE-SELECT
               MOVE DBLINK-STORE TO DBLINK-TYPE-GET
               PERFORM 976-FROM-R4212-APRVL-HDR
                  THRU 976-FROM-R4212-APRVL-HDR-EXIT
               MOVE 0 TO APH-FK-APL-SEQ-NBR
               MOVE ' ' TO APH-FK-APL-USER-ID
               MOVE ' ' TO APH-FK-APL-APV-TPLT-CD
               MOVE 0 TO APH-FK-APL-LVL-SEQ-NBR
               MOVE DBLINK-LOW-TIMESTAMP TO APH-APL-SET-TS
               MOVE 'N' TO APH-APL-SETF
               MOVE DBLINK-LOW-TIMESTAMP TO APH-IDX-APRVL-TS
               MOVE 'N' TO APH-IDX-APRVL-SETF
               MOVE 'N' TO APH-IDX-UNAPRVD-SETF
               PERFORM 904-ISRT-R4212-APRVL-HDR
                  THRU 904-ISRT-R4212-APRVL-HDR-EXIT
               PERFORM 999-SQL-STATUS
                  THRU 999-SQL-STATUS-EXIT
           ELSE
      *%       OBTAIN LAST WITHIN S-4212-4214
               MOVE 0247 TO DBLINK-CURR-IO-NUM
               MOVE DBLINK-OBTAIN TO DBLINK-TYPE-SELECT
               MOVE DBLINK-LAST TO DBLINK-TYPE-GET
               PERFORM 906-00P-S-4212-4214
                  THRU 906-00P-S-4212-4214-EXIT
               PERFORM 999-SQL-STATUS
                  THRU 999-SQL-STATUS-EXIT
      ** IF AUDIT FOUND
               IF DB-END-OF-SET
      ** IF AUDIT NOT FOUND
      ** CREAT ONE USING THE
                   INITIALIZE R4214-APRVL-AUD
      ** CREATOR ONE
                   MOVE AC99W-DATEX TO APRVL-DATE-4214
                   MOVE AC99W-TIME TO AC99W-ALPHA07
                   MOVE AC99W-ALPHA07-2-X TO APRVL-TIME-4214
                   MOVE USER-ID-4212 TO APRVL-CODE-4214
                   MOVE 0002 TO LEVEL-SEQ-NMBR-4214
      *%           STORE R4214-APRVL-AUD
                   MOVE 0248 TO DBLINK-CURR-IO-NUM
                   MOVE DBLINK-STORE TO DBLINK-TYPE-SELECT
                   MOVE DBLINK-STORE TO DBLINK-TYPE-GET
                   PERFORM 976-FROM-R4214-APRVL-AUD
                      THRU 976-FROM-R4214-APRVL-AUD-EXIT
                   PERFORM 903-S-4212-4214
                      THRU 903-S-4212-4214-EXIT
                   PERFORM 904-ISRT-R4214-APRVL-AUD
                      THRU 904-ISRT-R4214-APRVL-AUD-EXIT
                   PERFORM 999-SQL-STATUS
                      THRU 999-SQL-STATUS-EXIT
               ELSE
                   PERFORM WITH TEST BEFORE
                           UNTIL NOT ( NOT DB-END-OF-SET   )
      ** UPSEQUENCE SO
      ** CANCEL APRVL WILL BE
                       ADD 1 TO LEVEL-SEQ-NMBR-4214
      ** THE FINAL APRVL
      *%               MODIFY R4214-APRVL-AUD
                       MOVE 0249 TO DBLINK-CURR-IO-NUM
                       MOVE DBLINK-MODIFY TO DBLINK-TYPE-SELECT
                       MOVE DBLINK-MODIFY TO DBLINK-TYPE-GET
                       PERFORM 976-FROM-R4214-APRVL-AUD
                          THRU 976-FROM-R4214-APRVL-AUD-EXIT
                       PERFORM 904-UPDT-R4214-APRVL-AUD
                          THRU 904-UPDT-R4214-APRVL-AUD-EXIT
                       PERFORM 999-SQL-STATUS
                          THRU 999-SQL-STATUS-EXIT
      *%               OBTAIN PRIOR WITHIN S-4212-4214
                       MOVE 0250 TO DBLINK-CURR-IO-NUM
                       MOVE DBLINK-OBTAIN TO DBLINK-TYPE-SELECT
                       MOVE DBLINK-PRIOR TO DBLINK-TYPE-GET
                       PERFORM 906-00P-S-4212-4214
                          THRU 906-00P-S-4212-4214-EXIT
                       PERFORM 999-SQL-STATUS
                          THRU 999-SQL-STATUS-EXIT
                   END-PERFORM
               END-IF
      *%       FIND CURRENT R4212-APRVL-HDR
               MOVE 0251 TO DBLINK-CURR-IO-NUM
               MOVE DBLINK-FIND TO DBLINK-TYPE-SELECT
               MOVE DBLINK-CURR TO DBLINK-TYPE-GET
               IF DBLINK-R4212-APRVL-HDR-KEY = SPACES
                   MOVE DBLINK-NO-CURRENCY TO ERROR-STATUS
                   MOVE +100 TO SQLCODE
               ELSE
                   MOVE ZERO TO ERROR-STATUS
                   MOVE 0 TO SQLCODE
                   MOVE DBLINK-R4212-APRVL-HDR-01 TO APH-FSCL-YR
                   MOVE DBLINK-R4212-APRVL-HDR-02 TO APH-SEQ-NBR
                   MOVE DBLINK-R4212-APRVL-HDR-03 TO APH-DOC-NBR
                   MOVE DBLINK-R4212-APRVL-HDR-04 TO APH-CHNG-SEQ-NBR
                   PERFORM 906-05-R4212-APRVL-HDR
                      THRU 906-05-R4212-APRVL-HDR-EXIT
               END-IF
               PERFORM 999-SQL-STATUS
                  THRU 999-SQL-STATUS-EXIT
               MOVE AGR-USER-ID TO USER-ID-4212
               MOVE 'Y' TO APRVL-IND-4212
               MOVE APRVL-TMPLT-CODE-SY08 TO APRVL-TMPLT-CODE-4212
      *%       MODIFY R4212-APRVL-HDR
               MOVE 0252 TO DBLINK-CURR-IO-NUM
               MOVE DBLINK-MODIFY TO DBLINK-TYPE-SELECT
               MOVE DBLINK-MODIFY TO DBLINK-TYPE-GET
               PERFORM 976-FROM-R4212-APRVL-HDR
                  THRU 976-FROM-R4212-APRVL-HDR-EXIT
               PERFORM 904-UPDT-R4212-APRVL-HDR
                  THRU 904-UPDT-R4212-APRVL-HDR-EXIT
               PERFORM 999-SQL-STATUS
                  THRU 999-SQL-STATUS-EXIT
           END-IF.
      *
           MOVE LEVEL-SEQ-NMBR-4205 TO LEVEL-SEQ-NMBR-4214.
      *%   OBTAIN R4214-APRVL-AUD WITHIN S-4212-4214 USING
      *%        LEVEL-SEQ-NMBR-4214.
           MOVE 0253 TO DBLINK-CURR-IO-NUM
           MOVE DBLINK-OBTAIN TO DBLINK-TYPE-SELECT
           MOVE DBLINK-SORTED TO DBLINK-TYPE-GET
           MOVE LEVEL-SEQ-NMBR-4214 TO DBLINK-WS-S-4212-4214-KEY
           MOVE DBLINK-WS-S-4212-4214-05 TO DBLINK-S-4212-4214-05
           PERFORM 906-02-S-4212-4214
              THRU 906-02-S-4212-4214-EXIT
           PERFORM 999-SQL-STATUS
              THRU 999-SQL-STATUS-EXIT.
      ** THE FIRST LEVEL.
      *
           MOVE AC99W-DATEX TO APRVL-DATE-4214.
      *
           MOVE AC99W-TIME TO AC99W-ALPHA07.
           MOVE AC99W-ALPHA07-2-X TO APRVL-TIME-4214.
           MOVE AGR-USER-ID TO APRVL-CODE-4214.
           MOVE SPACES TO ALTRNT-APRVL-CODE-4214.
           IF DB-REC-NOT-FOUND
      *%       STORE R4214-APRVL-AUD
               MOVE 0254 TO DBLINK-CURR-IO-NUM
               MOVE DBLINK-STORE TO DBLINK-TYPE-SELECT
               MOVE DBLINK-STORE TO DBLINK-TYPE-GET
               PERFORM 976-FROM-R4214-APRVL-AUD
                  THRU 976-FROM-R4214-APRVL-AUD-EXIT
               PERFORM 903-S-4212-4214
                  THRU 903-S-4212-4214-EXIT
               PERFORM 904-ISRT-R4214-APRVL-AUD
                  THRU 904-ISRT-R4214-APRVL-AUD-EXIT
               PERFORM 999-SQL-STATUS
                  THRU 999-SQL-STATUS-EXIT
           ELSE
      *%       MODIFY R4214-APRVL-AUD
               MOVE 0255 TO DBLINK-CURR-IO-NUM
               MOVE DBLINK-MODIFY TO DBLINK-TYPE-SELECT
               MOVE DBLINK-MODIFY TO DBLINK-TYPE-GET
               PERFORM 976-FROM-R4214-APRVL-AUD
                  THRU 976-FROM-R4214-APRVL-AUD-EXIT
               PERFORM 904-UPDT-R4214-APRVL-AUD
                  THRU 904-UPDT-R4214-APRVL-AUD-EXIT
               PERFORM 999-SQL-STATUS
                  THRU 999-SQL-STATUS-EXIT
           END-IF.
      *
      *%   FIND CURRENT R4212-APRVL-HDR.
           MOVE 0256 TO DBLINK-CURR-IO-NUM
           MOVE DBLINK-FIND TO DBLINK-TYPE-SELECT
           MOVE DBLINK-CURR TO DBLINK-TYPE-GET
           IF DBLINK-R4212-APRVL-HDR-KEY = SPACES
               MOVE DBLINK-NO-CURRENCY TO ERROR-STATUS
               MOVE +100 TO SQLCODE
           ELSE
               MOVE ZERO TO ERROR-STATUS
               MOVE 0 TO SQLCODE
               MOVE DBLINK-R4212-APRVL-HDR-01 TO APH-FSCL-YR
               MOVE DBLINK-R4212-APRVL-HDR-02 TO APH-SEQ-NBR
               MOVE DBLINK-R4212-APRVL-HDR-03 TO APH-DOC-NBR
               MOVE DBLINK-R4212-APRVL-HDR-04 TO APH-CHNG-SEQ-NBR
               PERFORM 906-05-R4212-APRVL-HDR
                  THRU 906-05-R4212-APRVL-HDR-EXIT
           END-IF
           PERFORM 999-SQL-STATUS
              THRU 999-SQL-STATUS-EXIT.
      *%   IF S-INDX-APRVL MEMBER
           MOVE 0257 TO DBLINK-CURR-IO-NUM
           MOVE DBLINK-IF TO DBLINK-TYPE-SELECT
           MOVE DBLINK-MEMBER TO DBLINK-TYPE-GET
           IF DBLINK-S-INDX-APRVL-F = DBLINK-MEMBER
               MOVE ZERO TO ERROR-STATUS
           ELSE
               MOVE DBLINK-AREA-NOT-READY-IF TO ERROR-STATUS
           END-IF
           IF ERROR-STATUS = ZERO
      *%       DISCONNECT R4212-APRVL-HDR FROM S-INDX-APRVL
               MOVE 0258 TO DBLINK-CURR-IO-NUM
               MOVE DBLINK-MODIFY TO DBLINK-TYPE-GET
               MOVE 'N' TO APH-IDX-APRVL-SETF
               PERFORM 904-DIS-S-INDX-APRVL
                  THRU 904-DIS-S-INDX-APRVL-EXIT
               PERFORM 999-SQL-STATUS
                  THRU 999-SQL-STATUS-EXIT
               MOVE 'N' TO DBLINK-S-INDX-APRVL-F
           END-IF.
      *
      *%   IF S-INDX-UNAPRVD MEMBER
           MOVE 0259 TO DBLINK-CURR-IO-NUM
           MOVE DBLINK-IF TO DBLINK-TYPE-SELECT
           MOVE DBLINK-MEMBER TO DBLINK-TYPE-GET
           IF DBLINK-S-INDX-UNAPRVD-F = DBLINK-MEMBER
               MOVE ZERO TO ERROR-STATUS
           ELSE
               MOVE DBLINK-AREA-NOT-READY-IF TO ERROR-STATUS
           END-IF
           IF ERROR-STATUS = ZERO
      *%       DISCONNECT R4212-APRVL-HDR FROM S-INDX-UNAPRVD
               MOVE 0260 TO DBLINK-CURR-IO-NUM
               MOVE DBLINK-MODIFY TO DBLINK-TYPE-GET
               MOVE 'N' TO APH-IDX-UNAPRVD-SETF
               PERFORM 904-DIS-S-INDX-UNAPRVD
                  THRU 904-DIS-S-INDX-UNAPRVD-EXIT
               PERFORM 999-SQL-STATUS
                  THRU 999-SQL-STATUS-EXIT
               MOVE 'N' TO DBLINK-S-INDX-UNAPRVD-F
           END-IF.
      *
      *%   IF S-4205-4212 MEMBER
           MOVE 0261 TO DBLINK-CURR-IO-NUM
           MOVE DBLINK-IF TO DBLINK-TYPE-SELECT
           MOVE DBLINK-MEMBER TO DBLINK-TYPE-GET
           IF DBLINK-S-4205-4212-F = DBLINK-MEMBER
               MOVE ZERO TO ERROR-STATUS
           ELSE
               MOVE DBLINK-AREA-NOT-READY-IF TO ERROR-STATUS
           END-IF
           IF ERROR-STATUS = ZERO
      *%       DISCONNECT R4212-APRVL-HDR FROM S-4205-4212
               MOVE 0262 TO DBLINK-CURR-IO-NUM
               MOVE DBLINK-MODIFY TO DBLINK-TYPE-GET
               MOVE 'N' TO APH-APL-SETF
               PERFORM 904-DIS-S-4205-4212
                  THRU 904-DIS-S-4205-4212-EXIT
               PERFORM 999-SQL-STATUS
                  THRU 999-SQL-STATUS-EXIT
               MOVE 'N' TO DBLINK-S-4205-4212-F
           END-IF.
      *
           MOVE APRVL-TMPLT-CODE-4212 TO APRVL-TMPLT-CODE-SY08.
           MOVE 'Y' TO APRVL-IND-SY08.
      *

       200-FSYIA12-EXIT.
           EXIT.
