      /*---------------------------------------------------------------*
      **
      **                   200-FSYIA10 ROUTINE
      **
      ** THIS ROUTINE IS INCLUDED IN PROGRAMS THAT NEED TO DISPLAY
      ** COLUMNS OF DEBIT AND CREDIT AMOUNTS. IT MIRRORS THE POSTING
      ** PROCESS TO THE POINT OF GETTING THE SIGN FOR GENERAL LEDGER
      ** CONTROL ACCOUNT ASSOCIATED WITH THE INPUT TRANSACTION.  AFTER
      ** CALLING THE ROUTINE, USE RESULTS STORED IN DEBIT-CRDT-IND-SY10
      ** TO POSITION AMOUNT TO THE CORRECT COLUMN:
      **    IF IT'S A 'D', MOVE THE AMOUNT TO THE DEBIT COLUMN.
      **    IF IT'S A 'C', MOVE THE AMOUNT TO THE CREDIT COLUMN.
      **
      ** THIS INCLUDE REQUIRES COPYBOOK USYWC10 (-SY10 FIELDS) IN ALL
      ** USING PROGRAMS.  THE FOLLOWING FIELDS MUST BE POPULATED FROM
      ** THE INPUT TRANSACTION FOR THE ROUTINE TO WORK CORRECTLY:
      **    JRNL-TYPE-SY10
      **    UNVRS-CODE-SY10
      **    COA-CODE-SY10
      **    ACCT-CODE-SY10
      **    ENCMBRNC-NMBR-SY10
      **    TRANS-DATE-SY10
      **    DEBIT-CRDT-IND-SY10 (USED AS INPUT AND OUTPUT)
      **
      ** THIS INCLUDE REQUIRES THE FOLLOWING DB2 TABLE SQL INCLUDES:
      **    RLC_RULE_CLASS - HVRLC
      **    RLE_RULE_EFCTV - HVRLE
      **    RLA_RULE_ACTN  - HVRLA
      **    ACE_ACCT_EFCTV - HVACE
      **    ATE_ACTT_EFCTV - HVATE
      **    CAE_CA-EFCTV   - HVCAE
      **
      ** THIS INCLUDE REQUIRES THE FOLLOWING WORKING-STORAGE FIELDS:
      **    05  WS-SQLCOUNT             PIC S9(8) COMP   VALUE ZEROES.
      **    05  WS-IDMS-YYYYMMDD        PIC 9(08)        VALUE ZEROES.
      **    05  WS-DB2-TRANS-DATE       PIC X(10)        VALUE SPACES.
      **
      **---------------------------------------------------------------*
      /
       200-FSYIA10.

           IF JRNL-TYPE-SY10 = SPACES
               GO TO 200-FSYIA10-EXIT
           END-IF.

           MOVE SPACES                 TO ERROR-IND-SY10.
DEVHV1     MOVE TRANS-DATE-SY10        TO WS-IDMS-YYYYMMDD.
DEVHV1     MOVE WS-IDMS-YYYYMMDD(1:4)  TO WS-DB2-TRANS-DATE(1:4).
DEVHV1     MOVE '-'                    TO WS-DB2-TRANS-DATE(5:1).
DEVHV1     MOVE WS-IDMS-YYYYMMDD(5:2)  TO WS-DB2-TRANS-DATE(6:2).
DEVHV1     MOVE '-'                    TO WS-DB2-TRANS-DATE(8:1).
DEVHV1     MOVE WS-IDMS-YYYYMMDD(7:2)  TO WS-DB2-TRANS-DATE(9:2).

           MOVE 0057              TO DBLINK-CURR-IO-NUM.
           MOVE JRNL-TYPE-SY10    TO RLC-RULE-CLS-CD.
           PERFORM 200-FSYIA10-COUNT-RLC
              THRU 200-FSYIA10-COUNT-RLC-EXIT.
           PERFORM 999-SQL-STATUS
              THRU 999-SQL-STATUS-EXIT.
           IF WS-SQLCOUNT = 0
               MOVE 000088 TO MSG-ID-SY00
               MOVE 'Y' TO ERROR-IND-SY10
               GO TO 200-FSYIA10-EXIT
           END-IF.

           MOVE 0058              TO DBLINK-CURR-IO-NUM.
DEVHV1     MOVE RLC-RULE-CLS-CD   TO RLE-FK-RLC-RULE-CLS-CD.
DEVHV1     MOVE WS-DB2-TRANS-DATE TO RLE-START-DT.
           PERFORM 200-FSYIA10-SELECT-RLE-MAX
              THRU 200-FSYIA10-SELECT-RLE-EXIT.
           PERFORM 999-SQL-STATUS
              THRU 999-SQL-STATUS-EXIT.
           IF ERROR-STATUS = DBLINK-NOT-FOUND
           OR WS-DB2-TRANS-DATE > RLE-END-DT
               MOVE 000717 TO MSG-ID-SY00
               MOVE 'Y' TO ERROR-IND-SY10
               GO TO 200-FSYIA10-EXIT
           END-IF.

      ************************************************************
      ** FOR EACH PROCESS ASSOCIATED WITH THE RULE CLASS, CALL THE
      ** APPROPRIATE POSTING MODULE.
      ************************************************************
DEVHV1     MOVE RLE-FK-RLC-RULE-CLS-CD
DEVHV1                            TO RLA-FK-RLE-RULE-CLS-CD.
DEVHV1     MOVE RLE-START-DT      TO RLA-FK-RLE-START-DT.
DEVHV1     MOVE RLE-TIME-STMP     TO RLA-FK-RLE-TIME-STMP.

           MOVE 0060              TO DBLINK-CURR-IO-NUM.
           PERFORM 200-FSYIA10-SELECT-RLA-FIRST
              THRU 200-FSYIA10-SELECT-RLA-F-EXIT.
           PERFORM 999-SQL-STATUS
              THRU 999-SQL-STATUS-EXIT.
           IF ERROR-STATUS = DBLINK-NOT-FOUND
               MOVE 'Y' TO ERROR-IND-SY10
           ELSE
               PERFORM 200-FSYIA10-151INIT
                  THRU 200-FSYIA10-151INIT-EXIT
           END-IF.
           IF ERROR-IND-SY10 = 'Y'
               GO TO 200-FSYIA10-EXIT
           END-IF.

           MOVE 0043              TO DBLINK-CURR-IO-NUM.
           PERFORM 200-FSYIA10-SELECT-RLA-NEXT-O
              THRU 200-FSYIA10-SELECT-RLA-N-EXIT.
           PERFORM 999-SQL-STATUS
              THRU 999-SQL-STATUS-EXIT.
           IF ERROR-STATUS = DBLINK-NOT-FOUND
               MOVE 'N' TO PRCS-FOUND-IND-SY10
DEVHV2         MOVE GL-DEBIT-CRDT-IND-SY10 TO DEBIT-CRDT-IND-SY10
DEVHV2         GO TO 200-FSYIA10-EXIT
           END-IF.

           MOVE 'Y' TO PRCS-FOUND-IND-SY10.

           PERFORM 200-FSYIA10-153OPR
              THRU 200-FSYIA10-153OPR-EXIT.
           IF ERROR-IND-SY10 = 'Y'
               GO TO 200-FSYIA10-EXIT
           END-IF.

           IF OPAL-SIGN-SY10 = '0'
               MOVE GL-DEBIT-CRDT-IND-SY10 TO DEBIT-CRDT-IND-SY10
           END-IF.

       200-FSYIA10-EXIT.
           EXIT.
      /
      *%---------------------------------------------------------------*
      *%                                                               *
      *%                   200-FSYIA10-151INIT ROUTINE                 *
      *%                                                               *
      *%---------------------------------------------------------------*
       200-FSYIA10-151INIT.

           MOVE SPACES TO CY-PY-BDGT-CNTRL-IND-SY10.

           EVALUATE RLA-PRCS-CD
             WHEN 'I011'
               PERFORM 200-FSYIA10-151I011
                  THRU 200-FSYIA10-151I011-EXIT
             WHEN 'I012'
                 PERFORM 200-FSYIA10-151I012
                    THRU 200-FSYIA10-151I012-EXIT
             WHEN 'I021'
                 PERFORM 200-FSYIA10-151I021
                    THRU 200-FSYIA10-151I021-EXIT
             WHEN 'I022'
                 PERFORM 200-FSYIA10-151I022
                    THRU 200-FSYIA10-151I022-EXIT
             WHEN 'I031'
                 PERFORM 200-FSYIA10-151I031
                    THRU 200-FSYIA10-151I031-EXIT
             WHEN 'I032'
                 PERFORM 200-FSYIA10-151I032
                    THRU 200-FSYIA10-151I032-EXIT
             WHEN 'I040'
                 PERFORM 200-FSYIA10-151I040
                    THRU 200-FSYIA10-151I040-EXIT
             WHEN 'I050'
                 PERFORM 200-FSYIA10-151I050
                    THRU 200-FSYIA10-151I050-EXIT
             WHEN 'I061'
                 PERFORM 200-FSYIA10-151I061
                    THRU 200-FSYIA10-151I061-EXIT
             WHEN 'I062'
                 PERFORM 200-FSYIA10-151I062
                    THRU 200-FSYIA10-151I062-EXIT
             WHEN OTHER
                 MOVE 'Y' TO ERROR-IND-SY10
           END-EVALUATE.

       200-FSYIA10-151INIT-EXIT.
           EXIT.
      /
      *%---------------------------------------------------------------*
      *%                                                               *
      *%                   200-FSYIA10-153OPR ROUTINE                  *
      *%                                                               *
      *%---------------------------------------------------------------*
       200-FSYIA10-153OPR.

           EVALUATE RLA-PRCS-CD
             WHEN 'O010'
               PERFORM 200-FSYIA10-153O010
                  THRU 200-FSYIA10-153O010-EXIT
             WHEN 'O011'
               PERFORM 200-FSYIA10-153O011
                  THRU 200-FSYIA10-153O011-EXIT
             WHEN 'O015'
               PERFORM 200-FSYIA10-153O015
                  THRU 200-FSYIA10-153O015-EXIT
             WHEN 'O020'
               PERFORM 200-FSYIA10-153O020
                  THRU 200-FSYIA10-153O020-EXIT
             WHEN 'O021'
               PERFORM 200-FSYIA10-153O021
                  THRU 200-FSYIA10-153O021-EXIT
             WHEN 'O025'
               PERFORM 200-FSYIA10-153O025
                  THRU 200-FSYIA10-153O025-EXIT
             WHEN 'O030'
             WHEN 'O031'
               PERFORM 200-FSYIA10-153O030
                  THRU 200-FSYIA10-153O030-EXIT
             WHEN 'O040'
               PERFORM 200-FSYIA10-153O040
                  THRU 200-FSYIA10-153O040-EXIT
             WHEN OTHER
               MOVE 'Y' TO ERROR-IND-SY10
           END-EVALUATE.

       200-FSYIA10-153OPR-EXIT.
           EXIT.
      /
       200-FSYIA10-151I011.
      ******************************************************************
      ** INTERPRETER ROUTINE USED TO DETERMINE OPAL SIGN AND GL SIGN
      ** FOR DISBURSEMENT-TYPE TRANSACTIONS BASED ON NORMAL BALANCE
      ** OF THE ACCOUNT TYPE.
      ******************************************************************

           MOVE '01' TO CNTRL-SEQ-NMBR-SY10.

           PERFORM 200-FSYIA10-154ACCT
              THRU 200-FSYIA10-154ACCT-EXIT.
           IF ERROR-IND-SY10 = 'Y'
               GO TO 200-FSYIA10-151I011-EXIT
           END-IF.

           IF DEBIT-CRDT-IND-SY10 = '-'
               IF ATE-NRML-BAL-IND = 'C'
                   MOVE 'C' TO GL-DEBIT-CRDT-IND-SY10
                   IF CNTRL-ACCT-IND-SY10 = 'N'
                       MOVE '0' TO OPAL-SIGN-SY10
                   ELSE
                       MOVE '+' TO OPAL-SIGN-SY10
                   END-IF
               ELSE
                   MOVE 'C' TO GL-DEBIT-CRDT-IND-SY10
                   IF CNTRL-ACCT-IND-SY10 = 'N'
                       MOVE '0' TO OPAL-SIGN-SY10
                   ELSE
                       MOVE '-' TO OPAL-SIGN-SY10
                   END-IF
               END-IF
           ELSE
               IF ATE-NRML-BAL-IND = 'C'
                   MOVE 'D' TO GL-DEBIT-CRDT-IND-SY10
                   IF CNTRL-ACCT-IND-SY10 = 'N'
                       MOVE '0' TO OPAL-SIGN-SY10
                   ELSE
                       MOVE '-' TO OPAL-SIGN-SY10
                   END-IF
               ELSE
                   MOVE 'D' TO GL-DEBIT-CRDT-IND-SY10
                   IF CNTRL-ACCT-IND-SY10 = 'N'
                       MOVE '0' TO OPAL-SIGN-SY10
                   ELSE
                       MOVE '+' TO OPAL-SIGN-SY10
                   END-IF
               END-IF
           END-IF.

       200-FSYIA10-151I011-EXIT.
           EXIT.
      /
       200-FSYIA10-151I012.
      *****************************************************************
      ** INTERPRETER ROUTINE USED TO DETERMINE OPAL SIGN AND G L SIGN
      ** FOR DISBURSEMENT-TYPE TRANSACTIONS BASED ON NORMAL BALANCE
      ** OF THE ACCOUNT.
      *****************************************************************

           MOVE '01' TO CNTRL-SEQ-NMBR-SY10.

           PERFORM 200-FSYIA10-154ACCT
              THRU 200-FSYIA10-154ACCT-EXIT.
           IF ERROR-IND-SY10 = 'Y'
               GO TO 200-FSYIA10-151I012-EXIT
           END-IF.

           IF DEBIT-CRDT-IND-SY10 = '-'
               IF ACE-NRML-BAL-IND = 'C'
                   MOVE 'C' TO GL-DEBIT-CRDT-IND-SY10
                   IF CNTRL-ACCT-IND-SY10 = 'N'
                       MOVE '0' TO OPAL-SIGN-SY10
                   ELSE
                       MOVE '+' TO OPAL-SIGN-SY10
                   END-IF
               ELSE
                   MOVE 'C' TO GL-DEBIT-CRDT-IND-SY10
                   IF CNTRL-ACCT-IND-SY10 = 'N'
                       MOVE '0' TO OPAL-SIGN-SY10
                   ELSE
                       MOVE '-' TO OPAL-SIGN-SY10
                   END-IF
               END-IF
           ELSE
               IF ACE-NRML-BAL-IND = 'C'
                   MOVE 'D' TO GL-DEBIT-CRDT-IND-SY10
                   IF CNTRL-ACCT-IND-SY10 = 'N'
                       MOVE '0' TO OPAL-SIGN-SY10
                   ELSE
                       MOVE '-' TO OPAL-SIGN-SY10
                   END-IF
               ELSE
                   MOVE 'D' TO GL-DEBIT-CRDT-IND-SY10
                   IF CNTRL-ACCT-IND-SY10 = 'N'
                       MOVE '0' TO OPAL-SIGN-SY10
                   ELSE
                       MOVE '+' TO OPAL-SIGN-SY10
                   END-IF
               END-IF
           END-IF.

       200-FSYIA10-151I012-EXIT.
           EXIT.
      /
       200-FSYIA10-151I021.
      *****************************************************************
      ** INTERPRETER ROUTINE USED TO DETERMINE OPAL SIGN AND G L SIGN
      ** FOR RECEIPT-TYPE TRANSACTIONS BASED ON NORMAL BALANCE
      ** OF THE ACCOUNT TYPE.
      *****************************************************************

           MOVE '01' TO CNTRL-SEQ-NMBR-SY10.

           PERFORM 200-FSYIA10-154ACCT
              THRU 200-FSYIA10-154ACCT-EXIT.
           IF ERROR-IND-SY10 = 'Y'
               GO TO 200-FSYIA10-151I021-EXIT
           END-IF.

           IF DEBIT-CRDT-IND-SY10 = '-'
               IF ATE-NRML-BAL-IND = 'C'
                   MOVE 'D' TO GL-DEBIT-CRDT-IND-SY10
                   IF CNTRL-ACCT-IND-SY10 = 'N'
                       MOVE '0' TO OPAL-SIGN-SY10
                   ELSE
                       MOVE '-' TO OPAL-SIGN-SY10
                   END-IF
               ELSE
                   MOVE 'D' TO GL-DEBIT-CRDT-IND-SY10
                   IF CNTRL-ACCT-IND-SY10 = 'N'
                       MOVE '0' TO OPAL-SIGN-SY10
                   ELSE
                       MOVE '+' TO OPAL-SIGN-SY10
                   END-IF
               END-IF
           ELSE
               IF ATE-NRML-BAL-IND = 'C'
                   MOVE 'C' TO GL-DEBIT-CRDT-IND-SY10
                   IF CNTRL-ACCT-IND-SY10 = 'N'
                       MOVE '0' TO OPAL-SIGN-SY10
                   ELSE
                       MOVE '+' TO OPAL-SIGN-SY10
                   END-IF
               ELSE
                   MOVE 'C' TO GL-DEBIT-CRDT-IND-SY10
                   IF CNTRL-ACCT-IND-SY10 = 'N'
                       MOVE '0' TO OPAL-SIGN-SY10
                   ELSE
                       MOVE '-' TO OPAL-SIGN-SY10
                   END-IF
               END-IF
           END-IF.

       200-FSYIA10-151I021-EXIT.
           EXIT.
      /
       200-FSYIA10-151I022.
      *****************************************************************
      ** INTERPRETER ROUTINE USED TO DETERMINE OPAL SIGN AND G L SIGN
      ** FOR RECEIPT-TYPE TRANSACTIONS BASED ON NORMAL BALANCE
      ** OF THE ACCOUNT.
      *****************************************************************

           MOVE '01' TO CNTRL-SEQ-NMBR-SY10.

           PERFORM 200-FSYIA10-154ACCT
              THRU 200-FSYIA10-154ACCT-EXIT.
           IF ERROR-IND-SY10 = 'Y'
               GO TO 200-FSYIA10-151I022-EXIT
           END-IF.

           IF DEBIT-CRDT-IND-SY10 = '-'
               IF ACE-NRML-BAL-IND = 'C'
                   MOVE 'C' TO GL-DEBIT-CRDT-IND-SY10
                   IF CNTRL-ACCT-IND-SY10 = 'N'
                       MOVE '0' TO OPAL-SIGN-SY10
                   ELSE
                       MOVE '+' TO OPAL-SIGN-SY10
                   END-IF
               ELSE
                   MOVE 'C' TO GL-DEBIT-CRDT-IND-SY10
                   IF CNTRL-ACCT-IND-SY10 = 'N'
                       MOVE '0' TO OPAL-SIGN-SY10
                   ELSE
                       MOVE '-' TO OPAL-SIGN-SY10
                   END-IF
               END-IF
           ELSE
               IF ACE-NRML-BAL-IND = 'C'
                   MOVE 'D' TO GL-DEBIT-CRDT-IND-SY10
                   IF CNTRL-ACCT-IND-SY10 = 'N'
                       MOVE '0' TO OPAL-SIGN-SY10
                   ELSE
                       MOVE '-' TO OPAL-SIGN-SY10
                   END-IF
               ELSE
                   MOVE 'D' TO GL-DEBIT-CRDT-IND-SY10
                   IF CNTRL-ACCT-IND-SY10 = 'N'
                       MOVE '0' TO OPAL-SIGN-SY10
                   ELSE
                       MOVE '+' TO OPAL-SIGN-SY10
                   END-IF
               END-IF
           END-IF.

       200-FSYIA10-151I022-EXIT.
           EXIT.
      /
       200-FSYIA10-151I031.
      *****************************************************************
      ** INTERPRETER ROUTINE USED TO DETERMINE OPAL SIGN AND G L SIGN
      ** FOR BUDGET-TYPE TRANSACTIONS BASED ON NORMAL BALANCE
      ** OF THE ACCOUNT TYPE.
      *****************************************************************

           MOVE '01' TO CNTRL-SEQ-NMBR-SY10.

           PERFORM 200-FSYIA10-154ACCT
              THRU 200-FSYIA10-154ACCT-EXIT.
           IF ERROR-IND-SY10 = 'Y'
               GO TO 200-FSYIA10-151I031-EXIT
           END-IF.

           IF DEBIT-CRDT-IND-SY10 = '-'
               IF ATE-NRML-BAL-IND = 'C'
                   MOVE 'D' TO GL-DEBIT-CRDT-IND-SY10
                   IF CNTRL-ACCT-IND-SY10 = 'N'
                       MOVE '0' TO OPAL-SIGN-SY10
                   ELSE
                       MOVE '-' TO OPAL-SIGN-SY10
                   END-IF
               ELSE
                   MOVE 'C' TO GL-DEBIT-CRDT-IND-SY10
                   IF CNTRL-ACCT-IND-SY10 = 'N'
                       MOVE '0' TO OPAL-SIGN-SY10
                   ELSE
                       MOVE '-' TO OPAL-SIGN-SY10
                   END-IF
               END-IF
           ELSE
               IF ATE-NRML-BAL-IND = 'C'
                   MOVE 'C' TO GL-DEBIT-CRDT-IND-SY10
                   IF CNTRL-ACCT-IND-SY10 = 'N'
                       MOVE '0' TO OPAL-SIGN-SY10
                   ELSE
                       MOVE '+' TO OPAL-SIGN-SY10
                   END-IF
               ELSE
                   MOVE 'D' TO GL-DEBIT-CRDT-IND-SY10
                   IF CNTRL-ACCT-IND-SY10 = 'N'
                       MOVE '0' TO OPAL-SIGN-SY10
                   ELSE
                       MOVE '+' TO OPAL-SIGN-SY10
                   END-IF
               END-IF
           END-IF.

       200-FSYIA10-151I031-EXIT.
           EXIT.
      /
       200-FSYIA10-151I032.
      ****************************************************************
      ** INTERPRETER ROUTINE USED TO DETERMINE OPAL SIGN AND G L SIGN
      ** FOR BUDGET-TYPE TRANSACTIONS BASED ON NORMAL BALANCE
      ** OF THE ACCOUNT.
      *****************************************************************

           MOVE '01' TO CNTRL-SEQ-NMBR-SY10.

           PERFORM 200-FSYIA10-154ACCT
              THRU 200-FSYIA10-154ACCT-EXIT.
           IF ERROR-IND-SY10 = 'Y'
               GO TO 200-FSYIA10-151I032-EXIT
           END-IF.

           IF DEBIT-CRDT-IND-SY10 = '-'
               IF ACE-NRML-BAL-IND = 'C'
                   MOVE 'D' TO GL-DEBIT-CRDT-IND-SY10
                   IF CNTRL-ACCT-IND-SY10 = 'N'
                       MOVE '0' TO OPAL-SIGN-SY10
                   ELSE
                       MOVE '-' TO OPAL-SIGN-SY10
                   END-IF
               ELSE
                   MOVE 'C' TO GL-DEBIT-CRDT-IND-SY10
                   IF CNTRL-ACCT-IND-SY10 = 'N'
                       MOVE '0' TO OPAL-SIGN-SY10
                   ELSE
                       MOVE '-' TO OPAL-SIGN-SY10
                   END-IF
               END-IF
           ELSE
               IF ACE-NRML-BAL-IND = 'C'
                   MOVE 'C' TO GL-DEBIT-CRDT-IND-SY10
                   IF CNTRL-ACCT-IND-SY10 = 'N'
                       MOVE '0' TO OPAL-SIGN-SY10
                   ELSE
                       MOVE '+' TO OPAL-SIGN-SY10
                   END-IF
               ELSE
                   MOVE 'D' TO GL-DEBIT-CRDT-IND-SY10
                   IF CNTRL-ACCT-IND-SY10 = 'N'
                       MOVE '0' TO OPAL-SIGN-SY10
                   ELSE
                       MOVE '+' TO OPAL-SIGN-SY10
                   END-IF
               END-IF
           END-IF.

       200-FSYIA10-151I032-EXIT.
           EXIT.
      /
       200-FSYIA10-151I040.
      *****************************************************************
      ** INTERPRETER ROUTINE USED TO DETERMINE OPAL SIGN AND G L SIGN
      ** FOR ENCUMBRANCE ADJUSTMENTS TO THE OPERATING AND GENERAL LEDGER
      ** IS BASED ON THE NORMAL BALANCE OF THE ACCOUNT.
      *****************************************************************

           MOVE '01' TO CNTRL-SEQ-NMBR-SY10.

           PERFORM 200-FSYIA10-154ACCT
              THRU 200-FSYIA10-154ACCT-EXIT.
           IF ERROR-IND-SY10 = 'Y'
               GO TO 200-FSYIA10-151I040-EXIT
           END-IF.

           IF CNTRL-ACCT-IND-SY10 = 'N'
               IF DEBIT-CRDT-IND-SY10 = '-'
                   IF ACE-NRML-BAL-IND = 'C'
                       MOVE 'D' TO GL-DEBIT-CRDT-IND-SY10
                       MOVE '0' TO OPAL-SIGN-SY10
                   ELSE
                       MOVE 'C' TO GL-DEBIT-CRDT-IND-SY10
                       MOVE '0' TO OPAL-SIGN-SY10
                   END-IF
               ELSE
                   IF ACE-NRML-BAL-IND = 'C'
                       MOVE 'C' TO GL-DEBIT-CRDT-IND-SY10
                       MOVE '0' TO OPAL-SIGN-SY10
                   ELSE
                       MOVE 'D' TO GL-DEBIT-CRDT-IND-SY10
                       MOVE '0' TO OPAL-SIGN-SY10
                   END-IF
               END-IF
           ELSE
               IF DEBIT-CRDT-IND-SY10 = '-'
                   IF ATE-NRML-BAL-IND = 'C'
                       MOVE 'D' TO GL-DEBIT-CRDT-IND-SY10
                       MOVE '-' TO OPAL-SIGN-SY10
                   ELSE
                       MOVE 'C' TO GL-DEBIT-CRDT-IND-SY10
                       MOVE '-' TO OPAL-SIGN-SY10
                   END-IF
               ELSE
                   IF ATE-NRML-BAL-IND = 'C'
                       MOVE 'C' TO GL-DEBIT-CRDT-IND-SY10
                       MOVE '+' TO OPAL-SIGN-SY10
                   ELSE
                       MOVE 'D' TO GL-DEBIT-CRDT-IND-SY10
                       MOVE '+' TO OPAL-SIGN-SY10
                   END-IF
               END-IF
           END-IF.

       200-FSYIA10-151I040-EXIT.
           EXIT.
      /
       200-FSYIA10-151I050.
      *****************************************************************
      ** INTERPRETER ROUTINE USED FOR CONTRA ACCOUNT TRANSACTIONS.
      ** THE OPAL SIGN IS DETERMINED BASED ON NORMAL BALANCE OF THE
      ** ACCOUNT.  THE G L SIGN IS DETERMINED BASED ON THE NORMAL
      ** BALANCE OF THE ACCOUNT TYPE.
      *****************************************************************

           MOVE '01' TO CNTRL-SEQ-NMBR-SY10.

           PERFORM 200-FSYIA10-154ACCT
              THRU 200-FSYIA10-154ACCT-EXIT.
           IF ERROR-IND-SY10 = 'Y'
               GO TO 200-FSYIA10-151I050-EXIT
           END-IF.

           IF CNTRL-ACCT-IND-SY10 = 'N'
               IF DEBIT-CRDT-IND-SY10 = '-'
                   IF ATE-NRML-BAL-IND = 'C'
                       MOVE 'D' TO GL-DEBIT-CRDT-IND-SY10
                       MOVE '0' TO OPAL-SIGN-SY10
                   ELSE
                       MOVE 'C' TO GL-DEBIT-CRDT-IND-SY10
                       MOVE '0' TO OPAL-SIGN-SY10
                   END-IF
               ELSE
                   IF ATE-NRML-BAL-IND = 'C'
                       MOVE 'C' TO GL-DEBIT-CRDT-IND-SY10
                       MOVE '0' TO OPAL-SIGN-SY10
                   ELSE
                       MOVE 'D' TO GL-DEBIT-CRDT-IND-SY10
                       MOVE '0' TO OPAL-SIGN-SY10
                   END-IF
               END-IF
           ELSE
               IF DEBIT-CRDT-IND-SY10 = '-'
                   IF ACE-NRML-BAL-IND = 'C'
                       MOVE 'D' TO GL-DEBIT-CRDT-IND-SY10
                       MOVE '-' TO OPAL-SIGN-SY10
                   ELSE
                       MOVE 'C' TO GL-DEBIT-CRDT-IND-SY10
                       MOVE '-' TO OPAL-SIGN-SY10
                   END-IF
               ELSE
                   IF ACE-NRML-BAL-IND = 'C'
                       MOVE 'C' TO GL-DEBIT-CRDT-IND-SY10
                       MOVE '+' TO OPAL-SIGN-SY10
                   ELSE
                       MOVE 'D' TO GL-DEBIT-CRDT-IND-SY10
                       MOVE '+' TO OPAL-SIGN-SY10
                   END-IF
               END-IF
           END-IF.

       200-FSYIA10-151I050-EXIT.
           EXIT.
      /
       200-FSYIA10-151I061.
      *****************************************************************
      ** INTERPRETER ROUTINE USED FOR TRADITIONAL (DR CR ON INPUT)
      ** TRANSACTIONS. (E.G. GENERAL JOURNAL ENTRIES)
      ** THE OPAL SIGN IS DETERMINED BASED ON NORMAL BALANCE OF THE
      ** ACCOUNT TYPE.
      *****************************************************************

           MOVE '01' TO CNTRL-SEQ-NMBR-SY10.

           PERFORM 200-FSYIA10-154ACCT
              THRU 200-FSYIA10-154ACCT-EXIT.
           IF ERROR-IND-SY10 = 'Y'
               GO TO 200-FSYIA10-151I061-EXIT
           END-IF.

           IF CNTRL-ACCT-IND-SY10 = 'N'
               MOVE '0' TO OPAL-SIGN-SY10
               IF DEBIT-CRDT-IND-SY10 = 'C'
                   MOVE 'C' TO GL-DEBIT-CRDT-IND-SY10
               ELSE
                   MOVE 'D' TO GL-DEBIT-CRDT-IND-SY10
               END-IF
           ELSE
               IF DEBIT-CRDT-IND-SY10 = 'C'
                   IF ATE-NRML-BAL-IND = 'C'
                       MOVE 'C' TO GL-DEBIT-CRDT-IND-SY10
                       MOVE '+' TO OPAL-SIGN-SY10
                   ELSE
                       MOVE 'C' TO GL-DEBIT-CRDT-IND-SY10
                       MOVE '-' TO OPAL-SIGN-SY10
                   END-IF
               ELSE
                   IF ATE-NRML-BAL-IND = 'C'
                       MOVE 'D' TO GL-DEBIT-CRDT-IND-SY10
                       MOVE '-' TO OPAL-SIGN-SY10
                   ELSE
                       MOVE 'D' TO GL-DEBIT-CRDT-IND-SY10
                       MOVE '+' TO OPAL-SIGN-SY10
                   END-IF
               END-IF
           END-IF.

       200-FSYIA10-151I061-EXIT.
           EXIT.
      /
       200-FSYIA10-151I062.
      *****************************************************************
      ** INTERPRETER ROUTINE USED FOR TRADITIONAL (DR CR ON INPUT)
      ** TRANSACTIONS.  (E.G. GENERAL JOURNAL ENTRIES)
      ** THE OPAL SIGN IS DETERMINED BASED ON NORMAL BALANCE OF THE
      ** ACCOUNT.
      *****************************************************************

           MOVE '01' TO CNTRL-SEQ-NMBR-SY10.

           PERFORM 200-FSYIA10-154ACCT
              THRU 200-FSYIA10-154ACCT-EXIT.
           IF ERROR-IND-SY10 = 'Y'
               GO TO 200-FSYIA10-151I062-EXIT
           END-IF.

           IF CNTRL-ACCT-IND-SY10 = 'N'
               MOVE '0' TO OPAL-SIGN-SY10
               IF DEBIT-CRDT-IND-SY10 = 'C'
                   MOVE 'C' TO GL-DEBIT-CRDT-IND-SY10
               ELSE
                   MOVE 'D' TO GL-DEBIT-CRDT-IND-SY10
               END-IF
           ELSE
               IF DEBIT-CRDT-IND-SY10 = 'C'
                   IF ACE-NRML-BAL-IND = 'C'
                       MOVE 'C' TO GL-DEBIT-CRDT-IND-SY10
                       MOVE '+' TO OPAL-SIGN-SY10
                   ELSE
                       MOVE 'C' TO GL-DEBIT-CRDT-IND-SY10
                       MOVE '-' TO OPAL-SIGN-SY10
                   END-IF
               ELSE
                   IF ACE-NRML-BAL-IND = 'C'
                       MOVE 'D' TO GL-DEBIT-CRDT-IND-SY10
                       MOVE '-' TO OPAL-SIGN-SY10
                   ELSE
                       MOVE 'D' TO GL-DEBIT-CRDT-IND-SY10
                       MOVE '+' TO OPAL-SIGN-SY10
                   END-IF
               END-IF
           END-IF.

       200-FSYIA10-151I062-EXIT.
           EXIT.
      /
       200-FSYIA10-153O011.
      *****************************************************************
      ** THE TEMPORARY BUDGET AMOUNT IN THE OPERATING LEDGER WILL BE
      ** AFFECTED BASED ON THE POSTING ACTION IN R4182-RULE-ACTN AND
      ** THE DEBIT-CREDIT-IND. CONTROL WILL THEN PASS TO O010.
      *****************************************************************

           IF OPAL-SIGN-SY10 = '0'
               GO TO 200-FSYIA10-153O011-EXIT
           END-IF.
           IF OPAL-SIGN-SY10 = '-'
               MOVE '-' TO DEBIT-CRDT-IND-SY10
           ELSE
               MOVE '+' TO DEBIT-CRDT-IND-SY10
           END-IF.

           IF RLA-PSTNG-ACTN-IND = 'N'
               CONTINUE
           ELSE
               IF DEBIT-CRDT-IND-SY10 = '-'
                   MOVE '+' TO DEBIT-CRDT-IND-SY10
               ELSE
                   MOVE '-' TO DEBIT-CRDT-IND-SY10
               END-IF
           END-IF.

           PERFORM 200-FSYIA10-153O010
              THRU 200-FSYIA10-153O010-EXIT.

       200-FSYIA10-153O011-EXIT.
           EXIT.
      /
       200-FSYIA10-153O015.
      *****************************************************************
      ** CY-PY-BDGT-CNTRL-IND-SY10 IS SET TO 'P' AND CONTROL IS PASSED
      ** TO 153O010. SETTING THIS INDICATOR WILL CAUSE PRIOR
      ** YEAR CONTROL ACCOUNTS TO BE POSTED.
      *****************************************************************

           IF OPAL-SIGN-SY10 = '0'
               GO TO 200-FSYIA10-153O015-EXIT
           END-IF.
           MOVE 'P' TO CY-PY-BDGT-CNTRL-IND-SY10.

           PERFORM 200-FSYIA10-153O010
              THRU 200-FSYIA10-153O010-EXIT.

       200-FSYIA10-153O015-EXIT.
           EXIT.
      /
       200-FSYIA10-153O010.
      *****************************************************************
      ** THE ADOPTED BUDGET AMOUNT AND THE ACCOUNTED BUDGET AMOUNT IN
      ** THE OPERATING LEDGER WILL BE AFFECTED BASE ON THE POSTING
      ** ACTION IN R4182-RULE-ACTN AND THE DEBIT-CREDIT-IND. IT WILL
      ** ALSO AFFECT THE APPROPRIATE CONTROL ACCOUNT AND OFFSET
      ** CONTROL ACCOUNTIN THE GENERAL LEDGER BASED ON ACCOUNT TYPE,
      ** POSTING ACTION, AND DEBIT-CRDT-IND-SY10.
      *****************************************************************

           IF OPAL-SIGN-SY10 = '0'
               GO TO 200-FSYIA10-153O010-EXIT
           END-IF.
           IF OPAL-SIGN-SY10 = '-'
               MOVE '-' TO DEBIT-CRDT-IND-SY10
           ELSE
               MOVE '+' TO DEBIT-CRDT-IND-SY10
           END-IF.

           IF RLA-PSTNG-ACTN-IND = 'N'
               CONTINUE
           ELSE
               IF DEBIT-CRDT-IND-SY10 = '-'
                   MOVE '+' TO DEBIT-CRDT-IND-SY10
               ELSE
                   MOVE '-' TO DEBIT-CRDT-IND-SY10
               END-IF
           END-IF.

           MOVE '01' TO CNTRL-SEQ-NMBR-SY10.

           PERFORM 200-FSYIA10-154ACCT
              THRU 200-FSYIA10-154ACCT-EXIT.
           IF ERROR-IND-SY10 = 'Y'
               GO TO 200-FSYIA10-153O010-EXIT
           END-IF.

           IF CY-PY-BDGT-CNTRL-IND-SY10 = SPACES
               MOVE CAE-CNTL-ACCT-CD     TO CNTRL-ACCT-CODE-SY10
           ELSE
               MOVE CAE-PRI-YR-CNTL-ACCT TO CNTRL-ACCT-CODE-SY10
           END-IF.
           PERFORM 200-FSYIA10-155CRDT
              THRU 200-FSYIA10-155CRDT-EXIT.

           IF RLA-PSTNG-ACTN-IND = 'N'
               CONTINUE
           ELSE
               PERFORM 200-FSYIA10-156DBCR
                  THRU 200-FSYIA10-156DBCR-EXIT
           END-IF.

           PERFORM 200-FSYIA10-156DBCR
              THRU 200-FSYIA10-156DBCR-EXIT.

       200-FSYIA10-153O010-EXIT.
           EXIT.
      /
       200-FSYIA10-153O021.
      *****************************************************************
      ** THE TEMPORARY BUDGET AMOUNT IN THE OPRATING LEDGER WILL BE
      ** AFFECTED BASED ON THE POSTING ACTION IN R4182-RULE-ACTN AND
      ** THE DEBIT-CRDT-IND-SY10. CONTROL WILL THEN BE PASSED TO
      ** 153O020.
      *****************************************************************

           IF OPAL-SIGN-SY10 = '0'
               GO TO 200-FSYIA10-153O021-EXIT
           END-IF.
           IF OPAL-SIGN-SY10 = '-'
               MOVE '-' TO DEBIT-CRDT-IND-SY10
           ELSE
               MOVE '+' TO DEBIT-CRDT-IND-SY10
           END-IF.

           IF RLA-PSTNG-ACTN-IND = 'N'
               CONTINUE
           ELSE
               IF DEBIT-CRDT-IND-SY10 = '-'
                   MOVE '+' TO DEBIT-CRDT-IND-SY10
               ELSE
                   MOVE '-' TO DEBIT-CRDT-IND-SY10
               END-IF
           END-IF.

           PERFORM 200-FSYIA10-153O020
              THRU 200-FSYIA10-153O020-EXIT.

       200-FSYIA10-153O021-EXIT.
           EXIT.
      /
       200-FSYIA10-153O025.
      *****************************************************************
      ** CY-PY-BDGT-CNTRL-IND-SY10 IS SET TO 'P' AND CONTROL IS PASSED
      ** TO 153O020. SETTING THIS INDICATOR WILL CAUSE PRIOR
      ** YEAR CONTROL ACCOUNTS TO BE POSTED.
      *****************************************************************

           IF OPAL-SIGN-SY10 = '0'
               GO TO 200-FSYIA10-153O025-EXIT
           END-IF.
           MOVE 'P' TO CY-PY-BDGT-CNTRL-IND-SY10.

           PERFORM 200-FSYIA10-153O020
              THRU 200-FSYIA10-153O020-EXIT.

       200-FSYIA10-153O025-EXIT.
           EXIT.
      /
       200-FSYIA10-153O020.
      *****************************************************************
      ** THE BUDGET ADJUSTMENT AMOUNT AND THE ACCOUNTED BUDGET
      ** AMOUNT IN THE OPERATING LEDGER WILL BE AFFECTED BASED
      ** ON THE POSTING ACTION IN R4182-RULE-ACTN AND THE
      ** DEBIT-CRDT-IND. IT WILL ALSO AFFECT THE APPROPRIATE CONTROL
      ** ACCOUNT AND OFFSET CONTROL ACCOUNT IN THE GENERAL LEDGER
      ** BASED ON ACCOUNT TYPE, POSTING ACTION, AND DEBIT-CRDT-IND-SY10.
      ****************************************************************

           IF OPAL-SIGN-SY10 = '0'
               GO TO 200-FSYIA10-153O020-EXIT
           END-IF.
           IF OPAL-SIGN-SY10 = '-'
               MOVE '-' TO DEBIT-CRDT-IND-SY10
           ELSE
               MOVE '+' TO DEBIT-CRDT-IND-SY10
           END-IF.

           IF RLA-PSTNG-ACTN-IND = 'N'
               CONTINUE
           ELSE
               IF DEBIT-CRDT-IND-SY10 = '-'
                   MOVE '+' TO DEBIT-CRDT-IND-SY10
               ELSE
                   MOVE '-' TO DEBIT-CRDT-IND-SY10
               END-IF
           END-IF.

           MOVE '02' TO CNTRL-SEQ-NMBR-SY10.

           PERFORM 200-FSYIA10-154ACCT
              THRU 200-FSYIA10-154ACCT-EXIT.
           IF ERROR-IND-SY10 = 'Y'
               GO TO 200-FSYIA10-153O020-EXIT
           END-IF.

           IF CY-PY-BDGT-CNTRL-IND-SY10 = SPACES
               MOVE CAE-CNTL-ACCT-CD     TO CNTRL-ACCT-CODE-SY10
           ELSE
               MOVE CAE-PRI-YR-CNTL-ACCT TO CNTRL-ACCT-CODE-SY10
           END-IF.
           PERFORM 200-FSYIA10-155CRDT
              THRU 200-FSYIA10-155CRDT-EXIT.

           IF RLA-PSTNG-ACTN-IND = 'N'
               CONTINUE
           ELSE
               PERFORM 200-FSYIA10-156DBCR
                  THRU 200-FSYIA10-156DBCR-EXIT
           END-IF.

           PERFORM 200-FSYIA10-156DBCR
              THRU 200-FSYIA10-156DBCR-EXIT.

       200-FSYIA10-153O020-EXIT.
           EXIT.
      /
       200-FSYIA10-153O030.
      *****************************************************************
      ** THE YTD ACTIVITY AMOUNT IN THE OPERATING LEDGER WILL BE
      ** AFFECTED BASED ON THE POSTING ACTION IN R4182-RULE-ACTN
      ** AND THE DEBIT-CREDIT-IND-SY10. IT WILL ALSO AFFECT THE
      ** APPROPRIATE CONTROL ACCOUNT AND OFFSET CONTROL ACCOUNT
      ** IN THE GENERAL LEDGER BASED ON ACCOUNT TYPE, POSTING ACTION,
      ** AND DEBIT-CRDT-IND-SY10.
      *****************************************************************

           IF OPAL-SIGN-SY10 = '0'
               GO TO 200-FSYIA10-153O030-EXIT
           END-IF.
           IF OPAL-SIGN-SY10 = '-'
               MOVE '-' TO DEBIT-CRDT-IND-SY10
           ELSE
               MOVE '+' TO DEBIT-CRDT-IND-SY10
           END-IF.

           IF RLA-PSTNG-ACTN-IND = 'N'
               CONTINUE
           ELSE
               IF DEBIT-CRDT-IND-SY10 = '-'
                   MOVE '+' TO DEBIT-CRDT-IND-SY10
               ELSE
                   MOVE '-' TO DEBIT-CRDT-IND-SY10
               END-IF
           END-IF.

           MOVE '03' TO CNTRL-SEQ-NMBR-SY10.

           PERFORM 200-FSYIA10-154ACCT
              THRU 200-FSYIA10-154ACCT-EXIT.
           IF ERROR-IND-SY10 = 'Y'
               GO TO 200-FSYIA10-153O030-EXIT
           END-IF.

           PERFORM 200-FSYIA10-157CYPY
              THRU 200-FSYIA10-157CYPY-EXIT.
           IF ERROR-IND-SY10 = 'Y'
               GO TO 200-FSYIA10-153O030-EXIT
           END-IF.

           IF CY-PY-CNTRL-IND-SY10 = 'C'
               MOVE CAE-CNTL-ACCT-CD     TO CNTRL-ACCT-CODE-SY10
           ELSE
               MOVE CAE-PRI-YR-CNTL-ACCT TO CNTRL-ACCT-CODE-SY10
           END-IF.
           PERFORM 200-FSYIA10-155CRDT
              THRU 200-FSYIA10-155CRDT-EXIT.

           IF RLA-PSTNG-ACTN-IND = 'N'
               CONTINUE
           ELSE
               PERFORM 200-FSYIA10-156DBCR
                  THRU 200-FSYIA10-156DBCR-EXIT
           END-IF.

       200-FSYIA10-153O030-EXIT.
           EXIT.
      /
       200-FSYIA10-153O040.
      *****************************************************************
      ** THIS WILL AFFECT THE ENCUMBRANCE BALANCE IN THE OPERATING
      ** ACCOUNT LEDGER. THE APPROPRIATE CONTROL ACCOUNT AND OFFSET
      ** CONTROL ACCOUNT IN THE GENERAL LEDGER BASED ON ACCOUNT TYPE,
      ** POSTING ACTION, AND DEBIT-CRDT-IND-SY10 WILL ALSO BE AFFECTED.
      *****************************************************************

           IF OPAL-SIGN-SY10 = '0'
               GO TO 200-FSYIA10-153O040-EXIT
           END-IF.

           MOVE '04' TO ENCM-FIELD-CODE-SY10.
           MOVE 'N' TO ENCM-NRML-SIGN-SY10.

           PERFORM 200-FSYIA10-158ATYP
              THRU 200-FSYIA10-158ATYP-EXIT.

           IF ERROR-IND-SY10 = 'Y'
               GO TO 200-FSYIA10-153O040-EXIT
           END-IF.

           IF CNTRL-ACCT-IND-SY10 = 'N'
               GO TO 200-FSYIA10-153O040-EXIT
           END-IF.

           PERFORM 200-FSYIA10-159SET
              THRU 200-FSYIA10-159SET-EXIT.

       200-FSYIA10-153O040-EXIT.
           EXIT.
      /
      *%---------------------------------------------------------------*
      *%                                                               *
      *%                   200-FSYIA10-158ATYP ROUTINE                 *
      *%                                                               *
      *%---------------------------------------------------------------*
       200-FSYIA10-158ATYP.
      *****************************************************************
      ** GET THE CONTROL ACCOUNT TO BE USED FOR UPDATING THE GENERAL
      ** LEDGER.
      *****************************************************************

           MOVE ENCM-FIELD-CODE-SY10 TO CNTRL-SEQ-NMBR-SY10.
           MOVE 'N'                  TO CNTRL-ACCT-IND-SY10.

           PERFORM 200-FSYIA10-154ACCT
              THRU 200-FSYIA10-154ACCT-EXIT.

       200-FSYIA10-158ATYP-EXIT.
           EXIT.
      /
      *%---------------------------------------------------------------*
      *%                                                               *
      *%                   200-FSYIA10-154ACCT ROUTINE                 *
      *%                                                               *
      *%---------------------------------------------------------------*
       200-FSYIA10-154ACCT.
      *****************************************************************
      ** DETERMINE THE LEVEL 1 ACCOUNT TYPE OF THE POSTING ACCOUNT.
      ** I.E. VALIDATE THAT THE POSTING ACCOUNT IS VALID, IN EFFECT,
      ** AND ACTIVE.  DETERMINE THE ACCOUNT TYPE OF THE POSTING ACCOUNT
      ** AND VALIDATE THAT THE ACCOUNT TYPE IS VALID, IN EFFECT, AND
      ** ACTIVE.  GET THE PREDECESSOR ACCOUNT TYPE AND VALIDATE THAT
      ** IT IS VALID, IN EFFECT, AND ACTIVE.
      *****************************************************************

           MOVE 0049              TO DBLINK-CURR-IO-NUM.
DEVHV1     MOVE ACCT-CODE-SY10    TO ACE-FK1-ACC-ACCT-CD.
DEVHV1     MOVE WS-DB2-TRANS-DATE TO ACE-START-DT.
           PERFORM 200-FSYIA10-SELECT-ACE-MAX
              THRU 200-FSYIA10-SELECT-ACE-EXIT.
           PERFORM 999-SQL-STATUS
              THRU 999-SQL-STATUS-EXIT.
           IF DB-REC-NOT-FOUND
           OR WS-DB2-TRANS-DATE > ACE-END-DT
               MOVE 000088 TO MSG-ID-SY00
               MOVE 'Y' TO ERROR-IND-SY10
               GO TO 200-FSYIA10-154ACCT-EXIT
           END-IF.

           MOVE 0052              TO DBLINK-CURR-IO-NUM.
DEVHV1     MOVE ACE-FK2-ACT-ACCT-TYP-C
DEVHV2                            TO ACT-ACCT-TYP-CD.
DEVHV1     MOVE WS-DB2-TRANS-DATE TO ATE-START-DT.
           PERFORM 200-FSYIA10-SELECT-ATE-MAX
              THRU 200-FSYIA10-SELECT-ATE-EXIT.
           PERFORM 999-SQL-STATUS
              THRU 999-SQL-STATUS-EXIT.
           IF DB-REC-NOT-FOUND
           OR WS-DB2-TRANS-DATE > ATE-END-DT
               MOVE 000214 TO MSG-ID-SY00
               MOVE 'Y' TO ERROR-IND-SY10
               GO TO 200-FSYIA10-154ACCT-EXIT
           END-IF.

           MOVE 0055              TO DBLINK-CURR-IO-NUM.
DEVHV1     MOVE ATE-FK1-ACT-ACCT-TYP
DEVHV2                            TO ACT-ACCT-TYP-CD.
DEVHV1     MOVE WS-DB2-TRANS-DATE TO ATE-START-DT.
           PERFORM 200-FSYIA10-SELECT-ATE-MAX
              THRU 200-FSYIA10-SELECT-ATE-EXIT.
           PERFORM 999-SQL-STATUS
              THRU 999-SQL-STATUS-EXIT.
           IF DB-REC-NOT-FOUND
           OR WS-DB2-TRANS-DATE > ATE-END-DT
               MOVE 000214 TO MSG-ID-SY00
               MOVE 'Y' TO ERROR-IND-SY10
               GO TO 200-FSYIA10-154ACCT-EXIT
           END-IF.

      *****************************************************************
      ** BASED ON THE LEVEL 1 ACCOUNT TYPE AND THE CONTROL SEQUENCE
      ** NUMBER, GET THE CONTROL ACCOUNT.  VALIDATE THAT THE CONTROL
      ** ACCOUNT IS VALID, IN EFFECT, AND ACTIVE.
      **
      ** CONTROL SEQUENCE NUMBER = 01 ==> ADOPTED BUDGET
      **                           02 ==> BUDGET ADJUSTMENT
      **                           03 ==> PERIOD ACTIVITY
      **                           04 ==> ENCUMBRANCES
      **                           05 ==> BUDGET RESERVATION
      **                           06 ==> ACCOUNTED BUDGET
      **                           07 ==> TEMPORARY BUDGET
      **
      ** CONTROL ACCOUNTS ARE USED WHEN POSTING TO THE GENERAL
      ** LEDGER.
      *****************************************************************

           MOVE 0046              TO DBLINK-CURR-IO-NUM.
DEVHV1     MOVE ACT-ACCT-TYP-CD   TO CAE-FK-CTA-ACCT-TYP-CD.
DEVHV1     MOVE CNTRL-SEQ-NMBR-SY10
DEVHV1                            TO CAE-FK-CTA-CTL-ACCTTYP.
DEVHV1     MOVE WS-DB2-TRANS-DATE TO CAE-START-DT.
           PERFORM 200-FSYIA10-SELECT-CAE-MAX
              THRU 200-FSYIA10-SELECT-CAE-EXIT.
           PERFORM 999-SQL-STATUS
              THRU 999-SQL-STATUS-EXIT.
           IF DB-REC-NOT-FOUND
           OR WS-DB2-TRANS-DATE > CAE-END-DT
               MOVE 'N' TO CNTRL-ACCT-IND-SY10
           ELSE
               MOVE 'Y' TO CNTRL-ACCT-IND-SY10
           END-IF.

       200-FSYIA10-154ACCT-EXIT.
           EXIT.
      /
       200-FSYIA10-155CRDT.
      *****************************************************************
      ** DETERMINE POSTING TO GENERAL LEDGER BASED ON VALUE OF
      ** GL-DEBIT-CRDT-IND-SY10 FROM INTERPRETER PROCESS.
      *****************************************************************

           IF GL-DEBIT-CRDT-IND-SY10 = 'C'
               MOVE 'C' TO DEBIT-CRDT-IND-SY10
           ELSE
               MOVE 'D' TO DEBIT-CRDT-IND-SY10
           END-IF.

       200-FSYIA10-155CRDT-EXIT.
           EXIT.
      /
       200-FSYIA10-156DBCR.
      *****************************************************************
      ** REVERSE POSTING TO GENERAL LEDGER BASED ON VALUE OF
      ** GL-DEBIT-CRDT-IND-SY10 FROM INTERPRETER PROCESS.
      *****************************************************************

           IF DEBIT-CRDT-IND-SY10 = 'C'
               MOVE 'D' TO DEBIT-CRDT-IND-SY10
           ELSE
               MOVE 'C' TO DEBIT-CRDT-IND-SY10
           END-IF.

       200-FSYIA10-156DBCR-EXIT.
           EXIT.
      /
       200-FSYIA10-157CYPY.
      *****************************************************************
      ** CHECK WHETHER TO POST TO CURRENT OR PRIOR YEAR CONTROL ACCOUNT.
      ** GET THE FIELD INDICATOR FROM THE ENCUMBRANCE TO DETERMINE
      ** WHICH BUCKET TO POST TO IN THE OPERATING ACCOUNT LEDGER.
      *****************************************************************

           IF CY-PY-CNTRL-IND-SY10 = SPACES
               CONTINUE
           ELSE
               GO TO 200-FSYIA10-157CYPY-EXIT
           END-IF.

           IF CAE-PRI-YR-CNTL-ACCT = SPACES
               MOVE 'C' TO CY-PY-CNTRL-IND-SY10
               GO TO 200-FSYIA10-157CYPY-EXIT
           END-IF.

           IF ENCMBRNC-NMBR-SY10 = SPACES
               MOVE 'C' TO CY-PY-CNTRL-IND-SY10
               GO TO 200-FSYIA10-157CYPY-EXIT
           END-IF.

       200-FSYIA10-157CYPY-EXIT.
           EXIT.
      /
       200-FSYIA10-159SET.
      *****************************************************************
      ** THE FOLLOWING PARAGRAPH WILL SET THE SIGN ON THE TRANSACTION
      ** AMOUNT BASED ON THE SIGN FROM THE INTERPRETER ROUTINE AND THE
      ** POSTING ACTION.  IT ALSO ADJUSTS THE TRANSACTION AMOUNT TO
      ** INSURE THAT THE BALANCE OF AN ENCUMBRANCE IS NEVER NEGATIVE.
      ** THIS PARAGRAPH SETS THE AMOUNT AND SIGN FOR OPAL ENCUMBRANCE
      ** ADJUECTMENT POSTINGS.
      *****************************************************************

           IF (ENCM-NRML-SIGN-SY10 = 'R'
           AND RLA-PSTNG-ACTN-IND  = 'N')
           OR (ENCM-NRML-SIGN-SY10 = 'N'
           AND RLA-PSTNG-ACTN-IND  = 'R')
               PERFORM 200-FSYIA10-159REV
                  THRU 200-FSYIA10-159REV-EXIT
           END-IF.

       200-FSYIA10-159SET-EXIT.
           EXIT.
      /
       200-FSYIA10-159REV.
      *****************************************************************
      ** SET OPAL SIGN TO REVERSE OF WHAT WAS DETERMINED BY THE
      ** INTERPRETER ROUTINE.
      ** ALSO, REVERSE POSTING TO GENERAL LEDGER BASED ON VALUE
      ** DETERMINED BY THE INTERPRETER ROUTINE.
      *****************************************************************

           IF OPAL-SIGN-SY10 = '+'
               MOVE '-' TO OPAL-SIGN-SY10
           ELSE
               MOVE '+' TO OPAL-SIGN-SY10
           END-IF.

           IF GL-DEBIT-CRDT-IND-SY10 = 'D'
               MOVE 'C' TO GL-DEBIT-CRDT-IND-SY10
           ELSE
               MOVE 'D' TO GL-DEBIT-CRDT-IND-SY10
           END-IF.

       200-FSYIA10-159REV-EXIT.
           EXIT.
      /
       200-FSYIA10-COUNT-RLC.
           MOVE '200-FSYIA10-COUNT-RLC' TO DBLINK-CURR-PARAGRAPH.
           MOVE 'RLC_RULE_CLASS_V'      TO ERROR-RECORD.
           MOVE ZERO                    TO ERROR-STATUS.
           EXEC SQL
               SELECT
                  COUNT(*)
               INTO
                  :WS-SQLCOUNT
               FROM RLC_RULE_CLASS_V
               WHERE RULE_CLS_CD = :RLC-RULE-CLS-CD
           END-EXEC.

           IF SQLCODE NOT = 0
               MOVE DBLINK-DB2-ERROR TO ERROR-STATUS
               GO TO 200-FSYIA10-COUNT-RLC-EXIT
           END-IF.

       200-FSYIA10-COUNT-RLC-EXIT.
           EXIT.
      /
       200-FSYIA10-SELECT-RLE-MAX.
           MOVE '200-FSYIA10-SELECT-RLE-MAX' TO DBLINK-CURR-PARAGRAPH.
           MOVE 'RLE_RULE_EFCTV_V'           TO ERROR-RECORD.
           MOVE ZERO                         TO ERROR-STATUS.
           EXEC SQL
               SELECT
                  START_DT
                 ,TIME_STMP
                 ,CHAR(END_DT,ISO)
               INTO
                  :RLE-START-DT
                 ,:RLE-TIME-STMP
                 ,:RLE-END-DT
DEVHV1         FROM RLE_RULE_EFCTV_V S
DEVHV1        WHERE S.FK_RLC_RULE_CLS_CD = :RLE-FK-RLC-RULE-CLS-CD
DEVHV1          AND S.START_DT =
DEVHV1           (SELECT MAX(S1.START_DT)
DEVHV1              FROM RLE_RULE_EFCTV_V S1
DEVHV1             WHERE S1.FK_RLC_RULE_CLS_CD = :RLE-FK-RLC-RULE-CLS-CD
DEVHV1               AND S1.START_DT          <= :RLE-START-DT)
DEVHV1          AND S.TIME_STMP =
DEVHV1           (SELECT MAX(S2.TIME_STMP)
DEVHV1              FROM RLE_RULE_EFCTV_V S2
DEVHV1             WHERE S2.FK_RLC_RULE_CLS_CD = S.FK_RLC_RULE_CLS_CD
DEVHV1               AND S2.START_DT           = S.START_DT)
           END-EXEC.

           IF SQLCODE = +100
               MOVE DBLINK-NOT-FOUND TO ERROR-STATUS
               GO TO 200-FSYIA10-SELECT-RLE-EXIT
           END-IF.
           IF SQLCODE NOT = 0
               MOVE DBLINK-DB2-ERROR TO ERROR-STATUS
               GO TO 200-FSYIA10-SELECT-RLE-EXIT
           END-IF.

       200-FSYIA10-SELECT-RLE-EXIT.
           EXIT.
      /
       200-FSYIA10-SELECT-RLA-FIRST.
           MOVE '200-FSYIA10-SELECT-RLA-FIRST' TO DBLINK-CURR-PARAGRAPH.
           MOVE 'RLA_RULE_ACTN_V'              TO ERROR-RECORD.
           MOVE ZERO                           TO ERROR-STATUS.
           EXEC SQL
               SELECT
                  PRCS_CD
                 ,PSTNG_ACTN_IND
               INTO
                  :RLA-PRCS-CD
                 ,:RLA-PSTNG-ACTN-IND
DEVHV1         FROM RLA_RULE_ACTN_V S
DEVHV1         WHERE S.FK_RLE_RULE_CLS_CD = :RLA-FK-RLE-RULE-CLS-CD
DEVHV1           AND S.FK_RLE_START_DT    = :RLA-FK-RLE-START-DT
DEVHV1           AND S.FK_RLE_TIME_STMP   = :RLA-FK-RLE-TIME-STMP
DEVHV1           AND S.SEQ_NBR            =
DEVHV1           (SELECT MIN(S1.SEQ_NBR)
DEVHV1              FROM RLA_RULE_ACTN_V S1
DEVHV1             WHERE S1.FK_RLE_RULE_CLS_CD = :RLA-FK-RLE-RULE-CLS-CD
DEVHV1               AND S1.FK_RLE_START_DT    = :RLA-FK-RLE-START-DT
DEVHV1               AND S1.FK_RLE_TIME_STMP   = :RLA-FK-RLE-TIME-STMP)
           END-EXEC.

           IF SQLCODE = +100
               MOVE DBLINK-NOT-FOUND TO ERROR-STATUS
               GO TO 200-FSYIA10-SELECT-RLA-F-EXIT
           END-IF.
           IF SQLCODE NOT = 0
               MOVE DBLINK-DB2-ERROR TO ERROR-STATUS
               GO TO 200-FSYIA10-SELECT-RLA-F-EXIT
           END-IF.

       200-FSYIA10-SELECT-RLA-F-EXIT.
           EXIT.
      /
       200-FSYIA10-SELECT-RLA-NEXT-O.
           MOVE '200-FSYIA10-SELECT-RLA-NEXT-O'
                                               TO DBLINK-CURR-PARAGRAPH.
           MOVE 'RLA_RULE_ACTN_V'              TO ERROR-RECORD.
           MOVE ZERO                           TO ERROR-STATUS.
           EXEC SQL
               SELECT
                  PRCS_CD
                 ,PSTNG_ACTN_IND
               INTO
                  :RLA-PRCS-CD
                 ,:RLA-PSTNG-ACTN-IND
DEVHV1         FROM RLA_RULE_ACTN_V S
DEVHV1         WHERE S.FK_RLE_RULE_CLS_CD = :RLA-FK-RLE-RULE-CLS-CD
DEVHV1           AND S.FK_RLE_START_DT    = :RLA-FK-RLE-START-DT
DEVHV1           AND S.FK_RLE_TIME_STMP   = :RLA-FK-RLE-TIME-STMP
DEVHV1           AND S.PRCS_CD         LIKE 'O%'
DEVHV1           AND S.SEQ_NBR            =
DEVHV1           (SELECT MIN(S1.SEQ_NBR)
DEVHV1              FROM RLA_RULE_ACTN_V S1
DEVHV1             WHERE S1.FK_RLE_RULE_CLS_CD = :RLA-FK-RLE-RULE-CLS-CD
DEVHV1               AND S1.FK_RLE_START_DT    = :RLA-FK-RLE-START-DT
DEVHV1               AND S1.FK_RLE_TIME_STMP   = :RLA-FK-RLE-TIME-STMP
DEVHV1               AND S1.PRCS_CD         LIKE 'O%')
           END-EXEC.

           IF SQLCODE = +100
               MOVE DBLINK-NOT-FOUND TO ERROR-STATUS
               GO TO 200-FSYIA10-SELECT-RLA-N-EXIT
           END-IF.
           IF SQLCODE NOT = 0
               MOVE DBLINK-DB2-ERROR TO ERROR-STATUS
               GO TO 200-FSYIA10-SELECT-RLA-N-EXIT
           END-IF.

       200-FSYIA10-SELECT-RLA-N-EXIT.
           EXIT.
      /
       200-FSYIA10-SELECT-ACE-MAX.
           MOVE '200-FSYIA10-SELECT-ACE-MAX' TO DBLINK-CURR-PARAGRAPH.
           MOVE 'ACE_ACCT_EFCTV_V'           TO ERROR-RECORD.
           MOVE ZERO                         TO ERROR-STATUS.
           EXEC SQL
               SELECT
                  CHAR(S.END_DT,ISO)
                 ,S.FK2_ACT_ACCT_TYP_C
                 ,S.NRML_BAL_IND
               INTO
                  :ACE-END-DT
                 ,:ACE-FK2-ACT-ACCT-TYP-C
                 ,:ACE-NRML-BAL-IND
DEVHV1         FROM ACE_ACCT_EFCTV_V S
DEVHV1             ,ACC_ACCT_V       A
DEVHV1        WHERE S.FK1_ACC_ACCT_CD =  A.ACCT_CD
DEVHV1          AND S.FK1_ACC_ACCT_CD = :ACE-FK1-ACC-ACCT-CD
DEVHV1          AND S.START_DT =
DEVHV1            (SELECT MAX(S1.START_DT)
DEVHV1               FROM ACE_ACCT_EFCTV_V S1
DEVHV1              WHERE S1.FK1_ACC_ACCT_CD = :ACE-FK1-ACC-ACCT-CD
DEVHV1                AND S1.START_DT       <= :ACE-START-DT)
DEVHV1          AND S.TIME_STMP =
DEVHV1            (SELECT MAX(S2.TIME_STMP)
DEVHV1               FROM ACE_ACCT_EFCTV_V S2
DEVHV1              WHERE S2.FK1_ACC_ACCT_CD = S.FK1_ACC_ACCT_CD
DEVHV1                AND S2.START_DT        = S.START_DT)
           END-EXEC.

           IF SQLCODE = +100
               MOVE DBLINK-NOT-FOUND TO ERROR-STATUS
               GO TO 200-FSYIA10-SELECT-ACE-EXIT
           END-IF.
           IF SQLCODE NOT = 0
               MOVE DBLINK-DB2-ERROR TO ERROR-STATUS
               GO TO 200-FSYIA10-SELECT-ACE-EXIT
           END-IF.

       200-FSYIA10-SELECT-ACE-EXIT.
           EXIT.
      /
       200-FSYIA10-SELECT-ATE-MAX.
           MOVE '200-FSYIA10-SELECT-ATE-MAX' TO DBLINK-CURR-PARAGRAPH.
           MOVE 'ATE_ACTT_EFCTV_V'           TO ERROR-RECORD.
           MOVE ZERO                         TO ERROR-STATUS.
           EXEC SQL
               SELECT
                  CHAR(S.END_DT,ISO)
                 ,S.NRML_BAL_IND
                 ,S.FK1_ACT_ACCT_TYP
               INTO
                  :ATE-END-DT
                 ,:ATE-NRML-BAL-IND
                 ,:ATE-FK1-ACT-ACCT-TYP
DEVHV1         FROM ATE_ACTT_EFCTV_V S
DEVHV1             ,ACT_ACTT_V       A
DEVHV2        WHERE A.ACCT_TYP_CD      = :ACT-ACCT-TYP-CD
DEVHV2          AND S.FK2_ACT_ACCT_TYP =  A.ACCT_TYP_CD
DEVHV1          AND S.START_DT =
DEVHV1           (SELECT MAX(S1.START_DT)
DEVHV1              FROM ATE_ACTT_EFCTV_V S1
DEVHV2             WHERE S1.FK2_ACT_ACCT_TYP = :ACT-ACCT-TYP-CD
DEVHV1               AND S1.START_DT        <= :ATE-START-DT)
DEVHV1          AND S.TIME_STMP =
DEVHV1           (SELECT MAX(S2.TIME_STMP)
DEVHV1              FROM ATE_ACTT_EFCTV_V S2
DEVHV1             WHERE S2.FK2_ACT_ACCT_TYP = S.FK2_ACT_ACCT_TYP
DEVHV1               AND S2.START_DT         = S.START_DT)
           END-EXEC.

           IF SQLCODE = +100
               MOVE DBLINK-NOT-FOUND TO ERROR-STATUS
               GO TO 200-FSYIA10-SELECT-ATE-EXIT
           END-IF.
           IF SQLCODE NOT = 0
               MOVE DBLINK-DB2-ERROR TO ERROR-STATUS
               GO TO 200-FSYIA10-SELECT-ATE-EXIT
           END-IF.

       200-FSYIA10-SELECT-ATE-EXIT.
           EXIT.
      /
       200-FSYIA10-SELECT-CAE-MAX.
           MOVE '200-FSYIA10-SELECT-CAE-MAX' TO DBLINK-CURR-PARAGRAPH.
           MOVE 'CAE_CA_EFCTV_V'             TO ERROR-RECORD.
           MOVE ZERO                         TO ERROR-STATUS.
           EXEC SQL
               SELECT
                  CHAR(S.END_DT,ISO)
                 ,S.CNTL_ACCT_CD
                 ,S.PRI_YR_CNTL_ACCT
               INTO
                  :CAE-END-DT
                 ,:CAE-CNTL-ACCT-CD
                 ,:CAE-PRI-YR-CNTL-ACCT
DEVHV1         FROM CAE_CA_EFCTV_V   S
DEVHV1             ,CTA_CTRL_ACCTS_V A
DEVHV1        WHERE S.FK_CTA_ACCT_TYP_CD =  A.ACCT_TYP_CD
DEVHV1          AND S.FK_CTA_CTL_ACCTTYP =  A.CNTL_ACCT_TYP_CD
DEVHV1          AND S.FK_CTA_ACCT_TYP_CD = :CAE-FK-CTA-ACCT-TYP-CD
DEVHV1          AND S.FK_CTA_CTL_ACCTTYP = :CAE-FK-CTA-CTL-ACCTTYP
DEVHV1          AND S.START_DT =
DEVHV1           (SELECT MAX(S1.START_DT)
DEVHV1              FROM CAE_CA_EFCTV_V S1
DEVHV1             WHERE S1.FK_CTA_ACCT_TYP_CD = :CAE-FK-CTA-ACCT-TYP-CD
DEVHV1               AND S1.FK_CTA_CTL_ACCTTYP = :CAE-FK-CTA-CTL-ACCTTYP
DEVHV1               AND S1.START_DT          <= :CAE-START-DT)
DEVHV1          AND S.TIME_STMP =
DEVHV1           (SELECT MAX(S2.TIME_STMP)
DEVHV1              FROM CAE_CA_EFCTV_V S2
DEVHV1             WHERE S2.FK_CTA_ACCT_TYP_CD = S.FK_CTA_ACCT_TYP_CD
DEVHV1               AND S2.FK_CTA_CTL_ACCTTYP = S.FK_CTA_CTL_ACCTTYP
DEVHV1               AND S2.START_DT           = S.START_DT)
           END-EXEC.

           IF SQLCODE = +100
               MOVE DBLINK-NOT-FOUND TO ERROR-STATUS
               GO TO 200-FSYIA10-SELECT-CAE-EXIT
           END-IF.
           IF SQLCODE NOT = 0
               MOVE DBLINK-DB2-ERROR TO ERROR-STATUS
               GO TO 200-FSYIA10-SELECT-CAE-EXIT
           END-IF.

       200-FSYIA10-SELECT-CAE-EXIT.
           EXIT.
      /
