    ***Created by Convert/DC version V8R03 on 12/05/00 at 15:00***

      *%--------------------------------------------------------------%*
           MOVE DCLINK-MESSAGE  TO WK01-ZZMESSAGE.
      *%--------------------------------------------------------------%*
           MOVE AGR-DATE OF ADSO-APPLICATION-GLOBAL-RECORD TO WK01-DATE.
      *%--------------------------------------------------------------%*
           MOVE AGR-USER-ID OF ADSO-APPLICATION-GLOBAL-RECORD TO
                WK01-USER-ID.
      *%--------------------------------------------------------------%*
           MOVE AGR-FUNC-DESCRIPTION OF ADSO-APPLICATION-GLOBAL-RECORD
                TO WK01-FUNC-DESCRIPTION.
      *%--------------------------------------------------------------%*
           MOVE AGR-PASSED-ONE OF ADSO-APPLICATION-GLOBAL-RECORD TO
                WK01-PASSED-ONE.
      *%--------------------------------------------------------------%*
           MOVE AGR-MAP-RESPONSE OF ADSO-APPLICATION-GLOBAL-RECORD TO
                WK01-MAP-RESPONSE.
      *%--------------------------------------------------------------%*
           MOVE TRMNL-ID-SY00 OF FSYWG00M TO WK01-ID-SY00.
      *%--------------------------------------------------------------%*
           MOVE FULL-NAME-6001-SY00 OF FSYWG00M TO WK01-NAME-6001-SY00.
      *%--------------------------------------------------------------%*
           MOVE AM-PM-FLAG-SY00 OF FSYWG00M TO WK01-PM-FLAG-SY00.
      *%--------------------------------------------------------------%*
           MOVE CURR-RSPNS-ID-SY00 OF FSYWG00M TO WK01-RSPNS-ID-SY00.
      *%--------------------------------------------------------------%*
           MOVE ERROR-TEXT-SY00 OF FSYWG00M TO WK01-TEXT-SY00.
      *%--------------------------------------------------------------%*
           MOVE PAGE-STATUS-CODE-SY00 OF FSYWG00M TO
                WK01-STATUS-CODE-SY00.
      *%--------------------------------------------------------------%*
           MOVE WORK-HH-MM-TIME-SY00 OF FSYWG00M TO
                WK01-HH-MM-TIME-SY00.
      *%--------------------------------------------------------------%*
           MOVE TRVL-ACCT-LAST-NINE-4400-TA19 OF FTAWK19 TO
                WK01-ACCT-LST-NN-4400-T19.
      *%--------------------------------------------------------------%*
           MOVE NAME-KEY-6117-TA19 OF FTAWM19 TO WK01-KEY-6117-TA19.
      *%--------------------------------------------------------------%*
           MOVE MSG-DESC-TA19 OF FTAWM19 TO WK01-DESC-TA19.
      *%--------------------------------------------------------------%*
           MOVE EMPLY-IND-4400-TA19 OF FTAWM19 TO WK01-IND-4400-TA19.
      *%--------------------------------------------------------------%*
           MOVE RQST-EXPNS-NMBR-TA19 OF FTAWK19 TO WK01-EXPNS-NMBR-TA19.
      *%--------------------------------------------------------------%*
           MOVE ACTN-CODE-TA19 OF FTAWM19(0001) TO WK01-CODE-TA191.
      *%--------------------------------------------------------------%*
           MOVE ACTN-CODE-TA19 OF FTAWM19(0002) TO WK01-CODE-TA192.
      *%--------------------------------------------------------------%*
           MOVE ACTN-CODE-TA19 OF FTAWM19(0003) TO WK01-CODE-TA193.
      *%--------------------------------------------------------------%*
           MOVE ACTN-CODE-TA19 OF FTAWM19(0004) TO WK01-CODE-TA194.
      *%--------------------------------------------------------------%*
           MOVE ACTN-CODE-TA19 OF FTAWM19(0005) TO WK01-CODE-TA195.
      *%--------------------------------------------------------------%*
           MOVE ACTN-CODE-TA19 OF FTAWM19(0006) TO WK01-CODE-TA196.
      *%--------------------------------------------------------------%*
           MOVE ACTN-CODE-TA19 OF FTAWM19(0007) TO WK01-CODE-TA197.
      *%--------------------------------------------------------------%*
           MOVE ACTN-CODE-TA19 OF FTAWM19(0008) TO WK01-CODE-TA198.
      *%--------------------------------------------------------------%*
           MOVE ACTN-CODE-TA19 OF FTAWM19(0009) TO WK01-CODE-TA199.
      *%--------------------------------------------------------------%*
           MOVE ACTN-CODE-TA19 OF FTAWM19(0010) TO WK01-CODE-TA1910.
      *%--------------------------------------------------------------%*
           MOVE ACTN-CODE-TA19 OF FTAWM19(0011) TO WK01-CODE-TA1911.
      *%--------------------------------------------------------------%*
           MOVE EXPNS-NMBR-4405-TA19 OF FTAWM19(0001) TO
                WK01-NMBR-4405-TA191.
      *%--------------------------------------------------------------%*
           MOVE EXPNS-NMBR-4405-TA19 OF FTAWM19(0002) TO
                WK01-NMBR-4405-TA192.
      *%--------------------------------------------------------------%*
           MOVE EXPNS-NMBR-4405-TA19 OF FTAWM19(0003) TO
                WK01-NMBR-4405-TA193.
      *%--------------------------------------------------------------%*
           MOVE EXPNS-NMBR-4405-TA19 OF FTAWM19(0004) TO
                WK01-NMBR-4405-TA194.
      *%--------------------------------------------------------------%*
           MOVE EXPNS-NMBR-4405-TA19 OF FTAWM19(0005) TO
                WK01-NMBR-4405-TA195.
      *%--------------------------------------------------------------%*
           MOVE EXPNS-NMBR-4405-TA19 OF FTAWM19(0006) TO
                WK01-NMBR-4405-TA196.
      *%--------------------------------------------------------------%*
           MOVE EXPNS-NMBR-4405-TA19 OF FTAWM19(0007) TO
                WK01-NMBR-4405-TA197.
      *%--------------------------------------------------------------%*
           MOVE EXPNS-NMBR-4405-TA19 OF FTAWM19(0008) TO
                WK01-NMBR-4405-TA198.
      *%--------------------------------------------------------------%*
           MOVE EXPNS-NMBR-4405-TA19 OF FTAWM19(0009) TO
                WK01-NMBR-4405-TA199.
      *%--------------------------------------------------------------%*
           MOVE EXPNS-NMBR-4405-TA19 OF FTAWM19(0010) TO
                WK01-NMBR-4405-TA1910.
      *%--------------------------------------------------------------%*
           MOVE EXPNS-NMBR-4405-TA19 OF FTAWM19(0011) TO
                WK01-NMBR-4405-TA1911.
      *%--------------------------------------------------------------%*
           MOVE EXPNS-AMT-4405-TA19 OF FTAWM19(0001) TO
                WK01-AMT-4405-TA191.
      *%--------------------------------------------------------------%*
           MOVE EXPNS-AMT-4405-TA19 OF FTAWM19(0002) TO
                WK01-AMT-4405-TA192.
      *%--------------------------------------------------------------%*
           MOVE EXPNS-AMT-4405-TA19 OF FTAWM19(0003) TO
                WK01-AMT-4405-TA193.
      *%--------------------------------------------------------------%*
           MOVE EXPNS-AMT-4405-TA19 OF FTAWM19(0004) TO
                WK01-AMT-4405-TA194.
      *%--------------------------------------------------------------%*
           MOVE EXPNS-AMT-4405-TA19 OF FTAWM19(0005) TO
                WK01-AMT-4405-TA195.
      *%--------------------------------------------------------------%*
           MOVE EXPNS-AMT-4405-TA19 OF FTAWM19(0006) TO
                WK01-AMT-4405-TA196.
      *%--------------------------------------------------------------%*
           MOVE EXPNS-AMT-4405-TA19 OF FTAWM19(0007) TO
                WK01-AMT-4405-TA197.
      *%--------------------------------------------------------------%*
           MOVE EXPNS-AMT-4405-TA19 OF FTAWM19(0008) TO
                WK01-AMT-4405-TA198.
      *%--------------------------------------------------------------%*
           MOVE EXPNS-AMT-4405-TA19 OF FTAWM19(0009) TO
                WK01-AMT-4405-TA199.
      *%--------------------------------------------------------------%*
           MOVE EXPNS-AMT-4405-TA19 OF FTAWM19(0010) TO
                WK01-AMT-4405-TA1910.
      *%--------------------------------------------------------------%*
           MOVE EXPNS-AMT-4405-TA19 OF FTAWM19(0011) TO
                WK01-AMT-4405-TA1911.
      *%--------------------------------------------------------------%*
           MOVE EVENT-NMBR-4401-TA19 OF FTAWM19(0001) TO
                WK01-NMBR-4401-TA191.
      *%--------------------------------------------------------------%*
           MOVE EVENT-NMBR-4401-TA19 OF FTAWM19(0002) TO
                WK01-NMBR-4401-TA192.
      *%--------------------------------------------------------------%*
           MOVE EVENT-NMBR-4401-TA19 OF FTAWM19(0003) TO
                WK01-NMBR-4401-TA193.
      *%--------------------------------------------------------------%*
           MOVE EVENT-NMBR-4401-TA19 OF FTAWM19(0004) TO
                WK01-NMBR-4401-TA194.
      *%--------------------------------------------------------------%*
           MOVE EVENT-NMBR-4401-TA19 OF FTAWM19(0005) TO
                WK01-NMBR-4401-TA195.
      *%--------------------------------------------------------------%*
           MOVE EVENT-NMBR-4401-TA19 OF FTAWM19(0006) TO
                WK01-NMBR-4401-TA196.
      *%--------------------------------------------------------------%*
           MOVE EVENT-NMBR-4401-TA19 OF FTAWM19(0007) TO
                WK01-NMBR-4401-TA197.
      *%--------------------------------------------------------------%*
           MOVE EVENT-NMBR-4401-TA19 OF FTAWM19(0008) TO
                WK01-NMBR-4401-TA198.
      *%--------------------------------------------------------------%*
           MOVE EVENT-NMBR-4401-TA19 OF FTAWM19(0009) TO
                WK01-NMBR-4401-TA199.
      *%--------------------------------------------------------------%*
           MOVE EVENT-NMBR-4401-TA19 OF FTAWM19(0010) TO
                WK01-NMBR-4401-TA1910.
      *%--------------------------------------------------------------%*
           MOVE EVENT-NMBR-4401-TA19 OF FTAWM19(0011) TO
                WK01-NMBR-4401-TA1911.
      *%--------------------------------------------------------------%*
           MOVE EVENT-BAL-TA19 OF FTAWM19(0001) TO WK01-BAL-TA191.
      *%--------------------------------------------------------------%*
           MOVE EVENT-BAL-TA19 OF FTAWM19(0002) TO WK01-BAL-TA192.
      *%--------------------------------------------------------------%*
           MOVE EVENT-BAL-TA19 OF FTAWM19(0003) TO WK01-BAL-TA193.
      *%--------------------------------------------------------------%*
           MOVE EVENT-BAL-TA19 OF FTAWM19(0004) TO WK01-BAL-TA194.
      *%--------------------------------------------------------------%*
           MOVE EVENT-BAL-TA19 OF FTAWM19(0005) TO WK01-BAL-TA195.
      *%--------------------------------------------------------------%*
           MOVE EVENT-BAL-TA19 OF FTAWM19(0006) TO WK01-BAL-TA196.
      *%--------------------------------------------------------------%*
           MOVE EVENT-BAL-TA19 OF FTAWM19(0007) TO WK01-BAL-TA197.
      *%--------------------------------------------------------------%*
           MOVE EVENT-BAL-TA19 OF FTAWM19(0008) TO WK01-BAL-TA198.
      *%--------------------------------------------------------------%*
           MOVE EVENT-BAL-TA19 OF FTAWM19(0009) TO WK01-BAL-TA199.
      *%--------------------------------------------------------------%*
           MOVE EVENT-BAL-TA19 OF FTAWM19(0010) TO WK01-BAL-TA1910.
      *%--------------------------------------------------------------%*
           MOVE EVENT-BAL-TA19 OF FTAWM19(0011) TO WK01-BAL-TA1911.
      *%--------------------------------------------------------------%*
           MOVE EVENT-STATUS-TA19 OF FTAWM19(0001) TO WK01-STATUS-TA191.
      *%--------------------------------------------------------------%*
           MOVE EVENT-STATUS-TA19 OF FTAWM19(0002) TO WK01-STATUS-TA192.
      *%--------------------------------------------------------------%*
           MOVE EVENT-STATUS-TA19 OF FTAWM19(0003) TO WK01-STATUS-TA193.
      *%--------------------------------------------------------------%*
           MOVE EVENT-STATUS-TA19 OF FTAWM19(0004) TO WK01-STATUS-TA194.
      *%--------------------------------------------------------------%*
           MOVE EVENT-STATUS-TA19 OF FTAWM19(0005) TO WK01-STATUS-TA195.
      *%--------------------------------------------------------------%*
           MOVE EVENT-STATUS-TA19 OF FTAWM19(0006) TO WK01-STATUS-TA196.
      *%--------------------------------------------------------------%*
           MOVE EVENT-STATUS-TA19 OF FTAWM19(0007) TO WK01-STATUS-TA197.
      *%--------------------------------------------------------------%*
           MOVE EVENT-STATUS-TA19 OF FTAWM19(0008) TO WK01-STATUS-TA198.
      *%--------------------------------------------------------------%*
           MOVE EVENT-STATUS-TA19 OF FTAWM19(0009) TO WK01-STATUS-TA199.
      *%--------------------------------------------------------------%*
           MOVE EVENT-STATUS-TA19 OF FTAWM19(0010) TO
                WK01-STATUS-TA1910.
      *%--------------------------------------------------------------%*
           MOVE EVENT-STATUS-TA19 OF FTAWM19(0011) TO
                WK01-STATUS-TA1911.
