    ***Created by Convert/DC version V8R03 on 12/05/00 at 13:00***

      *%--------------------------------------------------------------%*
           MOVE DCLINK-MESSAGE  TO WK01-ZZMESSAGE.
      *%--------------------------------------------------------------%*
           MOVE AGR-DATE OF ADSO-APPLICATION-GLOBAL-RECORD TO WK01-DATE.
      *%--------------------------------------------------------------%*
           MOVE AGR-USER-ID OF ADSO-APPLICATION-GLOBAL-RECORD TO
                WK01-USER-ID.
      *%--------------------------------------------------------------%*
           MOVE AGR-FUNC-DESCRIPTION OF ADSO-APPLICATION-GLOBAL-RECORD
                TO WK01-FUNC-DESCRIPTION.
      *%--------------------------------------------------------------%*
           MOVE AGR-PASSED-ONE OF ADSO-APPLICATION-GLOBAL-RECORD TO
                WK01-PASSED-ONE.
      *%--------------------------------------------------------------%*
           MOVE AGR-MAP-RESPONSE OF ADSO-APPLICATION-GLOBAL-RECORD TO
                WK01-MAP-RESPONSE.
      *%--------------------------------------------------------------%*
           MOVE TRMNL-ID-SY00 OF FSYWG00M TO WK01-ID-SY00.
      *%--------------------------------------------------------------%*
           MOVE FULL-NAME-6001-SY00 OF FSYWG00M TO WK01-NAME-6001-SY00.
      *%--------------------------------------------------------------%*
           MOVE AM-PM-FLAG-SY00 OF FSYWG00M TO WK01-PM-FLAG-SY00.
      *%--------------------------------------------------------------%*
           MOVE CURR-RSPNS-ID-SY00 OF FSYWG00M TO WK01-RSPNS-ID-SY00.
      *%--------------------------------------------------------------%*
           MOVE ERROR-TEXT-SY00 OF FSYWG00M TO WK01-TEXT-SY00.
      *%--------------------------------------------------------------%*
           MOVE PAGE-STATUS-CODE-SY00 OF FSYWG00M TO
                WK01-STATUS-CODE-SY00.
      *%--------------------------------------------------------------%*
           MOVE WORK-HH-MM-TIME-SY00 OF FSYWG00M TO
                WK01-HH-MM-TIME-SY00.
      *%--------------------------------------------------------------%*
           MOVE TRVL-ACCT-LAST-NINE-4400-TA15 OF FTAWK15 TO
                WK01-ACCT-LST-NN-4400-T15.
      *%--------------------------------------------------------------%*
           MOVE NAME-KEY-6117-TA15 OF FTAWM15 TO WK01-KEY-6117-TA15.
      *%--------------------------------------------------------------%*
           MOVE MSG-DESC-TA15 OF FTAWM15 TO WK01-DESC-TA15.
      *%--------------------------------------------------------------%*
           MOVE EMPLY-IND-4400-TA15 OF FTAWM15 TO WK01-IND-4400-TA15.
      *%--------------------------------------------------------------%*
           MOVE RQST-ADVNC-NMBR-TA15 OF FTAWK15 TO WK01-ADVNC-NMBR-TA15.
      *%--------------------------------------------------------------%*
           MOVE ACTN-CODE-TA15 OF FTAWM15(0001) TO WK01-CODE-TA151.
      *%--------------------------------------------------------------%*
           MOVE ACTN-CODE-TA15 OF FTAWM15(0002) TO WK01-CODE-TA152.
      *%--------------------------------------------------------------%*
           MOVE ACTN-CODE-TA15 OF FTAWM15(0003) TO WK01-CODE-TA153.
      *%--------------------------------------------------------------%*
           MOVE ACTN-CODE-TA15 OF FTAWM15(0004) TO WK01-CODE-TA154.
      *%--------------------------------------------------------------%*
           MOVE ACTN-CODE-TA15 OF FTAWM15(0005) TO WK01-CODE-TA155.
      *%--------------------------------------------------------------%*
           MOVE ACTN-CODE-TA15 OF FTAWM15(0006) TO WK01-CODE-TA156.
      *%--------------------------------------------------------------%*
           MOVE ACTN-CODE-TA15 OF FTAWM15(0007) TO WK01-CODE-TA157.
      *%--------------------------------------------------------------%*
           MOVE ACTN-CODE-TA15 OF FTAWM15(0008) TO WK01-CODE-TA158.
      *%--------------------------------------------------------------%*
           MOVE ACTN-CODE-TA15 OF FTAWM15(0009) TO WK01-CODE-TA159.
      *%--------------------------------------------------------------%*
           MOVE ACTN-CODE-TA15 OF FTAWM15(0010) TO WK01-CODE-TA1510.
      *%--------------------------------------------------------------%*
           MOVE ACTN-CODE-TA15 OF FTAWM15(0011) TO WK01-CODE-TA1511.
      *%--------------------------------------------------------------%*
           MOVE ADVNC-NMBR-4404-TA15 OF FTAWM15(0001) TO
                WK01-NMBR-4404-TA151.
      *%--------------------------------------------------------------%*
           MOVE ADVNC-NMBR-4404-TA15 OF FTAWM15(0002) TO
                WK01-NMBR-4404-TA152.
      *%--------------------------------------------------------------%*
           MOVE ADVNC-NMBR-4404-TA15 OF FTAWM15(0003) TO
                WK01-NMBR-4404-TA153.
      *%--------------------------------------------------------------%*
           MOVE ADVNC-NMBR-4404-TA15 OF FTAWM15(0004) TO
                WK01-NMBR-4404-TA154.
      *%--------------------------------------------------------------%*
           MOVE ADVNC-NMBR-4404-TA15 OF FTAWM15(0005) TO
                WK01-NMBR-4404-TA155.
      *%--------------------------------------------------------------%*
           MOVE ADVNC-NMBR-4404-TA15 OF FTAWM15(0006) TO
                WK01-NMBR-4404-TA156.
      *%--------------------------------------------------------------%*
           MOVE ADVNC-NMBR-4404-TA15 OF FTAWM15(0007) TO
                WK01-NMBR-4404-TA157.
      *%--------------------------------------------------------------%*
           MOVE ADVNC-NMBR-4404-TA15 OF FTAWM15(0008) TO
                WK01-NMBR-4404-TA158.
      *%--------------------------------------------------------------%*
           MOVE ADVNC-NMBR-4404-TA15 OF FTAWM15(0009) TO
                WK01-NMBR-4404-TA159.
      *%--------------------------------------------------------------%*
           MOVE ADVNC-NMBR-4404-TA15 OF FTAWM15(0010) TO
                WK01-NMBR-4404-TA1510.
      *%--------------------------------------------------------------%*
           MOVE ADVNC-NMBR-4404-TA15 OF FTAWM15(0011) TO
                WK01-NMBR-4404-TA1511.
      *%--------------------------------------------------------------%*
           MOVE ADVNC-DATE-4404-TA15 OF FTAWM15(0001) TO
                WK01-DATE-4404-TA151.
      *%--------------------------------------------------------------%*
           MOVE ADVNC-DATE-4404-TA15 OF FTAWM15(0002) TO
                WK01-DATE-4404-TA152.
      *%--------------------------------------------------------------%*
           MOVE ADVNC-DATE-4404-TA15 OF FTAWM15(0003) TO
                WK01-DATE-4404-TA153.
      *%--------------------------------------------------------------%*
           MOVE ADVNC-DATE-4404-TA15 OF FTAWM15(0004) TO
                WK01-DATE-4404-TA154.
      *%--------------------------------------------------------------%*
           MOVE ADVNC-DATE-4404-TA15 OF FTAWM15(0005) TO
                WK01-DATE-4404-TA155.
      *%--------------------------------------------------------------%*
           MOVE ADVNC-DATE-4404-TA15 OF FTAWM15(0006) TO
                WK01-DATE-4404-TA156.
      *%--------------------------------------------------------------%*
           MOVE ADVNC-DATE-4404-TA15 OF FTAWM15(0007) TO
                WK01-DATE-4404-TA157.
      *%--------------------------------------------------------------%*
           MOVE ADVNC-DATE-4404-TA15 OF FTAWM15(0008) TO
                WK01-DATE-4404-TA158.
      *%--------------------------------------------------------------%*
           MOVE ADVNC-DATE-4404-TA15 OF FTAWM15(0009) TO
                WK01-DATE-4404-TA159.
      *%--------------------------------------------------------------%*
           MOVE ADVNC-DATE-4404-TA15 OF FTAWM15(0010) TO
                WK01-DATE-4404-TA1510.
      *%--------------------------------------------------------------%*
           MOVE ADVNC-DATE-4404-TA15 OF FTAWM15(0011) TO
                WK01-DATE-4404-TA1511.
      *%--------------------------------------------------------------%*
           MOVE ADVNC-AMT-4404-TA15 OF FTAWM15(0001) TO
                WK01-AMT-4404-TA151.
      *%--------------------------------------------------------------%*
           MOVE ADVNC-AMT-4404-TA15 OF FTAWM15(0002) TO
                WK01-AMT-4404-TA152.
      *%--------------------------------------------------------------%*
           MOVE ADVNC-AMT-4404-TA15 OF FTAWM15(0003) TO
                WK01-AMT-4404-TA153.
      *%--------------------------------------------------------------%*
           MOVE ADVNC-AMT-4404-TA15 OF FTAWM15(0004) TO
                WK01-AMT-4404-TA154.
      *%--------------------------------------------------------------%*
           MOVE ADVNC-AMT-4404-TA15 OF FTAWM15(0005) TO
                WK01-AMT-4404-TA155.
      *%--------------------------------------------------------------%*
           MOVE ADVNC-AMT-4404-TA15 OF FTAWM15(0006) TO
                WK01-AMT-4404-TA156.
      *%--------------------------------------------------------------%*
           MOVE ADVNC-AMT-4404-TA15 OF FTAWM15(0007) TO
                WK01-AMT-4404-TA157.
      *%--------------------------------------------------------------%*
           MOVE ADVNC-AMT-4404-TA15 OF FTAWM15(0008) TO
                WK01-AMT-4404-TA158.
      *%--------------------------------------------------------------%*
           MOVE ADVNC-AMT-4404-TA15 OF FTAWM15(0009) TO
                WK01-AMT-4404-TA159.
      *%--------------------------------------------------------------%*
           MOVE ADVNC-AMT-4404-TA15 OF FTAWM15(0010) TO
                WK01-AMT-4404-TA1510.
      *%--------------------------------------------------------------%*
           MOVE ADVNC-AMT-4404-TA15 OF FTAWM15(0011) TO
                WK01-AMT-4404-TA1511.
      *%--------------------------------------------------------------%*
           MOVE ADVNC-TYPE-4404-TA15 OF FTAWM15(0001) TO
                WK01-TYPE-4404-TA151.
      *%--------------------------------------------------------------%*
           MOVE ADVNC-TYPE-4404-TA15 OF FTAWM15(0002) TO
                WK01-TYPE-4404-TA152.
      *%--------------------------------------------------------------%*
           MOVE ADVNC-TYPE-4404-TA15 OF FTAWM15(0003) TO
                WK01-TYPE-4404-TA153.
      *%--------------------------------------------------------------%*
           MOVE ADVNC-TYPE-4404-TA15 OF FTAWM15(0004) TO
                WK01-TYPE-4404-TA154.
      *%--------------------------------------------------------------%*
           MOVE ADVNC-TYPE-4404-TA15 OF FTAWM15(0005) TO
                WK01-TYPE-4404-TA155.
      *%--------------------------------------------------------------%*
           MOVE ADVNC-TYPE-4404-TA15 OF FTAWM15(0006) TO
                WK01-TYPE-4404-TA156.
      *%--------------------------------------------------------------%*
           MOVE ADVNC-TYPE-4404-TA15 OF FTAWM15(0007) TO
                WK01-TYPE-4404-TA157.
      *%--------------------------------------------------------------%*
           MOVE ADVNC-TYPE-4404-TA15 OF FTAWM15(0008) TO
                WK01-TYPE-4404-TA158.
      *%--------------------------------------------------------------%*
           MOVE ADVNC-TYPE-4404-TA15 OF FTAWM15(0009) TO
                WK01-TYPE-4404-TA159.
      *%--------------------------------------------------------------%*
           MOVE ADVNC-TYPE-4404-TA15 OF FTAWM15(0010) TO
                WK01-TYPE-4404-TA1510.
      *%--------------------------------------------------------------%*
           MOVE ADVNC-TYPE-4404-TA15 OF FTAWM15(0011) TO
                WK01-TYPE-4404-TA1511.
      *%--------------------------------------------------------------%*
           MOVE ADVNC-STATUS-4404-TA15 OF FTAWM15(0001) TO
                WK01-STATUS-4404-TA151.
      *%--------------------------------------------------------------%*
           MOVE ADVNC-STATUS-4404-TA15 OF FTAWM15(0002) TO
                WK01-STATUS-4404-TA152.
      *%--------------------------------------------------------------%*
           MOVE ADVNC-STATUS-4404-TA15 OF FTAWM15(0003) TO
                WK01-STATUS-4404-TA153.
      *%--------------------------------------------------------------%*
           MOVE ADVNC-STATUS-4404-TA15 OF FTAWM15(0004) TO
                WK01-STATUS-4404-TA154.
      *%--------------------------------------------------------------%*
           MOVE ADVNC-STATUS-4404-TA15 OF FTAWM15(0005) TO
                WK01-STATUS-4404-TA155.
      *%--------------------------------------------------------------%*
           MOVE ADVNC-STATUS-4404-TA15 OF FTAWM15(0006) TO
                WK01-STATUS-4404-TA156.
      *%--------------------------------------------------------------%*
           MOVE ADVNC-STATUS-4404-TA15 OF FTAWM15(0007) TO
                WK01-STATUS-4404-TA157.
      *%--------------------------------------------------------------%*
           MOVE ADVNC-STATUS-4404-TA15 OF FTAWM15(0008) TO
                WK01-STATUS-4404-TA158.
      *%--------------------------------------------------------------%*
           MOVE ADVNC-STATUS-4404-TA15 OF FTAWM15(0009) TO
                WK01-STATUS-4404-TA159.
      *%--------------------------------------------------------------%*
           MOVE ADVNC-STATUS-4404-TA15 OF FTAWM15(0010) TO
                WK01-STATUS-4404-TA1510.
      *%--------------------------------------------------------------%*
           MOVE ADVNC-STATUS-4404-TA15 OF FTAWM15(0011) TO
                WK01-STATUS-4404-TA1511.
      *%--------------------------------------------------------------%*
           MOVE STATUS-DESC-TA15 OF FTAWM15(0001) TO WK01-DESC-TA1A11.
      *%--------------------------------------------------------------%*
           MOVE STATUS-DESC-TA15 OF FTAWM15(0002) TO WK01-DESC-TA1A12.
      *%--------------------------------------------------------------%*
           MOVE STATUS-DESC-TA15 OF FTAWM15(0003) TO WK01-DESC-TA1A13.
      *%--------------------------------------------------------------%*
           MOVE STATUS-DESC-TA15 OF FTAWM15(0004) TO WK01-DESC-TA1A14.
      *%--------------------------------------------------------------%*
           MOVE STATUS-DESC-TA15 OF FTAWM15(0005) TO WK01-DESC-TA1A15.
      *%--------------------------------------------------------------%*
           MOVE STATUS-DESC-TA15 OF FTAWM15(0006) TO WK01-DESC-TA1A16.
      *%--------------------------------------------------------------%*
           MOVE STATUS-DESC-TA15 OF FTAWM15(0007) TO WK01-DESC-TA1A17.
      *%--------------------------------------------------------------%*
           MOVE STATUS-DESC-TA15 OF FTAWM15(0008) TO WK01-DESC-TA1A18.
      *%--------------------------------------------------------------%*
           MOVE STATUS-DESC-TA15 OF FTAWM15(0009) TO WK01-DESC-TA1A19.
      *%--------------------------------------------------------------%*
           MOVE STATUS-DESC-TA15 OF FTAWM15(0010) TO WK01-DESC-TA1A110.
      *%--------------------------------------------------------------%*
           MOVE STATUS-DESC-TA15 OF FTAWM15(0011) TO WK01-DESC-TA1A111.
      *%--------------------------------------------------------------%*
           MOVE EVENT-NMBR-4401-TA15 OF FTAWM15(0001) TO
                WK01-NMBR-4401-TA151.
      *%--------------------------------------------------------------%*
           MOVE EVENT-NMBR-4401-TA15 OF FTAWM15(0002) TO
                WK01-NMBR-4401-TA152.
      *%--------------------------------------------------------------%*
           MOVE EVENT-NMBR-4401-TA15 OF FTAWM15(0003) TO
                WK01-NMBR-4401-TA153.
      *%--------------------------------------------------------------%*
           MOVE EVENT-NMBR-4401-TA15 OF FTAWM15(0004) TO
                WK01-NMBR-4401-TA154.
      *%--------------------------------------------------------------%*
           MOVE EVENT-NMBR-4401-TA15 OF FTAWM15(0005) TO
                WK01-NMBR-4401-TA155.
      *%--------------------------------------------------------------%*
           MOVE EVENT-NMBR-4401-TA15 OF FTAWM15(0006) TO
                WK01-NMBR-4401-TA156.
      *%--------------------------------------------------------------%*
           MOVE EVENT-NMBR-4401-TA15 OF FTAWM15(0007) TO
                WK01-NMBR-4401-TA157.
      *%--------------------------------------------------------------%*
           MOVE EVENT-NMBR-4401-TA15 OF FTAWM15(0008) TO
                WK01-NMBR-4401-TA158.
      *%--------------------------------------------------------------%*
           MOVE EVENT-NMBR-4401-TA15 OF FTAWM15(0009) TO
                WK01-NMBR-4401-TA159.
      *%--------------------------------------------------------------%*
           MOVE EVENT-NMBR-4401-TA15 OF FTAWM15(0010) TO
                WK01-NMBR-4401-TA1510.
      *%--------------------------------------------------------------%*
           MOVE EVENT-NMBR-4401-TA15 OF FTAWM15(0011) TO
                WK01-NMBR-4401-TA1511.
      *%--------------------------------------------------------------%*
           MOVE EVENT-STATUS-TA15 OF FTAWM15(0001) TO WK01-STATUS-TA151.
      *%--------------------------------------------------------------%*
           MOVE EVENT-STATUS-TA15 OF FTAWM15(0002) TO WK01-STATUS-TA152.
      *%--------------------------------------------------------------%*
           MOVE EVENT-STATUS-TA15 OF FTAWM15(0003) TO WK01-STATUS-TA153.
      *%--------------------------------------------------------------%*
           MOVE EVENT-STATUS-TA15 OF FTAWM15(0004) TO WK01-STATUS-TA154.
      *%--------------------------------------------------------------%*
           MOVE EVENT-STATUS-TA15 OF FTAWM15(0005) TO WK01-STATUS-TA155.
      *%--------------------------------------------------------------%*
           MOVE EVENT-STATUS-TA15 OF FTAWM15(0006) TO WK01-STATUS-TA156.
      *%--------------------------------------------------------------%*
           MOVE EVENT-STATUS-TA15 OF FTAWM15(0007) TO WK01-STATUS-TA157.
      *%--------------------------------------------------------------%*
           MOVE EVENT-STATUS-TA15 OF FTAWM15(0008) TO WK01-STATUS-TA158.
      *%--------------------------------------------------------------%*
           MOVE EVENT-STATUS-TA15 OF FTAWM15(0009) TO WK01-STATUS-TA159.
      *%--------------------------------------------------------------%*
           MOVE EVENT-STATUS-TA15 OF FTAWM15(0010) TO
                WK01-STATUS-TA1510.
      *%--------------------------------------------------------------%*
           MOVE EVENT-STATUS-TA15 OF FTAWM15(0011) TO
                WK01-STATUS-TA1511.
