    ***Created by Convert/DC version V8R03 on 11/17/00 at 16:00***

      *%--------------------------------------------------------------%*
           MOVE DCLINK-MESSAGE  TO WK01-ZZMESSAGE.
      *%--------------------------------------------------------------%*
           MOVE AGR-DATE OF ADSO-APPLICATION-GLOBAL-RECORD TO WK01-DATE.
      *%--------------------------------------------------------------%*
           MOVE AGR-USER-ID OF ADSO-APPLICATION-GLOBAL-RECORD TO
                WK01-USER-ID.
      *%--------------------------------------------------------------%*
           MOVE AGR-FUNC-DESCRIPTION OF ADSO-APPLICATION-GLOBAL-RECORD
                TO WK01-FUNC-DESCRIPTION.
      *%--------------------------------------------------------------%*
           MOVE AGR-PASSED-ONE OF ADSO-APPLICATION-GLOBAL-RECORD TO
                WK01-PASSED-ONE.
      *%--------------------------------------------------------------%*
           MOVE AGR-MAP-RESPONSE OF ADSO-APPLICATION-GLOBAL-RECORD TO
                WK01-MAP-RESPONSE.
      *%--------------------------------------------------------------%*
           MOVE TRMNL-ID-SY00 OF FSYWG00M TO WK01-ID-SY00.
      *%--------------------------------------------------------------%*
           MOVE FULL-NAME-6001-SY00 OF FSYWG00M TO WK01-NAME-6001-SY00.
      *%--------------------------------------------------------------%*
           MOVE AM-PM-FLAG-SY00 OF FSYWG00M TO WK01-PM-FLAG-SY00.
      *%--------------------------------------------------------------%*
           MOVE CURR-RSPNS-ID-SY00 OF FSYWG00M TO WK01-RSPNS-ID-SY00.
      *%--------------------------------------------------------------%*
           MOVE ERROR-TEXT-SY00 OF FSYWG00M TO WK01-TEXT-SY00.
      *%--------------------------------------------------------------%*
           MOVE PAGE-STATUS-CODE-SY00 OF FSYWG00M TO
                WK01-STATUS-CODE-SY00.
      *%--------------------------------------------------------------%*
           MOVE WORK-HH-MM-TIME-SY00 OF FSYWG00M TO
                WK01-HH-MM-TIME-SY00.
      *%--------------------------------------------------------------%*
           MOVE DCSD-TEXT-SY01 OF FSYWG01M TO WK01-TEXT-SY01.
      *%--------------------------------------------------------------%*
           MOVE CNFDL-TEXT-SY01 OF FSYWG01M TO WK01-TEXT-SY0A.
      *%--------------------------------------------------------------%*
           MOVE HOLDS-TEXT-SY01 OF FSYWG01M TO WK01-TEXT-SY0B.
      *%--------------------------------------------------------------%*
           MOVE ACTN-CODE-UT04 OF FUTWM04(0001) TO WK01-CODE-UT041.
      *%--------------------------------------------------------------%*
           MOVE NAME-KEY-4173-UT04 OF FUTWM04(0001) TO
                WK01-KEY-4173-UT041.
      *%--------------------------------------------------------------%*
           MOVE PRSN-ENTY-ID-LAST-NINE-UT04 OF FUTWM04(0001) TO
                WK01-ENTY-ID-LAST-NN-UT041.
      *%--------------------------------------------------------------%*
           MOVE RQST-NAME-KEY-UT04 OF FUTWK04 TO WK01-NAME-KEY-UT04.
      *%--------------------------------------------------------------%*
           MOVE ACTN-CODE-UT04 OF FUTWM04(0002) TO WK01-CODE-UT042.
      *%--------------------------------------------------------------%*
           MOVE ACTN-CODE-UT04 OF FUTWM04(0003) TO WK01-CODE-UT043.
      *%--------------------------------------------------------------%*
           MOVE ACTN-CODE-UT04 OF FUTWM04(0004) TO WK01-CODE-UT044.
      *%--------------------------------------------------------------%*
           MOVE ACTN-CODE-UT04 OF FUTWM04(0005) TO WK01-CODE-UT045.
      *%--------------------------------------------------------------%*
           MOVE ACTN-CODE-UT04 OF FUTWM04(0006) TO WK01-CODE-UT046.
      *%--------------------------------------------------------------%*
           MOVE ACTN-CODE-UT04 OF FUTWM04(0007) TO WK01-CODE-UT047.
      *%--------------------------------------------------------------%*
           MOVE ACTN-CODE-UT04 OF FUTWM04(0008) TO WK01-CODE-UT048.
      *%--------------------------------------------------------------%*
           MOVE ACTN-CODE-UT04 OF FUTWM04(0009) TO WK01-CODE-UT049.
      *%--------------------------------------------------------------%*
           MOVE ACTN-CODE-UT04 OF FUTWM04(0010) TO WK01-CODE-UT0410.
      *%--------------------------------------------------------------%*
           MOVE ACTN-CODE-UT04 OF FUTWM04(0011) TO WK01-CODE-UT0411.
      *%--------------------------------------------------------------%*
           MOVE ACTN-CODE-UT04 OF FUTWM04(0012) TO WK01-CODE-UT0412.
      *%--------------------------------------------------------------%*
           MOVE NAME-KEY-4173-UT04 OF FUTWM04(0002) TO
                WK01-KEY-4173-UT042.
      *%--------------------------------------------------------------%*
           MOVE NAME-KEY-4173-UT04 OF FUTWM04(0003) TO
                WK01-KEY-4173-UT043.
      *%--------------------------------------------------------------%*
           MOVE NAME-KEY-4173-UT04 OF FUTWM04(0004) TO
                WK01-KEY-4173-UT044.
      *%--------------------------------------------------------------%*
           MOVE NAME-KEY-4173-UT04 OF FUTWM04(0005) TO
                WK01-KEY-4173-UT045.
      *%--------------------------------------------------------------%*
           MOVE NAME-KEY-4173-UT04 OF FUTWM04(0006) TO
                WK01-KEY-4173-UT046.
      *%--------------------------------------------------------------%*
           MOVE NAME-KEY-4173-UT04 OF FUTWM04(0007) TO
                WK01-KEY-4173-UT047.
      *%--------------------------------------------------------------%*
           MOVE NAME-KEY-4173-UT04 OF FUTWM04(0008) TO
                WK01-KEY-4173-UT048.
      *%--------------------------------------------------------------%*
           MOVE NAME-KEY-4173-UT04 OF FUTWM04(0009) TO
                WK01-KEY-4173-UT049.
      *%--------------------------------------------------------------%*
           MOVE NAME-KEY-4173-UT04 OF FUTWM04(0010) TO
                WK01-KEY-4173-UT0410.
      *%--------------------------------------------------------------%*
           MOVE NAME-KEY-4173-UT04 OF FUTWM04(0011) TO
                WK01-KEY-4173-UT0411.
      *%--------------------------------------------------------------%*
           MOVE NAME-KEY-4173-UT04 OF FUTWM04(0012) TO
                WK01-KEY-4173-UT0412.
      *%--------------------------------------------------------------%*
           MOVE NAME-TYPE-UT04 OF FUTWK04 TO WK01-TYPE-UT04.
      *%--------------------------------------------------------------%*
           MOVE PRSN-ENTY-ID-LAST-NINE-UT04 OF FUTWM04(0002) TO
                WK01-ENTY-ID-LAST-NN-UT042.
      *%--------------------------------------------------------------%*
           MOVE PRSN-ENTY-ID-LAST-NINE-UT04 OF FUTWM04(0003) TO
                WK01-ENTY-ID-LAST-NN-UT043.
      *%--------------------------------------------------------------%*
           MOVE PRSN-ENTY-ID-LAST-NINE-UT04 OF FUTWM04(0004) TO
                WK01-ENTY-ID-LAST-NN-UT044.
      *%--------------------------------------------------------------%*
           MOVE PRSN-ENTY-ID-LAST-NINE-UT04 OF FUTWM04(0005) TO
                WK01-ENTY-ID-LAST-NN-UT045.
      *%--------------------------------------------------------------%*
           MOVE PRSN-ENTY-ID-LAST-NINE-UT04 OF FUTWM04(0006) TO
                WK01-ENTY-ID-LAST-NN-UT046.
      *%--------------------------------------------------------------%*
           MOVE PRSN-ENTY-ID-LAST-NINE-UT04 OF FUTWM04(0007) TO
                WK01-ENTY-ID-LAST-NN-UT047.
      *%--------------------------------------------------------------%*
           MOVE PRSN-ENTY-ID-LAST-NINE-UT04 OF FUTWM04(0008) TO
                WK01-ENTY-ID-LAST-NN-UT048.
      *%--------------------------------------------------------------%*
           MOVE PRSN-ENTY-ID-LAST-NINE-UT04 OF FUTWM04(0009) TO
                WK01-ENTY-ID-LAST-NN-UT049.
      *%--------------------------------------------------------------%*
           MOVE PRSN-ENTY-ID-LAST-NINE-UT04 OF FUTWM04(0010) TO
                WK01-ENTY-ID-LAST-NN-UT0410.
      *%--------------------------------------------------------------%*
           MOVE PRSN-ENTY-ID-LAST-NINE-UT04 OF FUTWM04(0011) TO
                WK01-ENTY-ID-LAST-NN-UT0411.
      *%--------------------------------------------------------------%*
           MOVE PRSN-ENTY-ID-LAST-NINE-UT04 OF FUTWM04(0012) TO
                WK01-ENTY-ID-LAST-NN-UT0412.
      *%--------------------------------------------------------------%*
           MOVE VNDR-FLAG-UT04 OF FUTWM04(0001) TO WK01-FLAG-UT041.
      *%--------------------------------------------------------------%*
           MOVE VNDR-FLAG-UT04 OF FUTWM04(0002) TO WK01-FLAG-UT042.
      *%--------------------------------------------------------------%*
           MOVE VNDR-FLAG-UT04 OF FUTWM04(0003) TO WK01-FLAG-UT043.
      *%--------------------------------------------------------------%*
           MOVE VNDR-FLAG-UT04 OF FUTWM04(0004) TO WK01-FLAG-UT044.
      *%--------------------------------------------------------------%*
           MOVE VNDR-FLAG-UT04 OF FUTWM04(0005) TO WK01-FLAG-UT045.
      *%--------------------------------------------------------------%*
           MOVE VNDR-FLAG-UT04 OF FUTWM04(0006) TO WK01-FLAG-UT046.
      *%--------------------------------------------------------------%*
           MOVE VNDR-FLAG-UT04 OF FUTWM04(0007) TO WK01-FLAG-UT047.
      *%--------------------------------------------------------------%*
           MOVE VNDR-FLAG-UT04 OF FUTWM04(0008) TO WK01-FLAG-UT048.
      *%--------------------------------------------------------------%*
           MOVE VNDR-FLAG-UT04 OF FUTWM04(0009) TO WK01-FLAG-UT049.
      *%--------------------------------------------------------------%*
           MOVE VNDR-FLAG-UT04 OF FUTWM04(0010) TO WK01-FLAG-UT0410.
      *%--------------------------------------------------------------%*
           MOVE VNDR-FLAG-UT04 OF FUTWM04(0011) TO WK01-FLAG-UT0411.
      *%--------------------------------------------------------------%*
           MOVE VNDR-FLAG-UT04 OF FUTWM04(0012) TO WK01-FLAG-UT0412.
      *%--------------------------------------------------------------%*
           MOVE FNCL-MGR-FLAG-UT04 OF FUTWM04(0001) TO
                WK01-MGR-FLAG-UT041.
      *%--------------------------------------------------------------%*
           MOVE FNCL-MGR-FLAG-UT04 OF FUTWM04(0002) TO
                WK01-MGR-FLAG-UT042.
      *%--------------------------------------------------------------%*
           MOVE FNCL-MGR-FLAG-UT04 OF FUTWM04(0003) TO
                WK01-MGR-FLAG-UT043.
      *%--------------------------------------------------------------%*
           MOVE FNCL-MGR-FLAG-UT04 OF FUTWM04(0004) TO
                WK01-MGR-FLAG-UT044.
      *%--------------------------------------------------------------%*
           MOVE FNCL-MGR-FLAG-UT04 OF FUTWM04(0005) TO
                WK01-MGR-FLAG-UT045.
      *%--------------------------------------------------------------%*
           MOVE FNCL-MGR-FLAG-UT04 OF FUTWM04(0006) TO
                WK01-MGR-FLAG-UT046.
      *%--------------------------------------------------------------%*
           MOVE FNCL-MGR-FLAG-UT04 OF FUTWM04(0007) TO
                WK01-MGR-FLAG-UT047.
      *%--------------------------------------------------------------%*
           MOVE FNCL-MGR-FLAG-UT04 OF FUTWM04(0008) TO
                WK01-MGR-FLAG-UT048.
      *%--------------------------------------------------------------%*
           MOVE FNCL-MGR-FLAG-UT04 OF FUTWM04(0009) TO
                WK01-MGR-FLAG-UT049.
      *%--------------------------------------------------------------%*
           MOVE FNCL-MGR-FLAG-UT04 OF FUTWM04(0010) TO
                WK01-MGR-FLAG-UT0410.
      *%--------------------------------------------------------------%*
           MOVE FNCL-MGR-FLAG-UT04 OF FUTWM04(0011) TO
                WK01-MGR-FLAG-UT0411.
      *%--------------------------------------------------------------%*
           MOVE FNCL-MGR-FLAG-UT04 OF FUTWM04(0012) TO
                WK01-MGR-FLAG-UT0412.
      *%--------------------------------------------------------------%*
      *%--------------------------------------------------------------%*
           MOVE CUST-FLAG-UT04 OF FUTWM04(0001) TO WK01-FLAG-UT0C1.
      *%--------------------------------------------------------------%*
           MOVE CUST-FLAG-UT04 OF FUTWM04(0002) TO WK01-FLAG-UT0C2.
      *%--------------------------------------------------------------%*
           MOVE CUST-FLAG-UT04 OF FUTWM04(0003) TO WK01-FLAG-UT0C3.
      *%--------------------------------------------------------------%*
           MOVE CUST-FLAG-UT04 OF FUTWM04(0004) TO WK01-FLAG-UT0C4.
      *%--------------------------------------------------------------%*
           MOVE CUST-FLAG-UT04 OF FUTWM04(0005) TO WK01-FLAG-UT0C5.
      *%--------------------------------------------------------------%*
           MOVE CUST-FLAG-UT04 OF FUTWM04(0006) TO WK01-FLAG-UT0C6.
      *%--------------------------------------------------------------%*
           MOVE CUST-FLAG-UT04 OF FUTWM04(0007) TO WK01-FLAG-UT0C7.
      *%--------------------------------------------------------------%*
           MOVE CUST-FLAG-UT04 OF FUTWM04(0008) TO WK01-FLAG-UT0C8.
      *%--------------------------------------------------------------%*
           MOVE CUST-FLAG-UT04 OF FUTWM04(0009) TO WK01-FLAG-UT0C9.
      *%--------------------------------------------------------------%*
           MOVE CUST-FLAG-UT04 OF FUTWM04(0010) TO WK01-FLAG-UT0C10.
      *%--------------------------------------------------------------%*
           MOVE CUST-FLAG-UT04 OF FUTWM04(0011) TO WK01-FLAG-UT0C11.
      *%--------------------------------------------------------------%*
           MOVE CUST-FLAG-UT04 OF FUTWM04(0012) TO WK01-FLAG-UT0C12.
      *%--------------------------------------------------------------%*
           MOVE TRVL-FLAG-UT04 OF FUTWM04(0001) TO WK01-FLAG-UT0D1.
      *%--------------------------------------------------------------%*
           MOVE TRVL-FLAG-UT04 OF FUTWM04(0002) TO WK01-FLAG-UT0D2.
      *%--------------------------------------------------------------%*
           MOVE TRVL-FLAG-UT04 OF FUTWM04(0003) TO WK01-FLAG-UT0D3.
      *%--------------------------------------------------------------%*
           MOVE TRVL-FLAG-UT04 OF FUTWM04(0004) TO WK01-FLAG-UT0D4.
      *%--------------------------------------------------------------%*
           MOVE TRVL-FLAG-UT04 OF FUTWM04(0005) TO WK01-FLAG-UT0D5.
      *%--------------------------------------------------------------%*
           MOVE TRVL-FLAG-UT04 OF FUTWM04(0006) TO WK01-FLAG-UT0D6.
      *%--------------------------------------------------------------%*
           MOVE TRVL-FLAG-UT04 OF FUTWM04(0007) TO WK01-FLAG-UT0D7.
      *%--------------------------------------------------------------%*
           MOVE TRVL-FLAG-UT04 OF FUTWM04(0008) TO WK01-FLAG-UT0D8.
      *%--------------------------------------------------------------%*
           MOVE TRVL-FLAG-UT04 OF FUTWM04(0009) TO WK01-FLAG-UT0D9.
      *%--------------------------------------------------------------%*
           MOVE TRVL-FLAG-UT04 OF FUTWM04(0010) TO WK01-FLAG-UT0D10.
      *%--------------------------------------------------------------%*
           MOVE TRVL-FLAG-UT04 OF FUTWM04(0011) TO WK01-FLAG-UT0D11.
      *%--------------------------------------------------------------%*
           MOVE TRVL-FLAG-UT04 OF FUTWM04(0012) TO WK01-FLAG-UT0D12.
      *%--------------------------------------------------------------%*
           MOVE BUYER-FLAG-UT04 OF FUTWM04(0001) TO WK01-FLAG-UT0E1.
      *%--------------------------------------------------------------%*
           MOVE BUYER-FLAG-UT04 OF FUTWM04(0002) TO WK01-FLAG-UT0E2.
      *%--------------------------------------------------------------%*
           MOVE BUYER-FLAG-UT04 OF FUTWM04(0003) TO WK01-FLAG-UT0E3.
      *%--------------------------------------------------------------%*
           MOVE BUYER-FLAG-UT04 OF FUTWM04(0004) TO WK01-FLAG-UT0E4.
      *%--------------------------------------------------------------%*
           MOVE BUYER-FLAG-UT04 OF FUTWM04(0005) TO WK01-FLAG-UT0E5.
      *%--------------------------------------------------------------%*
           MOVE BUYER-FLAG-UT04 OF FUTWM04(0006) TO WK01-FLAG-UT0E6.
      *%--------------------------------------------------------------%*
           MOVE BUYER-FLAG-UT04 OF FUTWM04(0007) TO WK01-FLAG-UT0E7.
      *%--------------------------------------------------------------%*
           MOVE BUYER-FLAG-UT04 OF FUTWM04(0008) TO WK01-FLAG-UT0E8.
      *%--------------------------------------------------------------%*
           MOVE BUYER-FLAG-UT04 OF FUTWM04(0009) TO WK01-FLAG-UT0E9.
      *%--------------------------------------------------------------%*
           MOVE BUYER-FLAG-UT04 OF FUTWM04(0010) TO WK01-FLAG-UT0E10.
      *%--------------------------------------------------------------%*
           MOVE BUYER-FLAG-UT04 OF FUTWM04(0011) TO WK01-FLAG-UT0E11.
      *%--------------------------------------------------------------%*
           MOVE BUYER-FLAG-UT04 OF FUTWM04(0012) TO WK01-FLAG-UT0E12.
