    ***Created by Convert/DC version V8R03 on 11/17/00 at 17:00***

      *%--------------------------------------------------------------%*
           MOVE DCLINK-MESSAGE  TO WK01-ZZMESSAGE.
      *%--------------------------------------------------------------%*
           MOVE AGR-DATE OF ADSO-APPLICATION-GLOBAL-RECORD TO WK01-DATE.
      *%--------------------------------------------------------------%*
           MOVE AGR-USER-ID OF ADSO-APPLICATION-GLOBAL-RECORD TO
                WK01-USER-ID.
      *%--------------------------------------------------------------%*
           MOVE AGR-FUNC-DESCRIPTION OF ADSO-APPLICATION-GLOBAL-RECORD
                TO WK01-FUNC-DESCRIPTION.
      *%--------------------------------------------------------------%*
           MOVE AGR-PASSED-ONE OF ADSO-APPLICATION-GLOBAL-RECORD TO
                WK01-PASSED-ONE.
      *%--------------------------------------------------------------%*
           MOVE AGR-MAP-RESPONSE OF ADSO-APPLICATION-GLOBAL-RECORD TO
                WK01-MAP-RESPONSE.
      *%--------------------------------------------------------------%*
           MOVE TRMNL-ID-SY00 OF FSYWG00M TO WK01-ID-SY00.
      *%--------------------------------------------------------------%*
           MOVE FULL-NAME-6001-SY00 OF FSYWG00M TO WK01-NAME-6001-SY00.
      *%--------------------------------------------------------------%*
           MOVE AM-PM-FLAG-SY00 OF FSYWG00M TO WK01-PM-FLAG-SY00.
      *%--------------------------------------------------------------%*
           MOVE CURR-RSPNS-ID-SY00 OF FSYWG00M TO WK01-RSPNS-ID-SY00.
      *%--------------------------------------------------------------%*
           MOVE ERROR-TEXT-SY00 OF FSYWG00M TO WK01-TEXT-SY00.
      *%--------------------------------------------------------------%*
           MOVE PAGE-STATUS-CODE-SY00 OF FSYWG00M TO
                WK01-STATUS-CODE-SY00.
      *%--------------------------------------------------------------%*
           MOVE WORK-HH-MM-TIME-SY00 OF FSYWG00M TO
                WK01-HH-MM-TIME-SY00.
      *%--------------------------------------------------------------%*
           MOVE USER-ID-UT18 OF FUTWK18 TO WK01-ID-UT18.
      *%--------------------------------------------------------------%*
           MOVE DCMNT-TYPE-UT18 OF FUTWK18 TO WK01-TYPE-UT18.
      *%--------------------------------------------------------------%*
           MOVE NAME-KEY-UT18 OF FUTWK18 TO WK01-KEY-UT18.
      *%--------------------------------------------------------------%*
           MOVE DCMNT-DESC-UT18 OF FUTWK18 TO WK01-DESC-UT18.
      *%--------------------------------------------------------------%*
           MOVE ACTN-CODE-UT18 OF FUTWM18(0001) TO WK01-CODE-UT181.
      *%--------------------------------------------------------------%*
           MOVE ACTN-CODE-UT18 OF FUTWM18(0002) TO WK01-CODE-UT182.
      *%--------------------------------------------------------------%*
           MOVE ACTN-CODE-UT18 OF FUTWM18(0003) TO WK01-CODE-UT183.
      *%--------------------------------------------------------------%*
           MOVE ACTN-CODE-UT18 OF FUTWM18(0004) TO WK01-CODE-UT184.
      *%--------------------------------------------------------------%*
           MOVE ACTN-CODE-UT18 OF FUTWM18(0005) TO WK01-CODE-UT185.
      *%--------------------------------------------------------------%*
           MOVE ACTN-CODE-UT18 OF FUTWM18(0006) TO WK01-CODE-UT186.
      *%--------------------------------------------------------------%*
           MOVE ACTN-CODE-UT18 OF FUTWM18(0007) TO WK01-CODE-UT187.
      *%--------------------------------------------------------------%*
           MOVE ACTN-CODE-UT18 OF FUTWM18(0008) TO WK01-CODE-UT188.
      *%--------------------------------------------------------------%*
           MOVE ACTN-CODE-UT18 OF FUTWM18(0009) TO WK01-CODE-UT189.
      *%--------------------------------------------------------------%*
           MOVE ACTN-CODE-UT18 OF FUTWM18(0010) TO WK01-CODE-UT1810.
      *%--------------------------------------------------------------%*
           MOVE ACTN-CODE-UT18 OF FUTWM18(0011) TO WK01-CODE-UT1811.
      *%--------------------------------------------------------------%*
           MOVE ACTN-CODE-UT18 OF FUTWM18(0012) TO WK01-CODE-UT1812.
      *%--------------------------------------------------------------%*
           MOVE DCMNT-TYPE-DATA-UT18 OF FUTWM18(0001) TO
                WK01-TYPE-DATA-UT181.
      *%--------------------------------------------------------------%*
           MOVE DCMNT-TYPE-DATA-UT18 OF FUTWM18(0002) TO
                WK01-TYPE-DATA-UT182.
      *%--------------------------------------------------------------%*
           MOVE DCMNT-TYPE-DATA-UT18 OF FUTWM18(0003) TO
                WK01-TYPE-DATA-UT183.
      *%--------------------------------------------------------------%*
           MOVE DCMNT-TYPE-DATA-UT18 OF FUTWM18(0004) TO
                WK01-TYPE-DATA-UT184.
      *%--------------------------------------------------------------%*
           MOVE DCMNT-TYPE-DATA-UT18 OF FUTWM18(0005) TO
                WK01-TYPE-DATA-UT185.
      *%--------------------------------------------------------------%*
           MOVE DCMNT-TYPE-DATA-UT18 OF FUTWM18(0006) TO
                WK01-TYPE-DATA-UT186.
      *%--------------------------------------------------------------%*
           MOVE DCMNT-TYPE-DATA-UT18 OF FUTWM18(0007) TO
                WK01-TYPE-DATA-UT187.
      *%--------------------------------------------------------------%*
           MOVE DCMNT-TYPE-DATA-UT18 OF FUTWM18(0008) TO
                WK01-TYPE-DATA-UT188.
      *%--------------------------------------------------------------%*
           MOVE DCMNT-TYPE-DATA-UT18 OF FUTWM18(0009) TO
                WK01-TYPE-DATA-UT189.
      *%--------------------------------------------------------------%*
           MOVE DCMNT-TYPE-DATA-UT18 OF FUTWM18(0010) TO
                WK01-TYPE-DATA-UT1810.
      *%--------------------------------------------------------------%*
           MOVE DCMNT-TYPE-DATA-UT18 OF FUTWM18(0011) TO
                WK01-TYPE-DATA-UT1811.
      *%--------------------------------------------------------------%*
           MOVE DCMNT-TYPE-DATA-UT18 OF FUTWM18(0012) TO
                WK01-TYPE-DATA-UT1812.
      *%--------------------------------------------------------------%*
           MOVE DCMNT-NMBR-UT18 OF FUTWM18(0001) TO WK01-NMBR-UT181.
      *%--------------------------------------------------------------%*
           MOVE DCMNT-NMBR-UT18 OF FUTWM18(0002) TO WK01-NMBR-UT182.
      *%--------------------------------------------------------------%*
           MOVE DCMNT-NMBR-UT18 OF FUTWM18(0003) TO WK01-NMBR-UT183.
      *%--------------------------------------------------------------%*
           MOVE DCMNT-NMBR-UT18 OF FUTWM18(0004) TO WK01-NMBR-UT184.
      *%--------------------------------------------------------------%*
           MOVE DCMNT-NMBR-UT18 OF FUTWM18(0005) TO WK01-NMBR-UT185.
      *%--------------------------------------------------------------%*
           MOVE DCMNT-NMBR-UT18 OF FUTWM18(0006) TO WK01-NMBR-UT186.
      *%--------------------------------------------------------------%*
           MOVE DCMNT-NMBR-UT18 OF FUTWM18(0007) TO WK01-NMBR-UT187.
      *%--------------------------------------------------------------%*
           MOVE DCMNT-NMBR-UT18 OF FUTWM18(0008) TO WK01-NMBR-UT188.
      *%--------------------------------------------------------------%*
           MOVE DCMNT-NMBR-UT18 OF FUTWM18(0009) TO WK01-NMBR-UT189.
      *%--------------------------------------------------------------%*
           MOVE DCMNT-NMBR-UT18 OF FUTWM18(0010) TO WK01-NMBR-UT1810.
      *%--------------------------------------------------------------%*
           MOVE DCMNT-NMBR-UT18 OF FUTWM18(0011) TO WK01-NMBR-UT1811.
      *%--------------------------------------------------------------%*
           MOVE DCMNT-NMBR-UT18 OF FUTWM18(0012) TO WK01-NMBR-UT1812.
      *%--------------------------------------------------------------%*
           MOVE CHNG-SEQ-NMBR-UT18 OF FUTWM18(0001) TO
                WK01-SEQ-NMBR-UT181.
      *%--------------------------------------------------------------%*
           MOVE CHNG-SEQ-NMBR-UT18 OF FUTWM18(0002) TO
                WK01-SEQ-NMBR-UT182.
      *%--------------------------------------------------------------%*
           MOVE CHNG-SEQ-NMBR-UT18 OF FUTWM18(0003) TO
                WK01-SEQ-NMBR-UT183.
      *%--------------------------------------------------------------%*
           MOVE CHNG-SEQ-NMBR-UT18 OF FUTWM18(0004) TO
                WK01-SEQ-NMBR-UT184.
      *%--------------------------------------------------------------%*
           MOVE CHNG-SEQ-NMBR-UT18 OF FUTWM18(0005) TO
                WK01-SEQ-NMBR-UT185.
      *%--------------------------------------------------------------%*
           MOVE CHNG-SEQ-NMBR-UT18 OF FUTWM18(0006) TO
                WK01-SEQ-NMBR-UT186.
      *%--------------------------------------------------------------%*
           MOVE CHNG-SEQ-NMBR-UT18 OF FUTWM18(0007) TO
                WK01-SEQ-NMBR-UT187.
      *%--------------------------------------------------------------%*
           MOVE CHNG-SEQ-NMBR-UT18 OF FUTWM18(0008) TO
                WK01-SEQ-NMBR-UT188.
      *%--------------------------------------------------------------%*
           MOVE CHNG-SEQ-NMBR-UT18 OF FUTWM18(0009) TO
                WK01-SEQ-NMBR-UT189.
      *%--------------------------------------------------------------%*
           MOVE CHNG-SEQ-NMBR-UT18 OF FUTWM18(0010) TO
                WK01-SEQ-NMBR-UT1810.
      *%--------------------------------------------------------------%*
           MOVE CHNG-SEQ-NMBR-UT18 OF FUTWM18(0011) TO
                WK01-SEQ-NMBR-UT1811.
      *%--------------------------------------------------------------%*
           MOVE CHNG-SEQ-NMBR-UT18 OF FUTWM18(0012) TO
                WK01-SEQ-NMBR-UT1812.
      *%--------------------------------------------------------------%*
           MOVE APRVL-DATE-UT18 OF FUTWM18(0001) TO WK01-DATE-UT181.
      *%--------------------------------------------------------------%*
           MOVE APRVL-DATE-UT18 OF FUTWM18(0002) TO WK01-DATE-UT182.
      *%--------------------------------------------------------------%*
           MOVE APRVL-DATE-UT18 OF FUTWM18(0003) TO WK01-DATE-UT183.
      *%--------------------------------------------------------------%*
           MOVE APRVL-DATE-UT18 OF FUTWM18(0004) TO WK01-DATE-UT184.
      *%--------------------------------------------------------------%*
           MOVE APRVL-DATE-UT18 OF FUTWM18(0005) TO WK01-DATE-UT185.
      *%--------------------------------------------------------------%*
           MOVE APRVL-DATE-UT18 OF FUTWM18(0006) TO WK01-DATE-UT186.
      *%--------------------------------------------------------------%*
           MOVE APRVL-DATE-UT18 OF FUTWM18(0007) TO WK01-DATE-UT187.
      *%--------------------------------------------------------------%*
           MOVE APRVL-DATE-UT18 OF FUTWM18(0008) TO WK01-DATE-UT188.
      *%--------------------------------------------------------------%*
           MOVE APRVL-DATE-UT18 OF FUTWM18(0009) TO WK01-DATE-UT189.
      *%--------------------------------------------------------------%*
           MOVE APRVL-DATE-UT18 OF FUTWM18(0010) TO WK01-DATE-UT1810.
      *%--------------------------------------------------------------%*
           MOVE APRVL-DATE-UT18 OF FUTWM18(0011) TO WK01-DATE-UT1811.
      *%--------------------------------------------------------------%*
           MOVE APRVL-DATE-UT18 OF FUTWM18(0012) TO WK01-DATE-UT1812.
      *%--------------------------------------------------------------%*
           MOVE APRVL-TIME-UT18 OF FUTWM18(0001) TO WK01-TIME-UT181.
      *%--------------------------------------------------------------%*
           MOVE APRVL-TIME-UT18 OF FUTWM18(0002) TO WK01-TIME-UT182.
      *%--------------------------------------------------------------%*
           MOVE APRVL-TIME-UT18 OF FUTWM18(0003) TO WK01-TIME-UT183.
      *%--------------------------------------------------------------%*
           MOVE APRVL-TIME-UT18 OF FUTWM18(0004) TO WK01-TIME-UT184.
      *%--------------------------------------------------------------%*
           MOVE APRVL-TIME-UT18 OF FUTWM18(0005) TO WK01-TIME-UT185.
      *%--------------------------------------------------------------%*
           MOVE APRVL-TIME-UT18 OF FUTWM18(0006) TO WK01-TIME-UT186.
      *%--------------------------------------------------------------%*
           MOVE APRVL-TIME-UT18 OF FUTWM18(0007) TO WK01-TIME-UT187.
      *%--------------------------------------------------------------%*
           MOVE APRVL-TIME-UT18 OF FUTWM18(0008) TO WK01-TIME-UT188.
      *%--------------------------------------------------------------%*
           MOVE APRVL-TIME-UT18 OF FUTWM18(0009) TO WK01-TIME-UT189.
      *%--------------------------------------------------------------%*
           MOVE APRVL-TIME-UT18 OF FUTWM18(0010) TO WK01-TIME-UT1810.
      *%--------------------------------------------------------------%*
           MOVE APRVL-TIME-UT18 OF FUTWM18(0011) TO WK01-TIME-UT1811.
      *%--------------------------------------------------------------%*
           MOVE APRVL-TIME-UT18 OF FUTWM18(0012) TO WK01-TIME-UT1812.
      *%--------------------------------------------------------------%*
           MOVE APRVL-ID-UT18 OF FUTWM18(0001) TO WK01-ID-UT1A11.
      *%--------------------------------------------------------------%*
           MOVE APRVL-ID-UT18 OF FUTWM18(0002) TO WK01-ID-UT1A12.
      *%--------------------------------------------------------------%*
           MOVE APRVL-ID-UT18 OF FUTWM18(0003) TO WK01-ID-UT1A13.
      *%--------------------------------------------------------------%*
           MOVE APRVL-ID-UT18 OF FUTWM18(0004) TO WK01-ID-UT1A14.
      *%--------------------------------------------------------------%*
           MOVE APRVL-ID-UT18 OF FUTWM18(0005) TO WK01-ID-UT1A15.
      *%--------------------------------------------------------------%*
           MOVE APRVL-ID-UT18 OF FUTWM18(0006) TO WK01-ID-UT1A16.
      *%--------------------------------------------------------------%*
           MOVE APRVL-ID-UT18 OF FUTWM18(0007) TO WK01-ID-UT1A17.
      *%--------------------------------------------------------------%*
           MOVE APRVL-ID-UT18 OF FUTWM18(0008) TO WK01-ID-UT1A18.
      *%--------------------------------------------------------------%*
           MOVE APRVL-ID-UT18 OF FUTWM18(0009) TO WK01-ID-UT1A19.
      *%--------------------------------------------------------------%*
           MOVE APRVL-ID-UT18 OF FUTWM18(0010) TO WK01-ID-UT1A110.
      *%--------------------------------------------------------------%*
           MOVE APRVL-ID-UT18 OF FUTWM18(0011) TO WK01-ID-UT1A111.
      *%--------------------------------------------------------------%*
           MOVE APRVL-ID-UT18 OF FUTWM18(0012) TO WK01-ID-UT1A112.
      *%--------------------------------------------------------------%*
           MOVE DCMNT-AMT-UT18 OF FUTWM18(0001) TO WK01-AMT-UT181.
      *%--------------------------------------------------------------%*
           MOVE DCMNT-AMT-UT18 OF FUTWM18(0002) TO WK01-AMT-UT182.
      *%--------------------------------------------------------------%*
           MOVE DCMNT-AMT-UT18 OF FUTWM18(0003) TO WK01-AMT-UT183.
      *%--------------------------------------------------------------%*
           MOVE DCMNT-AMT-UT18 OF FUTWM18(0004) TO WK01-AMT-UT184.
      *%--------------------------------------------------------------%*
           MOVE DCMNT-AMT-UT18 OF FUTWM18(0005) TO WK01-AMT-UT185.
      *%--------------------------------------------------------------%*
           MOVE DCMNT-AMT-UT18 OF FUTWM18(0006) TO WK01-AMT-UT186.
      *%--------------------------------------------------------------%*
           MOVE DCMNT-AMT-UT18 OF FUTWM18(0007) TO WK01-AMT-UT187.
      *%--------------------------------------------------------------%*
           MOVE DCMNT-AMT-UT18 OF FUTWM18(0008) TO WK01-AMT-UT188.
      *%--------------------------------------------------------------%*
           MOVE DCMNT-AMT-UT18 OF FUTWM18(0009) TO WK01-AMT-UT189.
      *%--------------------------------------------------------------%*
           MOVE DCMNT-AMT-UT18 OF FUTWM18(0010) TO WK01-AMT-UT1810.
      *%--------------------------------------------------------------%*
           MOVE DCMNT-AMT-UT18 OF FUTWM18(0011) TO WK01-AMT-UT1811.
      *%--------------------------------------------------------------%*
           MOVE DCMNT-AMT-UT18 OF FUTWM18(0012) TO WK01-AMT-UT1812.
      *%--------------------------------------------------------------%*
           MOVE APRVL-ID-CURR-UT18 OF FUTWM18(0001) TO
                WK01-ID-CURR-UT181.
      *%--------------------------------------------------------------%*
           MOVE APRVL-ID-CURR-UT18 OF FUTWM18(0002) TO
                WK01-ID-CURR-UT182.
      *%--------------------------------------------------------------%*
           MOVE APRVL-ID-CURR-UT18 OF FUTWM18(0003) TO
                WK01-ID-CURR-UT183.
      *%--------------------------------------------------------------%*
           MOVE APRVL-ID-CURR-UT18 OF FUTWM18(0004) TO
                WK01-ID-CURR-UT184.
      *%--------------------------------------------------------------%*
           MOVE APRVL-ID-CURR-UT18 OF FUTWM18(0005) TO
                WK01-ID-CURR-UT185.
      *%--------------------------------------------------------------%*
           MOVE APRVL-ID-CURR-UT18 OF FUTWM18(0006) TO
                WK01-ID-CURR-UT186.
      *%--------------------------------------------------------------%*
           MOVE APRVL-ID-CURR-UT18 OF FUTWM18(0007) TO
                WK01-ID-CURR-UT187.
      *%--------------------------------------------------------------%*
           MOVE APRVL-ID-CURR-UT18 OF FUTWM18(0008) TO
                WK01-ID-CURR-UT188.
      *%--------------------------------------------------------------%*
           MOVE APRVL-ID-CURR-UT18 OF FUTWM18(0009) TO
                WK01-ID-CURR-UT189.
      *%--------------------------------------------------------------%*
           MOVE APRVL-ID-CURR-UT18 OF FUTWM18(0010) TO
                WK01-ID-CURR-UT1810.
      *%--------------------------------------------------------------%*
           MOVE APRVL-ID-CURR-UT18 OF FUTWM18(0011) TO
                WK01-ID-CURR-UT1811.
      *%--------------------------------------------------------------%*
           MOVE APRVL-ID-CURR-UT18 OF FUTWM18(0012) TO
                WK01-ID-CURR-UT1812.
      *%--------------------------------------------------------------%*
           MOVE ACTG-PRD-UT18 OF FUTWK18 TO WK01-PRD-UT18.
      *%--------------------------------------------------------------%*
           MOVE RQST-RQST-CODE-UT18 OF FUTWK18 TO WK01-RQST-CODE-UT18.
      *%--------------------------------------------------------------%*
           MOVE ALT-FUNC-UT18 OF FUTWK18 TO WK01-ALT-UT18.
