       975-TO-ELEMSYN-085 SECTION.
           MOVE ELS-ES-NAME TO
               ES-NAME-085 OF ELEMSYN-085
                                                                     .
           MOVE ELS-ES-GROUP TO
               ES-GROUP-085 OF ELEMSYN-085
                                                                     .
           MOVE ELS-BUILDER TO
               BUILDER-085 OF ELEMSYN-085
                                                                     .
           MOVE ELS-SYN-TYPE TO
               SYN-TYPE-085 OF ELEMSYN-085
                                                                     .
       975-TO-ELEMSYN-085-EXIT.
           EXIT.
