       976-FROM-R4417-ADVNC-TYPE SECTION.

FCYI **        MOVE USER-CODE-4417 OF R4417-ADVNC-TYPE
FCYI           MOVE DBLINK-USER-CD
               TO AVT-USER-CD.

               MOVE LAST-ACTVY-DATE-4417 OF R4417-ADVNC-TYPE
               TO AVT-LAST-ACTVY-DT.

               MOVE UNVRS-CODE-4417 OF R4417-ADVNC-TYPE
               TO AVT-UNVRS-CD.

               MOVE ADVNC-TYPE-4417 OF R4417-ADVNC-TYPE
               TO AVT-ADVNC-TYP.

               MOVE SHORT-DESC-4417 OF R4417-ADVNC-TYPE
               TO AVT-SHORT-DESC.

               MOVE STNDD-LONG-DESC-4417 OF R4417-ADVNC-TYPE
               TO AVT-STD-LONG-DESC.

               MOVE RULE-CLASS-CODE-4417 OF R4417-ADVNC-TYPE
               TO AVT-RULE-CLS-CD.

               MOVE COA-CODE-4417 OF R4417-ADVNC-TYPE
               TO AVT-COA-CD.

               MOVE ACCT-INDX-CODE-4417 OF R4417-ADVNC-TYPE
               TO AVT-ACCT-INDX-CD.

               MOVE FUND-CODE-4417 OF R4417-ADVNC-TYPE
               TO AVT-FUND-CD.

               MOVE ORGZN-CODE-4417 OF R4417-ADVNC-TYPE
               TO AVT-ORGN-CD.

               MOVE ACCT-CODE-4417 OF R4417-ADVNC-TYPE
               TO AVT-ACCT-CD.

               MOVE PRGRM-CODE-4417 OF R4417-ADVNC-TYPE
               TO AVT-PRGRM-CD.

               MOVE ACTVY-CODE-4417 OF R4417-ADVNC-TYPE
               TO AVT-ACTVY-CD.

               MOVE LCTN-CODE-4417 OF R4417-ADVNC-TYPE
               TO AVT-LCTN-CD.

               MOVE BANK-ACCT-CODE-4417 OF R4417-ADVNC-TYPE
               TO AVT-BANK-ACCT-CD.

               MOVE IMMDT-CHECK-IND-4417 OF R4417-ADVNC-TYPE
               TO AVT-IMMDT-CHECK-IND.

               MOVE BATCH-CHECK-IND-4417 OF R4417-ADVNC-TYPE
               TO AVT-BATCH-CHECK-IND.

               MOVE MNL-CHECK-IND-4417 OF R4417-ADVNC-TYPE
               TO AVT-MNL-CHECK-IND.

               MOVE CASH-IND-4417 OF R4417-ADVNC-TYPE
               TO AVT-CASH-IND.
       976-FROM-R4417-ADVNC-TYPE-EXIT.
           EXIT.
