       976-FROM-R4193-CLOSE-LDGR SECTION.

FCCCE**        MOVE USER-CODE-4193 OF R4193-CLOSE-LDGR
FCCCE          MOVE DBLINK-USER-CD
               TO CLS-USER-CD.

               MOVE LAST-ACTVY-DATE-4193 OF R4193-CLOSE-LDGR
               TO CLS-LAST-ACTVY-DT.

               MOVE UNVRS-CODE-4193 OF R4193-CLOSE-LDGR
               TO CLS-UNVRS-CD.

               MOVE COA-CODE-4193 OF R4193-CLOSE-LDGR
               TO CLS-COA-CD.

               MOVE FSCL-YR-4193 OF R4193-CLOSE-LDGR
               TO CLS-FSCL-YR.

           IF ACTVY-DATE-4193 OF R4193-CLOSE-LDGR  NOT NUMERIC
               MOVE DBLINKX-NULL-DB2-DATE-ISO TO CLS-ACTVY-DT
           ELSE
               MOVE ACTVY-DATE-4193 OF R4193-CLOSE-LDGR
               TO DBLINKX-INPUT-08
               MOVE '1' TO DBLINKX-REQUEST-CODE
               MOVE '1' TO DBLINKX-DB2-DATE-FORMAT
               MOVE '01' TO DBLINKX-IDMS-DATE-FORMAT
               CALL 'IDDTECNV' USING DBLINKX-DATE-TIME-PARMS
               IF DBLINKX-OK
                   MOVE DBLINKX-OUTPUT-PARM
                   TO CLS-ACTVY-DT
               ELSE
                   MOVE DBLINKX-NULL-DB2-DATE-ISO
                   TO CLS-ACTVY-DT
               END-IF
           END-IF.

           IF BAL-FRWRD-SCHDL-DATE-4193 OF R4193-CLOSE-LDGR
                NOT NUMERIC
               MOVE DBLINKX-NULL-DB2-DATE-ISO TO CLS-BAL-FWD-SCHDL-DT
           ELSE
               MOVE BAL-FRWRD-SCHDL-DATE-4193 OF R4193-CLOSE-LDGR
               TO DBLINKX-INPUT-08
               MOVE '1' TO DBLINKX-REQUEST-CODE
               MOVE '01' TO DBLINKX-IDMS-DATE-FORMAT
               CALL 'IDDTECNV' USING DBLINKX-DATE-TIME-PARMS
               IF DBLINKX-OK
                   MOVE DBLINKX-OUTPUT-PARM
                   TO CLS-BAL-FWD-SCHDL-DT
               ELSE
                   MOVE DBLINKX-NULL-DB2-DATE-ISO
                   TO CLS-BAL-FWD-SCHDL-DT
               END-IF
           END-IF.

           IF BAL-FRWRD-PRFMD-DATE-4193 OF R4193-CLOSE-LDGR
                NOT NUMERIC
               MOVE DBLINKX-NULL-DB2-DATE-ISO TO CLS-BAL-FWD-PRFMD-DT
           ELSE
               MOVE BAL-FRWRD-PRFMD-DATE-4193 OF R4193-CLOSE-LDGR
               TO DBLINKX-INPUT-08
               MOVE '1' TO DBLINKX-REQUEST-CODE
               MOVE '01' TO DBLINKX-IDMS-DATE-FORMAT
               CALL 'IDDTECNV' USING DBLINKX-DATE-TIME-PARMS
               IF DBLINKX-OK
                   MOVE DBLINKX-OUTPUT-PARM
                   TO CLS-BAL-FWD-PRFMD-DT
               ELSE
                   MOVE DBLINKX-NULL-DB2-DATE-ISO
                   TO CLS-BAL-FWD-PRFMD-DT
               END-IF
           END-IF.

           IF ENCMBRNC-SCHDL-DATE-4193 OF R4193-CLOSE-LDGR
                NOT NUMERIC
               MOVE DBLINKX-NULL-DB2-DATE-ISO TO CLS-ENCMBR-SCHDL-DT
           ELSE
               MOVE ENCMBRNC-SCHDL-DATE-4193 OF R4193-CLOSE-LDGR
               TO DBLINKX-INPUT-08
               MOVE '1' TO DBLINKX-REQUEST-CODE
               MOVE '01' TO DBLINKX-IDMS-DATE-FORMAT
               CALL 'IDDTECNV' USING DBLINKX-DATE-TIME-PARMS
               IF DBLINKX-OK
                   MOVE DBLINKX-OUTPUT-PARM
                   TO CLS-ENCMBR-SCHDL-DT
               ELSE
                   MOVE DBLINKX-NULL-DB2-DATE-ISO
                   TO CLS-ENCMBR-SCHDL-DT
               END-IF
           END-IF.

           IF ENCMBRNC-PRFMD-DATE-4193 OF R4193-CLOSE-LDGR
                NOT NUMERIC
               MOVE DBLINKX-NULL-DB2-DATE-ISO TO CLS-ENCMBR-PRFMD-DT
           ELSE
               MOVE ENCMBRNC-PRFMD-DATE-4193 OF R4193-CLOSE-LDGR
               TO DBLINKX-INPUT-08
               MOVE '1' TO DBLINKX-REQUEST-CODE
               MOVE '01' TO DBLINKX-IDMS-DATE-FORMAT
               CALL 'IDDTECNV' USING DBLINKX-DATE-TIME-PARMS
               IF DBLINKX-OK
                   MOVE DBLINKX-OUTPUT-PARM
                   TO CLS-ENCMBR-PRFMD-DT
               ELSE
                   MOVE DBLINKX-NULL-DB2-DATE-ISO
                   TO CLS-ENCMBR-PRFMD-DT
               END-IF
           END-IF.

           IF BDGT-SCHDL-DATE-4193 OF R4193-CLOSE-LDGR  NOT NUMERIC
               MOVE DBLINKX-NULL-DB2-DATE-ISO TO CLS-BDGT-SCHDL-DT
           ELSE
               MOVE BDGT-SCHDL-DATE-4193 OF R4193-CLOSE-LDGR
               TO DBLINKX-INPUT-08
               MOVE '1' TO DBLINKX-REQUEST-CODE
               MOVE '01' TO DBLINKX-IDMS-DATE-FORMAT
               CALL 'IDDTECNV' USING DBLINKX-DATE-TIME-PARMS
               IF DBLINKX-OK
                   MOVE DBLINKX-OUTPUT-PARM
                   TO CLS-BDGT-SCHDL-DT
               ELSE
                   MOVE DBLINKX-NULL-DB2-DATE-ISO
                   TO CLS-BDGT-SCHDL-DT
               END-IF
           END-IF.

           IF BDGT-PRFMD-DATE-4193 OF R4193-CLOSE-LDGR  NOT NUMERIC
               MOVE DBLINKX-NULL-DB2-DATE-ISO TO CLS-BDGT-PRFMD-DT
           ELSE
               MOVE BDGT-PRFMD-DATE-4193 OF R4193-CLOSE-LDGR
               TO DBLINKX-INPUT-08
               MOVE '1' TO DBLINKX-REQUEST-CODE
               MOVE '01' TO DBLINKX-IDMS-DATE-FORMAT
               CALL 'IDDTECNV' USING DBLINKX-DATE-TIME-PARMS
               IF DBLINKX-OK
                   MOVE DBLINKX-OUTPUT-PARM
                   TO CLS-BDGT-PRFMD-DT
               ELSE
                   MOVE DBLINKX-NULL-DB2-DATE-ISO
                   TO CLS-BDGT-PRFMD-DT
               END-IF
           END-IF.

           IF CLOSE-OAL-SCHDL-DATE-4193 OF R4193-CLOSE-LDGR
                NOT NUMERIC
               MOVE DBLINKX-NULL-DB2-DATE-ISO TO CLS-CLOSE-OAL-SCHDL-DT
           ELSE
               MOVE CLOSE-OAL-SCHDL-DATE-4193 OF R4193-CLOSE-LDGR
               TO DBLINKX-INPUT-08
               MOVE '1' TO DBLINKX-REQUEST-CODE
               MOVE '01' TO DBLINKX-IDMS-DATE-FORMAT
               CALL 'IDDTECNV' USING DBLINKX-DATE-TIME-PARMS
               IF DBLINKX-OK
                   MOVE DBLINKX-OUTPUT-PARM
                   TO CLS-CLOSE-OAL-SCHDL-DT
               ELSE
                   MOVE DBLINKX-NULL-DB2-DATE-ISO
                   TO CLS-CLOSE-OAL-SCHDL-DT
               END-IF
           END-IF.

           IF CLOSE-OAL-PRFMD-DATE-4193 OF R4193-CLOSE-LDGR
                NOT NUMERIC
               MOVE DBLINKX-NULL-DB2-DATE-ISO TO CLS-CLOSE-OAL-PRFMD-DT
           ELSE
               MOVE CLOSE-OAL-PRFMD-DATE-4193 OF R4193-CLOSE-LDGR
               TO DBLINKX-INPUT-08
               MOVE '1' TO DBLINKX-REQUEST-CODE
               MOVE '01' TO DBLINKX-IDMS-DATE-FORMAT
               CALL 'IDDTECNV' USING DBLINKX-DATE-TIME-PARMS
               IF DBLINKX-OK
                   MOVE DBLINKX-OUTPUT-PARM
                   TO CLS-CLOSE-OAL-PRFMD-DT
               ELSE
                   MOVE DBLINKX-NULL-DB2-DATE-ISO
                   TO CLS-CLOSE-OAL-PRFMD-DT
               END-IF
           END-IF.

               MOVE BAL-FRWRD-DCMNT-NMBR-4193 OF R4193-CLOSE-LDGR
               TO CLS-BAL-FWD-DOC-NBR.
       976-FROM-R4193-CLOSE-LDGR-EXIT.
           EXIT.
