       976-FROM-PFLD-DATA-147 SECTION.

               MOVE NEXT-DEV-147 OF PFLD-DATA-147
               TO PFD-NEXT-DEV.

               MOVE LIT-POOL-OFFSET-147 OF PFLD-DATA-147
               TO PFD-LIT-POOL-OFFST.

               MOVE LIT-POOL-LEN-147 OF PFLD-DATA-147
               TO PFD-LIT-POOL-LEN.

               MOVE DEV-FLAG-147 OF PFLD-DATA-147
               TO PFD-DEV-FLAG.

               MOVE DEV-ENTRY-FLAG-147 OF PFLD-DATA-147
               TO PFD-DEV-ENTRY-FLAG.

               MOVE ATTR-FLAG-147 OF PFLD-DATA-147
               TO PFD-ATTR-FLAG.

               MOVE OUTLINE-FLAG-147 OF PFLD-DATA-147
               TO PFD-OUTLINE-FLAG.

               MOVE EXT-HGLT-FLAG-147 OF PFLD-DATA-147
               TO PFD-EXT-HGLT-FLAG.

               MOVE EXT-COLOR-FLAG-147 OF PFLD-DATA-147
               TO PFD-EXT-COLOR-FLAG.

               MOVE PFLD-INFO-147 OF PFLD-DATA-147
               TO PFD-PFLD-INFO.
       976-FROM-PFLD-DATA-147-EXIT.
           EXIT.
