       976-FROM-R4005-FUND-EFCTV SECTION.

FCCCE**        MOVE USER-CODE-4005 OF R4005-FUND-EFCTV
FCCCE          MOVE DBLINK-USER-CD
               TO FDE-USER-CD.

               MOVE LAST-ACTVY-DATE-4005 OF R4005-FUND-EFCTV
               TO FDE-LAST-ACTVY-DT.

           IF START-DATE-4005 OF R4005-FUND-EFCTV  NOT NUMERIC
               MOVE DBLINKX-NULL-DB2-DATE-ISO TO FDE-START-DT
           ELSE
               MOVE START-DATE-4005 OF R4005-FUND-EFCTV
               TO DBLINKX-INPUT-08
               MOVE '1' TO DBLINKX-REQUEST-CODE
               MOVE '1' TO DBLINKX-DB2-DATE-FORMAT
               MOVE '01' TO DBLINKX-IDMS-DATE-FORMAT
               CALL 'IDDTECNV' USING DBLINKX-DATE-TIME-PARMS
               IF DBLINKX-OK
                   MOVE DBLINKX-OUTPUT-PARM
                   TO FDE-START-DT
               ELSE
                   MOVE DBLINKX-NULL-DB2-DATE-ISO
                   TO FDE-START-DT
               END-IF
           END-IF.

               MOVE TIME-STAMP-4005 OF R4005-FUND-EFCTV
               TO DBLINKX-INPUT-PARM
           MOVE '3' TO DBLINKX-REQUEST-CODE
           MOVE '1' TO DBLINKX-DB2-TIME-FORMAT
           MOVE '51' TO DBLINKX-IDMS-TIME-FORMAT
           CALL 'IDDTECNV' USING DBLINKX-DATE-TIME-PARMS
           IF DBLINKX-OK
               MOVE DBLINKX-OUTPUT-PARM
               TO FDE-TIME-STMP
           ELSE
               MOVE DBLINKX-NULL-DB2-TIME-ISO
               TO FDE-TIME-STMP
           END-IF.

           IF END-DATE-4005 OF R4005-FUND-EFCTV  NOT NUMERIC
               MOVE DBLINKX-NULL-DB2-DATE-ISO TO FDE-END-DT
           ELSE
               MOVE END-DATE-4005 OF R4005-FUND-EFCTV
               TO DBLINKX-INPUT-08
               MOVE '1' TO DBLINKX-REQUEST-CODE
               MOVE '01' TO DBLINKX-IDMS-DATE-FORMAT
               CALL 'IDDTECNV' USING DBLINKX-DATE-TIME-PARMS
               IF DBLINKX-OK
                   MOVE DBLINKX-OUTPUT-PARM
                   TO FDE-END-DT
               ELSE
                   MOVE DBLINKX-NULL-DB2-DATE-ISO
                   TO FDE-END-DT
               END-IF
           END-IF.

               MOVE STATUS-4005 OF R4005-FUND-EFCTV
               TO FDE-STATUS.

               MOVE DATA-ENTRY-IND-4005 OF R4005-FUND-EFCTV
               TO FDE-DATA-ENTRY-IND.

               MOVE FUND-CODE-4005 OF R4005-FUND-EFCTV
               TO FDE-FUND-CD.

               MOVE FUND-TITLE-4005 OF R4005-FUND-EFCTV
               TO FDE-FUND-TITLE.

               MOVE PREDCSR-CODE-4005 OF R4005-FUND-EFCTV
               TO FDE-PREDCSR-CD.

               MOVE FUND-TYPE-CODE-4005 OF R4005-FUND-EFCTV
               TO FDE-FUND-TYP-CD.

               MOVE FDRL-FLOW-THRGH-IND-4005 OF R4005-FUND-EFCTV
               TO FDE-FDRL-FLW-THRGH-IND.

               MOVE RVNU-ACCT-4005 OF R4005-FUND-EFCTV
               TO FDE-RVNU-ACCT.

               MOVE ACRL-ACCT-4005 OF R4005-FUND-EFCTV
               TO FDE-ACRL-ACCT.

               MOVE CPTLZN-ACCT-CODE-4005 OF R4005-FUND-EFCTV
               TO FDE-CPTLZN-ACCT-CD.

               MOVE CPTLZN-FUND-CODE-4005 OF R4005-FUND-EFCTV
               TO FDE-CPTLZN-FUND-CD.

               MOVE DFLT-ORGZN-CODE-4005 OF R4005-FUND-EFCTV
               TO FDE-DFLT-ORGN-CD.

               MOVE DFLT-PRGRM-CODE-4005 OF R4005-FUND-EFCTV
               TO FDE-DFLT-PRGRM-CD.

               MOVE DFLT-ACTVY-CODE-4005 OF R4005-FUND-EFCTV
               TO FDE-DFLT-ACTVY-CD.

               MOVE DFLT-LCTN-CODE-4005 OF R4005-FUND-EFCTV
               TO FDE-DFLT-LCTN-CD.

               MOVE BANK-ACCT-CODE-4005 OF R4005-FUND-EFCTV
               TO FDE-BANK-ACCT-CD.

           IF CUM-AUTH-AMT-4005 OF R4005-FUND-EFCTV  NOT NUMERIC
               MOVE ZEROS TO FDE-CUM-AUTH-AMT
           ELSE
               MOVE CUM-AUTH-AMT-4005 OF R4005-FUND-EFCTV
               TO FDE-CUM-AUTH-AMT
           END-IF.

               MOVE GRANT-CNTRCT-NMBR-4005 OF R4005-FUND-EFCTV
               TO FDE-GRNT-CNTRCT-NBR.

               MOVE PMS-CODE-4005 OF R4005-FUND-EFCTV
               TO FDE-PMS-CD.

               MOVE RPRT-CYCLE-4005 OF R4005-FUND-EFCTV
               TO FDE-RPRT-CYCLE.

               MOVE BLLNG-FRMT-4005 OF R4005-FUND-EFCTV
               TO FDE-BLLNG-FRMT.

           IF ATHRD-FNDNG-AMT-4005 OF R4005-FUND-EFCTV  NOT NUMERIC
               MOVE ZEROS TO FDE-ATHRD-FNDNG-AMT
           ELSE
               MOVE ATHRD-FNDNG-AMT-4005 OF R4005-FUND-EFCTV
               TO FDE-ATHRD-FNDNG-AMT
           END-IF.

               MOVE PAY-MTHD-CODE-4005 OF R4005-FUND-EFCTV
               TO FDE-PAY-MTHD-CD.

               MOVE GRANT-COST-SHARE-4005 OF R4005-FUND-EFCTV
               TO FDE-GRANT-COST-SHR.

           IF GRANT-COST-SHARE-AMT-4005 OF R4005-FUND-EFCTV
                NOT NUMERIC
               MOVE ZEROS TO FDE-GRNT-COST-SHR-AMT
           ELSE
               MOVE GRANT-COST-SHARE-AMT-4005 OF R4005-FUND-EFCTV
               TO FDE-GRNT-COST-SHR-AMT
           END-IF.

               MOVE GRANT-INDRT-COST-4005 OF R4005-FUND-EFCTV
               TO FDE-GRNT-INDRT-COST.

           IF ESTMD-CMPLN-DATE-4005 OF R4005-FUND-EFCTV  NOT NUMERIC
               MOVE DBLINKX-NULL-DB2-DATE-ISO TO FDE-ESTMD-CMPLN-DT
           ELSE
               MOVE ESTMD-CMPLN-DATE-4005 OF R4005-FUND-EFCTV
               TO DBLINKX-INPUT-08
               MOVE '1' TO DBLINKX-REQUEST-CODE
               MOVE '01' TO DBLINKX-IDMS-DATE-FORMAT
               CALL 'IDDTECNV' USING DBLINKX-DATE-TIME-PARMS
               IF DBLINKX-OK
                   MOVE DBLINKX-OUTPUT-PARM
                   TO FDE-ESTMD-CMPLN-DT
               ELSE
                   MOVE DBLINKX-NULL-DB2-DATE-ISO
                   TO FDE-ESTMD-CMPLN-DT
               END-IF
           END-IF.

           IF PRJCT-CLOSE-DATE-4005 OF R4005-FUND-EFCTV  NOT NUMERIC
               MOVE DBLINKX-NULL-DB2-DATE-ISO TO FDE-PRJCT-CLOSE-DT
           ELSE
               MOVE PRJCT-CLOSE-DATE-4005 OF R4005-FUND-EFCTV
               TO DBLINKX-INPUT-08
               MOVE '1' TO DBLINKX-REQUEST-CODE
               MOVE '01' TO DBLINKX-IDMS-DATE-FORMAT
               CALL 'IDDTECNV' USING DBLINKX-DATE-TIME-PARMS
               IF DBLINKX-OK
                   MOVE DBLINKX-OUTPUT-PARM
                   TO FDE-PRJCT-CLOSE-DT
               ELSE
                   MOVE DBLINKX-NULL-DB2-DATE-ISO
                   TO FDE-PRJCT-CLOSE-DT
               END-IF
           END-IF.

               MOVE CMPLT-IND-4005 OF R4005-FUND-EFCTV
               TO FDE-CMPLT-IND.

           IF AGNCY-INTRL-REF-ID-4005 OF R4005-FUND-EFCTV
                NOT NUMERIC
               MOVE ZEROS TO FDE-AGNCY-IREF-ID
           ELSE
               MOVE AGNCY-INTRL-REF-ID-4005 OF R4005-FUND-EFCTV
               TO FDE-AGNCY-IREF-ID
           END-IF.

           IF MGR-INTRL-REF-ID-4005 OF R4005-FUND-EFCTV  NOT NUMERIC
               MOVE ZEROS TO FDE-MGR-IREF-ID
           ELSE
               MOVE MGR-INTRL-REF-ID-4005 OF R4005-FUND-EFCTV
               TO FDE-MGR-IREF-ID
           END-IF.

           IF CNSTRCTN-INTRL-REF-4005 OF R4005-FUND-EFCTV
                NOT NUMERIC
               MOVE ZEROS TO FDE-CNSTRCTN-IREF
           ELSE
               MOVE CNSTRCTN-INTRL-REF-4005 OF R4005-FUND-EFCTV
               TO FDE-CNSTRCTN-IREF
           END-IF.

           IF INVGR-INTRL-REF-ID-4005 OF R4005-FUND-EFCTV
                NOT NUMERIC
               MOVE ZEROS TO FDE-INVGR-IREF-ID
           ELSE
               MOVE INVGR-INTRL-REF-ID-4005 OF R4005-FUND-EFCTV
               TO FDE-INVGR-IREF-ID
           END-IF.

           IF CO-INVGR-INTRL-REF-4005 OF R4005-FUND-EFCTV
                NOT NUMERIC
               MOVE ZEROS TO FDE-CO-INVGR-IREF
           ELSE
               MOVE CO-INVGR-INTRL-REF-4005 OF R4005-FUND-EFCTV
               TO FDE-CO-INVGR-IREF
           END-IF.

           IF FROM-BDGT-DATE-4005 OF R4005-FUND-EFCTV  NOT NUMERIC
               MOVE DBLINKX-NULL-DB2-DATE-ISO TO FDE-FROM-BDGT-DAT
           ELSE
               MOVE FROM-BDGT-DATE-4005 OF R4005-FUND-EFCTV
               TO DBLINKX-INPUT-08
               MOVE '1' TO DBLINKX-REQUEST-CODE
               MOVE '01' TO DBLINKX-IDMS-DATE-FORMAT
               CALL 'IDDTECNV' USING DBLINKX-DATE-TIME-PARMS
               IF DBLINKX-OK
                   MOVE DBLINKX-OUTPUT-PARM
                   TO FDE-FROM-BDGT-DAT
               ELSE
                   MOVE DBLINKX-NULL-DB2-DATE-ISO
                   TO FDE-FROM-BDGT-DAT
               END-IF
           END-IF.

           IF TO-BDGT-DATE-4005 OF R4005-FUND-EFCTV  NOT NUMERIC
               MOVE DBLINKX-NULL-DB2-DATE-ISO TO FDE-TO-BDGT-DT
           ELSE
               MOVE TO-BDGT-DATE-4005 OF R4005-FUND-EFCTV
               TO DBLINKX-INPUT-08
               MOVE '1' TO DBLINKX-REQUEST-CODE
               MOVE '01' TO DBLINKX-IDMS-DATE-FORMAT
               CALL 'IDDTECNV' USING DBLINKX-DATE-TIME-PARMS
               IF DBLINKX-OK
                   MOVE DBLINKX-OUTPUT-PARM
                   TO FDE-TO-BDGT-DT
               ELSE
                   MOVE DBLINKX-NULL-DB2-DATE-ISO
                   TO FDE-TO-BDGT-DT
               END-IF
           END-IF.

           IF FROM-GRANT-DATE-4005 OF R4005-FUND-EFCTV  NOT NUMERIC
               MOVE DBLINKX-NULL-DB2-DATE-ISO TO FDE-FROM-GRANT-DT
           ELSE
               MOVE FROM-GRANT-DATE-4005 OF R4005-FUND-EFCTV
               TO DBLINKX-INPUT-08
               MOVE '1' TO DBLINKX-REQUEST-CODE
               MOVE '01' TO DBLINKX-IDMS-DATE-FORMAT
               CALL 'IDDTECNV' USING DBLINKX-DATE-TIME-PARMS
               IF DBLINKX-OK
                   MOVE DBLINKX-OUTPUT-PARM
                   TO FDE-FROM-GRANT-DT
               ELSE
                   MOVE DBLINKX-NULL-DB2-DATE-ISO
                   TO FDE-FROM-GRANT-DT
               END-IF
           END-IF.

           IF TO-GRANT-DATE-4005 OF R4005-FUND-EFCTV  NOT NUMERIC
               MOVE DBLINKX-NULL-DB2-DATE-ISO TO FDE-TO-GRANT-DT
           ELSE
               MOVE TO-GRANT-DATE-4005 OF R4005-FUND-EFCTV
               TO DBLINKX-INPUT-08
               MOVE '1' TO DBLINKX-REQUEST-CODE
               MOVE '01' TO DBLINKX-IDMS-DATE-FORMAT
               CALL 'IDDTECNV' USING DBLINKX-DATE-TIME-PARMS
               IF DBLINKX-OK
                   MOVE DBLINKX-OUTPUT-PARM
                   TO FDE-TO-GRANT-DT
               ELSE
                   MOVE DBLINKX-NULL-DB2-DATE-ISO
                   TO FDE-TO-GRANT-DT
               END-IF
           END-IF.

           IF FROM-PRJCT-DATE-4005 OF R4005-FUND-EFCTV  NOT NUMERIC
               MOVE DBLINKX-NULL-DB2-DATE-ISO TO FDE-FROM-PRJCT-DT
           ELSE
               MOVE FROM-PRJCT-DATE-4005 OF R4005-FUND-EFCTV
               TO DBLINKX-INPUT-08
               MOVE '1' TO DBLINKX-REQUEST-CODE
               MOVE '01' TO DBLINKX-IDMS-DATE-FORMAT
               CALL 'IDDTECNV' USING DBLINKX-DATE-TIME-PARMS
               IF DBLINKX-OK
                   MOVE DBLINKX-OUTPUT-PARM
                   TO FDE-FROM-PRJCT-DT
               ELSE
                   MOVE DBLINKX-NULL-DB2-DATE-ISO
                   TO FDE-FROM-PRJCT-DT
               END-IF
           END-IF.

           IF TO-PRJCT-DATE-4005 OF R4005-FUND-EFCTV  NOT NUMERIC
               MOVE DBLINKX-NULL-DB2-DATE-ISO TO FDE-TO-PRJCT-DT
           ELSE
               MOVE TO-PRJCT-DATE-4005 OF R4005-FUND-EFCTV
               TO DBLINKX-INPUT-08
               MOVE '1' TO DBLINKX-REQUEST-CODE
               MOVE '01' TO DBLINKX-IDMS-DATE-FORMAT
               CALL 'IDDTECNV' USING DBLINKX-DATE-TIME-PARMS
               IF DBLINKX-OK
                   MOVE DBLINKX-OUTPUT-PARM
                   TO FDE-TO-PRJCT-DT
               ELSE
                   MOVE DBLINKX-NULL-DB2-DATE-ISO
                   TO FDE-TO-PRJCT-DT
               END-IF
           END-IF.

               MOVE ASSET-LCTN-CODE-4005 OF R4005-FUND-EFCTV
               TO FDE-ASSET-LCTN-CD.

               MOVE ROLL-BDGT-IND-4005 OF R4005-FUND-EFCTV
               TO FDE-ROLL-BDGT-IND.

               MOVE AR-ACCT-ID-DIGIT-ONE-4005 OF R4005-FUND-EFCTV
               TO FDE-AR-ACCT-ID-ONE.

               MOVE AR-ACCT-ID-LAST-NINE-4005 OF R4005-FUND-EFCTV
               TO FDE-AR-ACCT-ID-NINE.

FP7768         MOVE DFCT-TMPLT-CD-4005  OF R4005-FUND-EFCTV
FP7768         TO FDE-DFCT-TMPLT-CD.

       976-FROM-R4005-FUND-EFCTV-EXIT.
           EXIT.
