       976-FROM-R4183-ENCMBR-YRS SECTION.

FCCCE**        MOVE USER-CODE-4183 OF R4183-ENCMBR-YRS
FCCCE          MOVE DBLINK-USER-CD
               TO ENY-USER-CD.

               MOVE LAST-ACTVY-DATE-4183 OF R4183-ENCMBR-YRS
               TO ENY-LAST-ACTVY-DT.

               MOVE FSCL-CC-4183 OF R4183-ENCMBR-YRS
               TO ENY-FSCL-CC.

               MOVE FSCL-YR-4183 OF R4183-ENCMBR-YRS
               TO ENY-FSCL-YR.

           IF ORGNL-ENCMBRNC-AMT-4183 OF R4183-ENCMBR-YRS (01)
                NOT NUMERIC
               MOVE ZEROS TO ENY-ORGN-ENCMBR-AMT-01
           ELSE
               MOVE ORGNL-ENCMBRNC-AMT-4183 OF R4183-ENCMBR-YRS (01)
               TO ENY-ORGN-ENCMBR-AMT-01
           END-IF.

           IF ORGNL-ENCMBRNC-AMT-4183 OF R4183-ENCMBR-YRS (02)
                NOT NUMERIC
               MOVE ZEROS TO ENY-ORGN-ENCMBR-AMT-02
           ELSE
               MOVE ORGNL-ENCMBRNC-AMT-4183 OF R4183-ENCMBR-YRS (02)
               TO ENY-ORGN-ENCMBR-AMT-02
           END-IF.

           IF ORGNL-ENCMBRNC-AMT-4183 OF R4183-ENCMBR-YRS (03)
                NOT NUMERIC
               MOVE ZEROS TO ENY-ORGN-ENCMBR-AMT-03
           ELSE
               MOVE ORGNL-ENCMBRNC-AMT-4183 OF R4183-ENCMBR-YRS (03)
               TO ENY-ORGN-ENCMBR-AMT-03
           END-IF.

           IF ORGNL-ENCMBRNC-AMT-4183 OF R4183-ENCMBR-YRS (04)
                NOT NUMERIC
               MOVE ZEROS TO ENY-ORGN-ENCMBR-AMT-04
           ELSE
               MOVE ORGNL-ENCMBRNC-AMT-4183 OF R4183-ENCMBR-YRS (04)
               TO ENY-ORGN-ENCMBR-AMT-04
           END-IF.

           IF ORGNL-ENCMBRNC-AMT-4183 OF R4183-ENCMBR-YRS (05)
                NOT NUMERIC
               MOVE ZEROS TO ENY-ORGN-ENCMBR-AMT-05
           ELSE
               MOVE ORGNL-ENCMBRNC-AMT-4183 OF R4183-ENCMBR-YRS (05)
               TO ENY-ORGN-ENCMBR-AMT-05
           END-IF.

           IF ORGNL-ENCMBRNC-AMT-4183 OF R4183-ENCMBR-YRS (06)
                NOT NUMERIC
               MOVE ZEROS TO ENY-ORGN-ENCMBR-AMT-06
           ELSE
               MOVE ORGNL-ENCMBRNC-AMT-4183 OF R4183-ENCMBR-YRS (06)
               TO ENY-ORGN-ENCMBR-AMT-06
           END-IF.

           IF ORGNL-ENCMBRNC-AMT-4183 OF R4183-ENCMBR-YRS (07)
                NOT NUMERIC
               MOVE ZEROS TO ENY-ORGN-ENCMBR-AMT-07
           ELSE
               MOVE ORGNL-ENCMBRNC-AMT-4183 OF R4183-ENCMBR-YRS (07)
               TO ENY-ORGN-ENCMBR-AMT-07
           END-IF.

           IF ORGNL-ENCMBRNC-AMT-4183 OF R4183-ENCMBR-YRS (08)
                NOT NUMERIC
               MOVE ZEROS TO ENY-ORGN-ENCMBR-AMT-08
           ELSE
               MOVE ORGNL-ENCMBRNC-AMT-4183 OF R4183-ENCMBR-YRS (08)
               TO ENY-ORGN-ENCMBR-AMT-08
           END-IF.

           IF ORGNL-ENCMBRNC-AMT-4183 OF R4183-ENCMBR-YRS (09)
                NOT NUMERIC
               MOVE ZEROS TO ENY-ORGN-ENCMBR-AMT-09
           ELSE
               MOVE ORGNL-ENCMBRNC-AMT-4183 OF R4183-ENCMBR-YRS (09)
               TO ENY-ORGN-ENCMBR-AMT-09
           END-IF.

           IF ORGNL-ENCMBRNC-AMT-4183 OF R4183-ENCMBR-YRS (10)
                NOT NUMERIC
               MOVE ZEROS TO ENY-ORGN-ENCMBR-AMT-10
           ELSE
               MOVE ORGNL-ENCMBRNC-AMT-4183 OF R4183-ENCMBR-YRS (10)
               TO ENY-ORGN-ENCMBR-AMT-10
           END-IF.

           IF ORGNL-ENCMBRNC-AMT-4183 OF R4183-ENCMBR-YRS (11)
                NOT NUMERIC
               MOVE ZEROS TO ENY-ORGN-ENCMBR-AMT-11
           ELSE
               MOVE ORGNL-ENCMBRNC-AMT-4183 OF R4183-ENCMBR-YRS (11)
               TO ENY-ORGN-ENCMBR-AMT-11
           END-IF.

           IF ORGNL-ENCMBRNC-AMT-4183 OF R4183-ENCMBR-YRS (12)
                NOT NUMERIC
               MOVE ZEROS TO ENY-ORGN-ENCMBR-AMT-12
           ELSE
               MOVE ORGNL-ENCMBRNC-AMT-4183 OF R4183-ENCMBR-YRS (12)
               TO ENY-ORGN-ENCMBR-AMT-12
           END-IF.

           IF ORGNL-ENCMBRNC-AMT-4183 OF R4183-ENCMBR-YRS (13)
                NOT NUMERIC
               MOVE ZEROS TO ENY-ORGN-ENCMBR-AMT-13
           ELSE
               MOVE ORGNL-ENCMBRNC-AMT-4183 OF R4183-ENCMBR-YRS (13)
               TO ENY-ORGN-ENCMBR-AMT-13
           END-IF.

           IF ORGNL-ENCMBRNC-AMT-4183 OF R4183-ENCMBR-YRS (14)
                NOT NUMERIC
               MOVE ZEROS TO ENY-ORGN-ENCMBR-AMT-14
           ELSE
               MOVE ORGNL-ENCMBRNC-AMT-4183 OF R4183-ENCMBR-YRS (14)
               TO ENY-ORGN-ENCMBR-AMT-14
           END-IF.

           IF SMRY-ENCMBRNC-ADJMT-4183 OF R4183-ENCMBR-YRS (01)
                NOT NUMERIC
               MOVE ZEROS TO ENY-SMRY-ENCMBR-ADJ-01
           ELSE
               MOVE SMRY-ENCMBRNC-ADJMT-4183 OF R4183-ENCMBR-YRS (01)
               TO ENY-SMRY-ENCMBR-ADJ-01
           END-IF.

           IF SMRY-ENCMBRNC-ADJMT-4183 OF R4183-ENCMBR-YRS (02)
                NOT NUMERIC
               MOVE ZEROS TO ENY-SMRY-ENCMBR-ADJ-02
           ELSE
               MOVE SMRY-ENCMBRNC-ADJMT-4183 OF R4183-ENCMBR-YRS (02)
               TO ENY-SMRY-ENCMBR-ADJ-02
           END-IF.

           IF SMRY-ENCMBRNC-ADJMT-4183 OF R4183-ENCMBR-YRS (03)
                NOT NUMERIC
               MOVE ZEROS TO ENY-SMRY-ENCMBR-ADJ-03
           ELSE
               MOVE SMRY-ENCMBRNC-ADJMT-4183 OF R4183-ENCMBR-YRS (03)
               TO ENY-SMRY-ENCMBR-ADJ-03
           END-IF.

           IF SMRY-ENCMBRNC-ADJMT-4183 OF R4183-ENCMBR-YRS (04)
                NOT NUMERIC
               MOVE ZEROS TO ENY-SMRY-ENCMBR-ADJ-04
           ELSE
               MOVE SMRY-ENCMBRNC-ADJMT-4183 OF R4183-ENCMBR-YRS (04)
               TO ENY-SMRY-ENCMBR-ADJ-04
           END-IF.

           IF SMRY-ENCMBRNC-ADJMT-4183 OF R4183-ENCMBR-YRS (05)
                NOT NUMERIC
               MOVE ZEROS TO ENY-SMRY-ENCMBR-ADJ-05
           ELSE
               MOVE SMRY-ENCMBRNC-ADJMT-4183 OF R4183-ENCMBR-YRS (05)
               TO ENY-SMRY-ENCMBR-ADJ-05
           END-IF.

           IF SMRY-ENCMBRNC-ADJMT-4183 OF R4183-ENCMBR-YRS (06)
                NOT NUMERIC
               MOVE ZEROS TO ENY-SMRY-ENCMBR-ADJ-06
           ELSE
               MOVE SMRY-ENCMBRNC-ADJMT-4183 OF R4183-ENCMBR-YRS (06)
               TO ENY-SMRY-ENCMBR-ADJ-06
           END-IF.

           IF SMRY-ENCMBRNC-ADJMT-4183 OF R4183-ENCMBR-YRS (07)
                NOT NUMERIC
               MOVE ZEROS TO ENY-SMRY-ENCMBR-ADJ-07
           ELSE
               MOVE SMRY-ENCMBRNC-ADJMT-4183 OF R4183-ENCMBR-YRS (07)
               TO ENY-SMRY-ENCMBR-ADJ-07
           END-IF.

           IF SMRY-ENCMBRNC-ADJMT-4183 OF R4183-ENCMBR-YRS (08)
                NOT NUMERIC
               MOVE ZEROS TO ENY-SMRY-ENCMBR-ADJ-08
           ELSE
               MOVE SMRY-ENCMBRNC-ADJMT-4183 OF R4183-ENCMBR-YRS (08)
               TO ENY-SMRY-ENCMBR-ADJ-08
           END-IF.

           IF SMRY-ENCMBRNC-ADJMT-4183 OF R4183-ENCMBR-YRS (09)
                NOT NUMERIC
               MOVE ZEROS TO ENY-SMRY-ENCMBR-ADJ-09
           ELSE
               MOVE SMRY-ENCMBRNC-ADJMT-4183 OF R4183-ENCMBR-YRS (09)
               TO ENY-SMRY-ENCMBR-ADJ-09
           END-IF.

           IF SMRY-ENCMBRNC-ADJMT-4183 OF R4183-ENCMBR-YRS (10)
                NOT NUMERIC
               MOVE ZEROS TO ENY-SMRY-ENCMBR-ADJ-10
           ELSE
               MOVE SMRY-ENCMBRNC-ADJMT-4183 OF R4183-ENCMBR-YRS (10)
               TO ENY-SMRY-ENCMBR-ADJ-10
           END-IF.

           IF SMRY-ENCMBRNC-ADJMT-4183 OF R4183-ENCMBR-YRS (11)
                NOT NUMERIC
               MOVE ZEROS TO ENY-SMRY-ENCMBR-ADJ-11
           ELSE
               MOVE SMRY-ENCMBRNC-ADJMT-4183 OF R4183-ENCMBR-YRS (11)
               TO ENY-SMRY-ENCMBR-ADJ-11
           END-IF.

           IF SMRY-ENCMBRNC-ADJMT-4183 OF R4183-ENCMBR-YRS (12)
                NOT NUMERIC
               MOVE ZEROS TO ENY-SMRY-ENCMBR-ADJ-12
           ELSE
               MOVE SMRY-ENCMBRNC-ADJMT-4183 OF R4183-ENCMBR-YRS (12)
               TO ENY-SMRY-ENCMBR-ADJ-12
           END-IF.

           IF SMRY-ENCMBRNC-ADJMT-4183 OF R4183-ENCMBR-YRS (13)
                NOT NUMERIC
               MOVE ZEROS TO ENY-SMRY-ENCMBR-ADJ-13
           ELSE
               MOVE SMRY-ENCMBRNC-ADJMT-4183 OF R4183-ENCMBR-YRS (13)
               TO ENY-SMRY-ENCMBR-ADJ-13
           END-IF.

           IF SMRY-ENCMBRNC-ADJMT-4183 OF R4183-ENCMBR-YRS (14)
                NOT NUMERIC
               MOVE ZEROS TO ENY-SMRY-ENCMBR-ADJ-14
           ELSE
               MOVE SMRY-ENCMBRNC-ADJMT-4183 OF R4183-ENCMBR-YRS (14)
               TO ENY-SMRY-ENCMBR-ADJ-14
           END-IF.

           IF SMRY-ENCMBRNC-LIQDTN-4183 OF R4183-ENCMBR-YRS (01)
                NOT NUMERIC
               MOVE ZEROS TO ENY-SMRY-ENCMBR-LQD-01
           ELSE
               MOVE SMRY-ENCMBRNC-LIQDTN-4183 OF R4183-ENCMBR-YRS (01)
               TO ENY-SMRY-ENCMBR-LQD-01
           END-IF.

           IF SMRY-ENCMBRNC-LIQDTN-4183 OF R4183-ENCMBR-YRS (02)
                NOT NUMERIC
               MOVE ZEROS TO ENY-SMRY-ENCMBR-LQD-02
           ELSE
               MOVE SMRY-ENCMBRNC-LIQDTN-4183 OF R4183-ENCMBR-YRS (02)
               TO ENY-SMRY-ENCMBR-LQD-02
           END-IF.

           IF SMRY-ENCMBRNC-LIQDTN-4183 OF R4183-ENCMBR-YRS (03)
                NOT NUMERIC
               MOVE ZEROS TO ENY-SMRY-ENCMBR-LQD-03
           ELSE
               MOVE SMRY-ENCMBRNC-LIQDTN-4183 OF R4183-ENCMBR-YRS (03)
               TO ENY-SMRY-ENCMBR-LQD-03
           END-IF.

           IF SMRY-ENCMBRNC-LIQDTN-4183 OF R4183-ENCMBR-YRS (04)
                NOT NUMERIC
               MOVE ZEROS TO ENY-SMRY-ENCMBR-LQD-04
           ELSE
               MOVE SMRY-ENCMBRNC-LIQDTN-4183 OF R4183-ENCMBR-YRS (04)
               TO ENY-SMRY-ENCMBR-LQD-04
           END-IF.

           IF SMRY-ENCMBRNC-LIQDTN-4183 OF R4183-ENCMBR-YRS (05)
                NOT NUMERIC
               MOVE ZEROS TO ENY-SMRY-ENCMBR-LQD-05
           ELSE
               MOVE SMRY-ENCMBRNC-LIQDTN-4183 OF R4183-ENCMBR-YRS (05)
               TO ENY-SMRY-ENCMBR-LQD-05
           END-IF.

           IF SMRY-ENCMBRNC-LIQDTN-4183 OF R4183-ENCMBR-YRS (06)
                NOT NUMERIC
               MOVE ZEROS TO ENY-SMRY-ENCMBR-LQD-06
           ELSE
               MOVE SMRY-ENCMBRNC-LIQDTN-4183 OF R4183-ENCMBR-YRS (06)
               TO ENY-SMRY-ENCMBR-LQD-06
           END-IF.

           IF SMRY-ENCMBRNC-LIQDTN-4183 OF R4183-ENCMBR-YRS (07)
                NOT NUMERIC
               MOVE ZEROS TO ENY-SMRY-ENCMBR-LQD-07
           ELSE
               MOVE SMRY-ENCMBRNC-LIQDTN-4183 OF R4183-ENCMBR-YRS (07)
               TO ENY-SMRY-ENCMBR-LQD-07
           END-IF.

           IF SMRY-ENCMBRNC-LIQDTN-4183 OF R4183-ENCMBR-YRS (08)
                NOT NUMERIC
               MOVE ZEROS TO ENY-SMRY-ENCMBR-LQD-08
           ELSE
               MOVE SMRY-ENCMBRNC-LIQDTN-4183 OF R4183-ENCMBR-YRS (08)
               TO ENY-SMRY-ENCMBR-LQD-08
           END-IF.

           IF SMRY-ENCMBRNC-LIQDTN-4183 OF R4183-ENCMBR-YRS (09)
                NOT NUMERIC
               MOVE ZEROS TO ENY-SMRY-ENCMBR-LQD-09
           ELSE
               MOVE SMRY-ENCMBRNC-LIQDTN-4183 OF R4183-ENCMBR-YRS (09)
               TO ENY-SMRY-ENCMBR-LQD-09
           END-IF.

           IF SMRY-ENCMBRNC-LIQDTN-4183 OF R4183-ENCMBR-YRS (10)
                NOT NUMERIC
               MOVE ZEROS TO ENY-SMRY-ENCMBR-LQD-10
           ELSE
               MOVE SMRY-ENCMBRNC-LIQDTN-4183 OF R4183-ENCMBR-YRS (10)
               TO ENY-SMRY-ENCMBR-LQD-10
           END-IF.

           IF SMRY-ENCMBRNC-LIQDTN-4183 OF R4183-ENCMBR-YRS (11)
                NOT NUMERIC
               MOVE ZEROS TO ENY-SMRY-ENCMBR-LQD-11
           ELSE
               MOVE SMRY-ENCMBRNC-LIQDTN-4183 OF R4183-ENCMBR-YRS (11)
               TO ENY-SMRY-ENCMBR-LQD-11
           END-IF.

           IF SMRY-ENCMBRNC-LIQDTN-4183 OF R4183-ENCMBR-YRS (12)
                NOT NUMERIC
               MOVE ZEROS TO ENY-SMRY-ENCMBR-LQD-12
           ELSE
               MOVE SMRY-ENCMBRNC-LIQDTN-4183 OF R4183-ENCMBR-YRS (12)
               TO ENY-SMRY-ENCMBR-LQD-12
           END-IF.

           IF SMRY-ENCMBRNC-LIQDTN-4183 OF R4183-ENCMBR-YRS (13)
                NOT NUMERIC
               MOVE ZEROS TO ENY-SMRY-ENCMBR-LQD-13
           ELSE
               MOVE SMRY-ENCMBRNC-LIQDTN-4183 OF R4183-ENCMBR-YRS (13)
               TO ENY-SMRY-ENCMBR-LQD-13
           END-IF.

           IF SMRY-ENCMBRNC-LIQDTN-4183 OF R4183-ENCMBR-YRS (14)
                NOT NUMERIC
               MOVE ZEROS TO ENY-SMRY-ENCMBR-LQD-14
           ELSE
               MOVE SMRY-ENCMBRNC-LIQDTN-4183 OF R4183-ENCMBR-YRS (14)
               TO ENY-SMRY-ENCMBR-LQD-14
           END-IF.

           IF BEG-ENCMBRNC-AMT-4183 OF R4183-ENCMBR-YRS  NOT NUMERIC
               MOVE ZEROS TO ENY-BEG-ENCMBR-AMT
           ELSE
               MOVE BEG-ENCMBRNC-AMT-4183 OF R4183-ENCMBR-YRS
               TO ENY-BEG-ENCMBR-AMT
           END-IF.

           IF BEG-ENCMBRNC-ADJMT-4183 OF R4183-ENCMBR-YRS
                NOT NUMERIC
               MOVE ZEROS TO ENY-BEG-ENCMBR-ADJ
           ELSE
               MOVE BEG-ENCMBRNC-ADJMT-4183 OF R4183-ENCMBR-YRS
               TO ENY-BEG-ENCMBR-ADJ
           END-IF.

           IF BEG-ENCMBRNC-LIQDTN-4183 OF R4183-ENCMBR-YRS
                NOT NUMERIC
               MOVE ZEROS TO ENY-BEG-ENCMBR-LQD
           ELSE
               MOVE BEG-ENCMBRNC-LIQDTN-4183 OF R4183-ENCMBR-YRS
               TO ENY-BEG-ENCMBR-LQD
           END-IF.
       976-FROM-R4183-ENCMBR-YRS-EXIT.
           EXIT.
