       976-FROM-R4181-RULE-EFCTV SECTION.

FCCCE**        MOVE USER-CODE-4181 OF R4181-RULE-EFCTV
FCCCE          MOVE DBLINK-USER-CD
               TO RLE-USER-CD.

               MOVE LAST-ACTVY-DATE-4181 OF R4181-RULE-EFCTV
               TO RLE-LAST-ACTVY-DT.

           IF START-DATE-4181 OF R4181-RULE-EFCTV  NOT NUMERIC
               MOVE DBLINKX-NULL-DB2-DATE-ISO TO RLE-START-DT
           ELSE
               MOVE START-DATE-4181 OF R4181-RULE-EFCTV
               TO DBLINKX-INPUT-08
               MOVE '1' TO DBLINKX-REQUEST-CODE
               MOVE '1' TO DBLINKX-DB2-DATE-FORMAT
               MOVE '01' TO DBLINKX-IDMS-DATE-FORMAT
               CALL 'IDDTECNV' USING DBLINKX-DATE-TIME-PARMS
               IF DBLINKX-OK
                   MOVE DBLINKX-OUTPUT-PARM
                   TO RLE-START-DT
               ELSE
                   MOVE DBLINKX-NULL-DB2-DATE-ISO
                   TO RLE-START-DT
               END-IF
           END-IF.

               MOVE TIME-STAMP-4181 OF R4181-RULE-EFCTV
               TO DBLINKX-INPUT-PARM
           MOVE '3' TO DBLINKX-REQUEST-CODE
           MOVE '1' TO DBLINKX-DB2-TIME-FORMAT
           MOVE '51' TO DBLINKX-IDMS-TIME-FORMAT
           CALL 'IDDTECNV' USING DBLINKX-DATE-TIME-PARMS
           IF DBLINKX-OK
               MOVE DBLINKX-OUTPUT-PARM
               TO RLE-TIME-STMP
           ELSE
               MOVE DBLINKX-NULL-DB2-TIME-ISO
               TO RLE-TIME-STMP
           END-IF.

           IF END-DATE-4181 OF R4181-RULE-EFCTV  NOT NUMERIC
               MOVE DBLINKX-NULL-DB2-DATE-ISO TO RLE-END-DT
           ELSE
               MOVE END-DATE-4181 OF R4181-RULE-EFCTV
               TO DBLINKX-INPUT-08
               MOVE '1' TO DBLINKX-REQUEST-CODE
               MOVE '01' TO DBLINKX-IDMS-DATE-FORMAT
               CALL 'IDDTECNV' USING DBLINKX-DATE-TIME-PARMS
               IF DBLINKX-OK
                   MOVE DBLINKX-OUTPUT-PARM
                   TO RLE-END-DT
               ELSE
                   MOVE DBLINKX-NULL-DB2-DATE-ISO
                   TO RLE-END-DT
               END-IF
           END-IF.

               MOVE STATUS-4181 OF R4181-RULE-EFCTV
               TO RLE-STATUS.

               MOVE RULE-CLASS-DESC-4181 OF R4181-RULE-EFCTV
               TO RLE-RULE-CLS-DESC.

               MOVE RULE-CLASS-TYPE-4181 OF R4181-RULE-EFCTV
               TO RLE-RULE-CLS-TYP.

               MOVE RSRV-BDGT-IND-4181 OF R4181-RULE-EFCTV
               TO RLE-RSRV-BDGT-IND.

               MOVE BAL-MTHD-IND-4181 OF R4181-RULE-EFCTV
               TO RLE-BAL-MTHD-IND.

               MOVE CMPLT-IND-4181 OF R4181-RULE-EFCTV
               TO RLE-CMPLT-IND.
       976-FROM-R4181-RULE-EFCTV-EXIT.
           EXIT.
