       976-FROM-R4034-ACCT-EFCTV SECTION.

FCYI **        MOVE USER-CODE-4034 OF R4034-ACCT-EFCTV
FCYI           MOVE DBLINK-USER-CD
               TO ACE-USER-CD.

               MOVE LAST-ACTVY-DATE-4034 OF R4034-ACCT-EFCTV
               TO ACE-LAST-ACTVY-DT.

           IF START-DATE-4034 OF R4034-ACCT-EFCTV  NOT NUMERIC
               MOVE DBLINKX-NULL-DB2-DATE-ISO TO ACE-START-DT
           ELSE
               MOVE START-DATE-4034 OF R4034-ACCT-EFCTV
               TO DBLINKX-INPUT-08
               MOVE '1' TO DBLINKX-REQUEST-CODE
               MOVE '1' TO DBLINKX-DB2-DATE-FORMAT
               MOVE '01' TO DBLINKX-IDMS-DATE-FORMAT
               CALL 'IDDTECNV' USING DBLINKX-DATE-TIME-PARMS
               IF DBLINKX-OK
                   MOVE DBLINKX-OUTPUT-PARM
                   TO ACE-START-DT
               ELSE
                   MOVE DBLINKX-NULL-DB2-DATE-ISO
                   TO ACE-START-DT
               END-IF
           END-IF.

               MOVE TIME-STAMP-4034 OF R4034-ACCT-EFCTV
               TO DBLINKX-INPUT-PARM
           MOVE '3' TO DBLINKX-REQUEST-CODE
           MOVE '1' TO DBLINKX-DB2-TIME-FORMAT
           MOVE '51' TO DBLINKX-IDMS-TIME-FORMAT
           CALL 'IDDTECNV' USING DBLINKX-DATE-TIME-PARMS
           IF DBLINKX-OK
               MOVE DBLINKX-OUTPUT-PARM
               TO ACE-TIME-STMP
           ELSE
               MOVE DBLINKX-NULL-DB2-TIME-ISO
               TO ACE-TIME-STMP
           END-IF.

           IF END-DATE-4034 OF R4034-ACCT-EFCTV  NOT NUMERIC
               MOVE DBLINKX-NULL-DB2-DATE-ISO TO ACE-END-DT
           ELSE
               MOVE END-DATE-4034 OF R4034-ACCT-EFCTV
               TO DBLINKX-INPUT-08
               MOVE '1' TO DBLINKX-REQUEST-CODE
               MOVE '01' TO DBLINKX-IDMS-DATE-FORMAT
               CALL 'IDDTECNV' USING DBLINKX-DATE-TIME-PARMS
               IF DBLINKX-OK
                   MOVE DBLINKX-OUTPUT-PARM
                   TO ACE-END-DT
               ELSE
                   MOVE DBLINKX-NULL-DB2-DATE-ISO
                   TO ACE-END-DT
               END-IF
           END-IF.

               MOVE STATUS-4034 OF R4034-ACCT-EFCTV
               TO ACE-STATUS.

               MOVE ACCT-CODE-TITLE-4034 OF R4034-ACCT-EFCTV
               TO ACE-ACCT-CD-TITLE.

               MOVE PREDCSR-CODE-4034 OF R4034-ACCT-EFCTV
               TO ACE-PREDCSR-CD.

               MOVE ACCT-TYPE-CODE-4034 OF R4034-ACCT-EFCTV
               TO ACE-FK2-ACT-ACCT-TYP-C.

               MOVE ACCT-CODE-4034 OF R4034-ACCT-EFCTV
               TO ACE-FK1-ACC-ACCT-CD.

               MOVE DATA-ENTRY-IND-4034 OF R4034-ACCT-EFCTV
               TO ACE-DATA-ENTRY-IND.

               MOVE ASSET-ACCT-4034 OF R4034-ACCT-EFCTV
               TO ACE-ASSET-ACCT.

               MOVE POOL-ACCT-4034 OF R4034-ACCT-EFCTV
               TO ACE-POOL-ACCT.

               MOVE FRNG-ACCT-4034 OF R4034-ACCT-EFCTV
               TO ACE-FRNG-ACCT.

           IF FRNG-PCT-4034 OF R4034-ACCT-EFCTV  NOT NUMERIC
               MOVE ZEROS TO ACE-FRNG-PCT
           ELSE
               MOVE FRNG-PCT-4034 OF R4034-ACCT-EFCTV
               TO ACE-FRNG-PCT
           END-IF.

               MOVE NRML-BAL-IND-4034 OF R4034-ACCT-EFCTV
               TO ACE-NRML-BAL-IND.

           IF INCM-TYPE-SEQ-NMBR-4034 OF R4034-ACCT-EFCTV
                NOT NUMERIC
               MOVE ZEROS TO ACE-INCM-TYP-SEQ-NBR
           ELSE
               MOVE INCM-TYPE-SEQ-NMBR-4034 OF R4034-ACCT-EFCTV
               TO ACE-INCM-TYP-SEQ-NBR
           END-IF.
       976-FROM-R4034-ACCT-EFCTV-EXIT.
           EXIT.
