       976-FROM-R4188-TRAN-HIST SECTION.

FCCCE**        MOVE USER-CODE-4188 OF R4188-TRAN-HIST
FCCCE          MOVE DBLINK-USER-CD
               TO TRH-USER-CD.

               MOVE LAST-ACTVY-DATE-4188 OF R4188-TRAN-HIST
               TO TRH-LAST-ACTVY-DT.

               MOVE JRNL-TYPE-4188 OF R4188-TRAN-HIST
               TO TRH-JRNL-TYP.

               MOVE DCMNT-NMBR-4188 OF R4188-TRAN-HIST
               TO TRH-DOC-NBR.

           IF SEQ-NMBR-4188 OF R4188-TRAN-HIST  NOT NUMERIC
               MOVE ZEROS TO TRH-SEQ-NBR
           ELSE
               MOVE SEQ-NMBR-4188 OF R4188-TRAN-HIST
               TO TRH-SEQ-NBR
           END-IF.

           IF ACTVY-DATE-4188 OF R4188-TRAN-HIST  NOT NUMERIC
               MOVE DBLINKX-NULL-DB2-DATE-ISO TO TRH-ACTVY-DT
           ELSE
               MOVE ACTVY-DATE-4188 OF R4188-TRAN-HIST
               TO DBLINKX-INPUT-08
               MOVE '1' TO DBLINKX-REQUEST-CODE
               MOVE '1' TO DBLINKX-DB2-DATE-FORMAT
               MOVE '01' TO DBLINKX-IDMS-DATE-FORMAT
               CALL 'IDDTECNV' USING DBLINKX-DATE-TIME-PARMS
               IF DBLINKX-OK
                   MOVE DBLINKX-OUTPUT-PARM
                   TO TRH-ACTVY-DT
               ELSE
                   MOVE DBLINKX-NULL-DB2-DATE-ISO
                   TO TRH-ACTVY-DT
               END-IF
           END-IF.

               MOVE DCMNT-REF-NMBR-4188 OF R4188-TRAN-HIST
               TO TRH-DOC-REF-NBR.

           IF TRANS-DATE-4188 OF R4188-TRAN-HIST  NOT NUMERIC
               MOVE DBLINKX-NULL-DB2-DATE-ISO TO TRH-TRANS-DT
           ELSE
               MOVE TRANS-DATE-4188 OF R4188-TRAN-HIST
               TO DBLINKX-INPUT-08
               MOVE '1' TO DBLINKX-REQUEST-CODE
               MOVE '01' TO DBLINKX-IDMS-DATE-FORMAT
               CALL 'IDDTECNV' USING DBLINKX-DATE-TIME-PARMS
               IF DBLINKX-OK
                   MOVE DBLINKX-OUTPUT-PARM
                   TO TRH-TRANS-DT
               ELSE
                   MOVE DBLINKX-NULL-DB2-DATE-ISO
                   TO TRH-TRANS-DT
               END-IF
           END-IF.

               MOVE TIME-STAMP-4188 OF R4188-TRAN-HIST
               TO DBLINKX-INPUT-PARM
           MOVE '3' TO DBLINKX-REQUEST-CODE
           MOVE '1' TO DBLINKX-DB2-TIME-FORMAT
           MOVE '51' TO DBLINKX-IDMS-TIME-FORMAT
           CALL 'IDDTECNV' USING DBLINKX-DATE-TIME-PARMS
           IF DBLINKX-OK
               MOVE DBLINKX-OUTPUT-PARM
               TO TRH-TIME-STMP
           ELSE
               MOVE DBLINKX-NULL-DB2-TIME-ISO
               TO TRH-TIME-STMP
           END-IF.

           IF TRANS-AMT-4188 OF R4188-TRAN-HIST  NOT NUMERIC
               MOVE ZEROS TO TRH-TRANS-AMT
           ELSE
               MOVE TRANS-AMT-4188 OF R4188-TRAN-HIST
               TO TRH-TRANS-AMT
           END-IF.

               MOVE TRANS-DESC-4188 OF R4188-TRAN-HIST
               TO TRH-TRANS-DESC.

               MOVE DEBIT-CRDT-IND-4188 OF R4188-TRAN-HIST
               TO TRH-DEBT-CRDT-IND.

               MOVE BANK-ACCT-CODE-4188 OF R4188-TRAN-HIST
               TO TRH-BANK-ACCT-CD.

               MOVE BDGT-ID-4188 OF R4188-TRAN-HIST
               TO TRH-BDGT-ID.

               MOVE FSCL-YR-4188 OF R4188-TRAN-HIST
               TO TRH-FSCL-YR.

               MOVE DPST-NMBR-4188 OF R4188-TRAN-HIST
               TO TRH-DPST-NBR.

               MOVE ENCMBRNC-NMBR-4188 OF R4188-TRAN-HIST
               TO TRH-ENCMBR-NBR.

               MOVE ENCMBRNC-ACTN-IND-4188 OF R4188-TRAN-HIST
               TO TRH-ENCMBR-ACTN-IND.

               MOVE PRJCT-CODE-4188 OF R4188-TRAN-HIST
               TO TRH-PRJCT-CD.

               MOVE AUTO-JRNL-ID-4188 OF R4188-TRAN-HIST
               TO TRH-AUTO-JRNL-ID.

               MOVE RVRSL-IND-4188 OF R4188-TRAN-HIST
               TO TRH-RVRSL-IND.

           IF DSTBN-PCT-4188 OF R4188-TRAN-HIST  NOT NUMERIC
               MOVE ZEROS TO TRH-DSTBN-PCT
           ELSE
               MOVE DSTBN-PCT-4188 OF R4188-TRAN-HIST
               TO TRH-DSTBN-PCT
           END-IF.

               MOVE BDGT-DSPSN-4188 OF R4188-TRAN-HIST
               TO TRH-BDGT-DSPSN.

               MOVE CMTMNT-TYPE-4188 OF R4188-TRAN-HIST
               TO TRH-CMTMNT-TYP.

           IF CMTMNT-PCT-4188 OF R4188-TRAN-HIST  NOT NUMERIC
               MOVE ZEROS TO TRH-CMTMNT-PCT
           ELSE
               MOVE CMTMNT-PCT-4188 OF R4188-TRAN-HIST
               TO TRH-CMTMNT-PCT
           END-IF.

               MOVE ENCMBRNC-TYPE-4188 OF R4188-TRAN-HIST
               TO TRH-ENCMBR-TYP.

               MOVE VNDR-ID-DIGIT-ONE-4188 OF R4188-TRAN-HIST
               TO TRH-VNDR-ID-DGT-ONE.

               MOVE VNDR-ID-LAST-NINE-4188 OF R4188-TRAN-HIST
               TO TRH-VNDR-ID-LST-NINE.

           IF ITEM-NMBR-4188 OF R4188-TRAN-HIST  NOT NUMERIC
               MOVE ZEROS TO TRH-ITEM-NBR
           ELSE
               MOVE ITEM-NMBR-4188 OF R4188-TRAN-HIST
               TO TRH-ITEM-NBR
           END-IF.

           IF SBMSN-NMBR-4188 OF R4188-TRAN-HIST  NOT NUMERIC
               MOVE ZEROS TO TRH-SBMSN-NBR
           ELSE
               MOVE SBMSN-NMBR-4188 OF R4188-TRAN-HIST
               TO TRH-SBMSN-NBR
           END-IF.

           IF ENCMBRNC-ITEM-NMBR-4188 OF R4188-TRAN-HIST  NOT NUMERIC
               MOVE ZEROS TO TRH-ENCMBR-ITEM-NBR
           ELSE
               MOVE ENCMBRNC-ITEM-NMBR-4188 OF R4188-TRAN-HIST
               TO TRH-ENCMBR-ITEM-NBR
           END-IF.

           IF ENCMBRNC-SEQ-NMBR-4188 OF R4188-TRAN-HIST  NOT NUMERIC
               MOVE ZEROS TO TRH-ENCMBR-SEQ-NBR
           ELSE
               MOVE ENCMBRNC-SEQ-NMBR-4188 OF R4188-TRAN-HIST
               TO TRH-ENCMBR-SEQ-NBR
           END-IF.

               MOVE BDGT-PRD-4188 OF R4188-TRAN-HIST
               TO TRH-BDGT-PRD.

               MOVE ACRL-IND-4188 OF R4188-TRAN-HIST
               TO TRH-ACRL-IND.

               MOVE ONE-TIME-IND-4188 OF R4188-TRAN-HIST
               TO TRH-ONE-TIME-IND.

           IF DCMNT-TYPE-SEQ-NMBR-4188 OF R4188-TRAN-HIST
                NOT NUMERIC
               MOVE ZEROS TO TRH-DOC-TYP-SEQ-NBR
           ELSE
               MOVE DCMNT-TYPE-SEQ-NMBR-4188 OF R4188-TRAN-HIST
               TO TRH-DOC-TYP-SEQ-NBR
           END-IF.

               MOVE NSF-OVRDE-4188 OF R4188-TRAN-HIST
               TO TRH-NSF-OVRDE.

               MOVE CHECK-RQST-ORGN-CODE-4188 OF R4188-TRAN-HIST
               TO TRH-CHK-RQST-ORGN-CD.
       976-FROM-R4188-TRAN-HIST-EXIT.
           EXIT.
