       976-FROM-R4174-TOF-HDR SECTION.

FCCCE**        MOVE USER-CODE-4174 OF R4174-TOF-HDR
FCCCE          MOVE DBLINK-USER-CD
               TO TFH-USER-CD.

               MOVE LAST-ACTVY-DATE-4174 OF R4174-TOF-HDR
               TO TFH-LAST-ACTVY-DT.

               MOVE UNVRS-CODE-4174 OF R4174-TOF-HDR
               TO TFH-UNVRS-CD.

               MOVE DCMNT-NMBR-4174 OF R4174-TOF-HDR
               TO TFH-DOC-NBR.

           IF ACTVY-DATE-4174 OF R4174-TOF-HDR  NOT NUMERIC
               MOVE DBLINKX-NULL-DB2-DATE-ISO TO TFH-ACTVY-DT
           ELSE
               MOVE ACTVY-DATE-4174 OF R4174-TOF-HDR
               TO DBLINKX-INPUT-08
               MOVE '1' TO DBLINKX-REQUEST-CODE
               MOVE '1' TO DBLINKX-DB2-DATE-FORMAT
               MOVE '01' TO DBLINKX-IDMS-DATE-FORMAT
               CALL 'IDDTECNV' USING DBLINKX-DATE-TIME-PARMS
               IF DBLINKX-OK
                   MOVE DBLINKX-OUTPUT-PARM
                   TO TFH-ACTVY-DT
               ELSE
                   MOVE DBLINKX-NULL-DB2-DATE-ISO
                   TO TFH-ACTVY-DT
               END-IF
           END-IF.

           IF DCMNT-DATE-4174 OF R4174-TOF-HDR  NOT NUMERIC
               MOVE DBLINKX-NULL-DB2-DATE-ISO TO TFH-DOC-DT
           ELSE
               MOVE DCMNT-DATE-4174 OF R4174-TOF-HDR
               TO DBLINKX-INPUT-08
               MOVE '1' TO DBLINKX-REQUEST-CODE
               MOVE '01' TO DBLINKX-IDMS-DATE-FORMAT
               CALL 'IDDTECNV' USING DBLINKX-DATE-TIME-PARMS
               IF DBLINKX-OK
                   MOVE DBLINKX-OUTPUT-PARM
                   TO TFH-DOC-DT
               ELSE
                   MOVE DBLINKX-NULL-DB2-DATE-ISO
                   TO TFH-DOC-DT
               END-IF
           END-IF.

               MOVE DCMNT-DESC-4174 OF R4174-TOF-HDR
               TO TFH-DOC-DESC.

           IF DCMNT-AMT-4174 OF R4174-TOF-HDR  NOT NUMERIC
               MOVE ZEROS TO TFH-DOC-AMT
           ELSE
               MOVE DCMNT-AMT-4174 OF R4174-TOF-HDR
               TO TFH-DOC-AMT
           END-IF.

           IF CURR-DEBIT-AMT-4174 OF R4174-TOF-HDR  NOT NUMERIC
               MOVE ZEROS TO TFH-CURR-DEBT-AMT
           ELSE
               MOVE CURR-DEBIT-AMT-4174 OF R4174-TOF-HDR
               TO TFH-CURR-DEBT-AMT
           END-IF.

           IF CURR-CRDT-AMT-4174 OF R4174-TOF-HDR  NOT NUMERIC
               MOVE ZEROS TO TFH-CURR-CRDT-AMT
           ELSE
               MOVE CURR-CRDT-AMT-4174 OF R4174-TOF-HDR
               TO TFH-CURR-CRDT-AMT
           END-IF.

           IF PERM-DEBIT-AMT-4174 OF R4174-TOF-HDR  NOT NUMERIC
               MOVE ZEROS TO TFH-PERM-DEBT-AMT
           ELSE
               MOVE PERM-DEBIT-AMT-4174 OF R4174-TOF-HDR
               TO TFH-PERM-DEBT-AMT
           END-IF.

           IF PERM-CRDT-AMT-4174 OF R4174-TOF-HDR  NOT NUMERIC
               MOVE ZEROS TO TFH-PERM-CRDT-AMT
           ELSE
               MOVE PERM-CRDT-AMT-4174 OF R4174-TOF-HDR
               TO TFH-PERM-CRDT-AMT
           END-IF.

               MOVE HDR-ERROR-IND-4174 OF R4174-TOF-HDR
               TO TFH-HDR-ERROR-IND.

           IF HDR-CNTR-ACCT-4174 OF R4174-TOF-HDR  NOT NUMERIC
               MOVE ZEROS TO TFH-HDR-CNTR-ACCT
           ELSE
               MOVE HDR-CNTR-ACCT-4174 OF R4174-TOF-HDR
               TO TFH-HDR-CNTR-ACCT
           END-IF.

               MOVE PSTNG-IND-4174 OF R4174-TOF-HDR
               TO TFH-PSTNG-IND.

               MOVE CURR-APRVL-IND-4174 OF R4174-TOF-HDR
               TO TFH-CURR-APRVL-IND.

               MOVE PERM-APRVL-IND-4174 OF R4174-TOF-HDR
               TO TFH-PERM-APRVL-IND.

           IF UPDT-ACTVY-DATE-4174 OF R4174-TOF-HDR  NOT NUMERIC
               MOVE DBLINKX-NULL-DB2-DATE-ISO TO TFH-UPDT-ACTVY-DT
           ELSE
               MOVE UPDT-ACTVY-DATE-4174 OF R4174-TOF-HDR
               TO DBLINKX-INPUT-08
               MOVE '1' TO DBLINKX-REQUEST-CODE
               MOVE '01' TO DBLINKX-IDMS-DATE-FORMAT
               CALL 'IDDTECNV' USING DBLINKX-DATE-TIME-PARMS
               IF DBLINKX-OK
                   MOVE DBLINKX-OUTPUT-PARM
                   TO TFH-UPDT-ACTVY-DT
               ELSE
                   MOVE DBLINKX-NULL-DB2-DATE-ISO
                   TO TFH-UPDT-ACTVY-DT
               END-IF
           END-IF.

               MOVE UPDT-TIME-STAMP-4174 OF R4174-TOF-HDR
               TO DBLINKX-INPUT-PARM
           MOVE '3' TO DBLINKX-REQUEST-CODE
           MOVE '1' TO DBLINKX-DB2-TIME-FORMAT
           MOVE '51' TO DBLINKX-IDMS-TIME-FORMAT
           CALL 'IDDTECNV' USING DBLINKX-DATE-TIME-PARMS
           IF DBLINKX-OK
               MOVE DBLINKX-OUTPUT-PARM
               TO TFH-UPDT-TIME-STMP
           ELSE
               MOVE DBLINKX-NULL-DB2-TIME-ISO
               TO TFH-UPDT-TIME-STMP
           END-IF.

           IF CURR-PSTNG-DATE-4174 OF R4174-TOF-HDR  NOT NUMERIC
               MOVE DBLINKX-NULL-DB2-DATE-ISO TO TFH-CURR-PSTNG-DT
           ELSE
               MOVE CURR-PSTNG-DATE-4174 OF R4174-TOF-HDR
               TO DBLINKX-INPUT-08
               MOVE '1' TO DBLINKX-REQUEST-CODE
               MOVE '01' TO DBLINKX-IDMS-DATE-FORMAT
               CALL 'IDDTECNV' USING DBLINKX-DATE-TIME-PARMS
               IF DBLINKX-OK
                   MOVE DBLINKX-OUTPUT-PARM
                   TO TFH-CURR-PSTNG-DT
               ELSE
                   MOVE DBLINKX-NULL-DB2-DATE-ISO
                   TO TFH-CURR-PSTNG-DT
               END-IF
           END-IF.

           IF PERM-EXTR-DATE-4174 OF R4174-TOF-HDR  NOT NUMERIC
               MOVE DBLINKX-NULL-DB2-DATE-ISO TO TFH-PERM-EXTR-DAT
           ELSE
               MOVE PERM-EXTR-DATE-4174 OF R4174-TOF-HDR
               TO DBLINKX-INPUT-08
               MOVE '1' TO DBLINKX-REQUEST-CODE
               MOVE '01' TO DBLINKX-IDMS-DATE-FORMAT
               CALL 'IDDTECNV' USING DBLINKX-DATE-TIME-PARMS
               IF DBLINKX-OK
                   MOVE DBLINKX-OUTPUT-PARM
                   TO TFH-PERM-EXTR-DAT
               ELSE
                   MOVE DBLINKX-NULL-DB2-DATE-ISO
                   TO TFH-PERM-EXTR-DAT
               END-IF
           END-IF.

               MOVE CMPLT-IND-4174 OF R4174-TOF-HDR
               TO TFH-CMPLT-IND.

               MOVE SUB-DCMNT-TYPE-4174 OF R4174-TOF-HDR
               TO TFH-SUB-DOC-TYP.
       976-FROM-R4174-TOF-HDR-EXIT.
           EXIT.
