       976-FROM-R6152-ZIP SECTION.

FCCCE**        MOVE USER-CODE-6152 OF R6152-ZIP
FCCCE          MOVE DBLINK-USER-CD
               TO ZIP-USER-CD.

               MOVE LAST-ACTVY-DATE-6152 OF R6152-ZIP
               TO ZIP-LAST-ACTVY-DT.

               MOVE UNVRS-CODE-6152 OF R6152-ZIP
               TO ZIP-FK-UNV-UNVRS-CD.

               MOVE CNTRY-CODE-6152 OF R6152-ZIP
               TO ZIP-FK-STA-CNTRY-CD.

               MOVE ZIP-CODE-6152 OF R6152-ZIP
               TO ZIP-ZIP-CD.

               MOVE CITY-NAME-6152 OF R6152-ZIP
               TO ZIP-CITY-NAME.

               MOVE SYS-ADD-FLAG-6152 OF R6152-ZIP
               TO ZIP-SYS-ADD-FLAG.

               MOVE RCRD-USED-FLAG-6152 OF R6152-ZIP
               TO ZIP-RCRD-USED-FLAG.
       976-FROM-R6152-ZIP-EXIT.
           EXIT.
