       976-FROM-R4161-DSCNT-TBLE SECTION.

FCCCE**        MOVE USER-CODE-4161 OF R4161-DSCNT-TBLE
FCCCE          MOVE DBLINK-USER-CD
               TO DSC-USER-CD.

               MOVE LAST-ACTVY-DATE-4161 OF R4161-DSCNT-TBLE
               TO DSC-LAST-ACTVY-DT.

               MOVE UNVRS-CODE-4161 OF R4161-DSCNT-TBLE
               TO DSC-UNVRS-CD.

               MOVE DSCNT-CODE-4161 OF R4161-DSCNT-TBLE
               TO DSC-DSCNT-CD.
       976-FROM-R4161-DSCNT-TBLE-EXIT.
           EXIT.
