       976-FROM-R4066-ACTV-EFCTV SECTION.

FCYI **        MOVE USER-CODE-4066 OF R4066-ACTV-EFCTV
FCYI           MOVE DBLINK-USER-CD
               TO AVE-USER-CD.

               MOVE LAST-ACTVY-DATE-4066 OF R4066-ACTV-EFCTV
               TO AVE-LAST-ACTVY-DT.

           IF START-DATE-4066 OF R4066-ACTV-EFCTV  NOT NUMERIC
               MOVE DBLINKX-NULL-DB2-DATE-ISO TO AVE-START-DT
           ELSE
               MOVE START-DATE-4066 OF R4066-ACTV-EFCTV
               TO DBLINKX-INPUT-08
               MOVE '1' TO DBLINKX-REQUEST-CODE
               MOVE '1' TO DBLINKX-DB2-DATE-FORMAT
               MOVE '01' TO DBLINKX-IDMS-DATE-FORMAT
               CALL 'IDDTECNV' USING DBLINKX-DATE-TIME-PARMS
               IF DBLINKX-OK
                   MOVE DBLINKX-OUTPUT-PARM
                   TO AVE-START-DT
               ELSE
                   MOVE DBLINKX-NULL-DB2-DATE-ISO
                   TO AVE-START-DT
               END-IF
           END-IF.

               MOVE TIME-STAMP-4066 OF R4066-ACTV-EFCTV
               TO DBLINKX-INPUT-PARM
           MOVE '3' TO DBLINKX-REQUEST-CODE
           MOVE '1' TO DBLINKX-DB2-TIME-FORMAT
           MOVE '51' TO DBLINKX-IDMS-TIME-FORMAT
           CALL 'IDDTECNV' USING DBLINKX-DATE-TIME-PARMS
           IF DBLINKX-OK
               MOVE DBLINKX-OUTPUT-PARM
               TO AVE-TIME-STMP
           ELSE
               MOVE DBLINKX-NULL-DB2-TIME-ISO
               TO AVE-TIME-STMP
           END-IF.

           IF END-DATE-4066 OF R4066-ACTV-EFCTV  NOT NUMERIC
               MOVE DBLINKX-NULL-DB2-DATE-ISO TO AVE-END-DT
           ELSE
               MOVE END-DATE-4066 OF R4066-ACTV-EFCTV
               TO DBLINKX-INPUT-08
               MOVE '1' TO DBLINKX-REQUEST-CODE
               MOVE '01' TO DBLINKX-IDMS-DATE-FORMAT
               CALL 'IDDTECNV' USING DBLINKX-DATE-TIME-PARMS
               IF DBLINKX-OK
                   MOVE DBLINKX-OUTPUT-PARM
                   TO AVE-END-DT
               ELSE
                   MOVE DBLINKX-NULL-DB2-DATE-ISO
                   TO AVE-END-DT
               END-IF
           END-IF.

               MOVE STATUS-4066 OF R4066-ACTV-EFCTV
               TO AVE-STATUS.

               MOVE ACTVY-TITLE-4066 OF R4066-ACTV-EFCTV
               TO AVE-ACTVY-TITLE.
       976-FROM-R4066-ACTV-EFCTV-EXIT.
           EXIT.
