       976-FROM-R4226-EXPR-VNDR SECTION.

FCCCE**        MOVE USER-CODE-4226 OF R4226-EXPR-VNDR
FCCCE          MOVE DBLINK-USER-CD
               TO EXV-USER-CD.

               MOVE LAST-ACTVY-DATE-4226 OF R4226-EXPR-VNDR
               TO EXV-LAST-ACTVY-DT.

               MOVE UNVRS-CODE-4226 OF R4226-EXPR-VNDR
               TO EXV-UNVRS-CD.

               MOVE VNDR-ID-DIGIT-ONE-4226 OF R4226-EXPR-VNDR
               TO EXV-VNDR-ID-DGT-ONE.

               MOVE VNDR-ID-LAST-NINE-4226 OF R4226-EXPR-VNDR
               TO EXV-VNDR-ID-LST-NINE.

           IF LAST-RECON-NMBR-4226 OF R4226-EXPR-VNDR  NOT NUMERIC
               MOVE ZEROS TO EXV-LAST-RECON-NBR
           ELSE
               MOVE LAST-RECON-NMBR-4226 OF R4226-EXPR-VNDR
               TO EXV-LAST-RECON-NBR
           END-IF.
       976-FROM-R4226-EXPR-VNDR-EXIT.
           EXIT.
