       976-FROM-R4152-INV-ACCT SECTION.

FCCCE**        MOVE USER-CODE-4152 OF R4152-INV-ACCT
FCCCE          MOVE DBLINK-USER-CD
               TO IVA-USER-CD.

               MOVE LAST-ACTVY-DATE-4152 OF R4152-INV-ACCT
               TO IVA-LAST-ACTVY-DT.

           IF SEQ-NMBR-4152 OF R4152-INV-ACCT  NOT NUMERIC
               MOVE ZEROS TO IVA-SEQ-NBR
           ELSE
               MOVE SEQ-NMBR-4152 OF R4152-INV-ACCT
               TO IVA-SEQ-NBR
           END-IF.

               MOVE NSF-OVRDE-4152 OF R4152-INV-ACCT
               TO IVA-NSF-OVRDE.

           IF ADDL-CHRG-PCT-4152 OF R4152-INV-ACCT  NOT NUMERIC
               MOVE ZEROS TO IVA-ADDL-CHRG-PCT
           ELSE
               MOVE ADDL-CHRG-PCT-4152 OF R4152-INV-ACCT
               TO IVA-ADDL-CHRG-PCT
           END-IF.

           IF INVD-AMT-4152 OF R4152-INV-ACCT  NOT NUMERIC
               MOVE ZEROS TO IVA-INVD-AMT
           ELSE
               MOVE INVD-AMT-4152 OF R4152-INV-ACCT
               TO IVA-INVD-AMT
           END-IF.

           IF DSCNT-AMT-4152 OF R4152-INV-ACCT  NOT NUMERIC
               MOVE ZEROS TO IVA-DSCNT-AMT
           ELSE
               MOVE DSCNT-AMT-4152 OF R4152-INV-ACCT
               TO IVA-DSCNT-AMT
           END-IF.

               MOVE LIQDTN-IND-4152 OF R4152-INV-ACCT
               TO IVA-LIQDTN-IND.

               MOVE COA-CODE-4152 OF R4152-INV-ACCT
               TO IVA-COA-CD.

               MOVE ACCT-INDX-CODE-4152 OF R4152-INV-ACCT
               TO IVA-ACCT-INDX-CD.

               MOVE FUND-CODE-4152 OF R4152-INV-ACCT
               TO IVA-FUND-CD.

               MOVE ORGZN-CODE-4152 OF R4152-INV-ACCT
               TO IVA-ORGN-CD.

               MOVE ACCT-CODE-4152 OF R4152-INV-ACCT
               TO IVA-ACCT-CD.

               MOVE PRGRM-CODE-4152 OF R4152-INV-ACCT
               TO IVA-PRGRM-CD.

               MOVE ACTVY-CODE-4152 OF R4152-INV-ACCT
               TO IVA-ACTVY-CD.

               MOVE LCTN-CODE-4152 OF R4152-INV-ACCT
               TO IVA-LCTN-CD.

               MOVE ACCT-ERROR-IND-4152 OF R4152-INV-ACCT
               TO IVA-ACCT-ERROR-IND.

               MOVE FSCL-YR-4152 OF R4152-INV-ACCT
               TO IVA-FSCL-YR.

               MOVE BANK-ACCT-CODE-4152 OF R4152-INV-ACCT
               TO IVA-BANK-ACCT-CD.

           IF APRVD-AMT-4152 OF R4152-INV-ACCT  NOT NUMERIC
               MOVE ZEROS TO IVA-APRVD-AMT
           ELSE
               MOVE APRVD-AMT-4152 OF R4152-INV-ACCT
               TO IVA-APRVD-AMT
           END-IF.

           IF TAX-AMT-4152 OF R4152-INV-ACCT  NOT NUMERIC
               MOVE ZEROS TO IVA-TAX-AMT
           ELSE
               MOVE TAX-AMT-4152 OF R4152-INV-ACCT
               TO IVA-TAX-AMT
           END-IF.

           IF INVD-PCT-4152 OF R4152-INV-ACCT  NOT NUMERIC
               MOVE ZEROS TO IVA-INVD-PCT
           ELSE
               MOVE INVD-PCT-4152 OF R4152-INV-ACCT
               TO IVA-INVD-PCT
           END-IF.

           IF DSCNT-PCT-4152 OF R4152-INV-ACCT  NOT NUMERIC
               MOVE ZEROS TO IVA-DSCNT-PCT
           ELSE
               MOVE DSCNT-PCT-4152 OF R4152-INV-ACCT
               TO IVA-DSCNT-PCT
           END-IF.

           IF ADDL-CHRG-4152 OF R4152-INV-ACCT  NOT NUMERIC
               MOVE ZEROS TO IVA-ADDL-CHRG
           ELSE
               MOVE ADDL-CHRG-4152 OF R4152-INV-ACCT
               TO IVA-ADDL-CHRG
           END-IF.

           IF INCM-TYPE-SEQ-NMBR-4152 OF R4152-INV-ACCT  NOT NUMERIC
               MOVE ZEROS TO IVA-INCM-TYP-SEQ-NBR
           ELSE
               MOVE INCM-TYPE-SEQ-NMBR-4152 OF R4152-INV-ACCT
               TO IVA-INCM-TYP-SEQ-NBR
           END-IF.

           IF PAID-AMT-4152 OF R4152-INV-ACCT  NOT NUMERIC
               MOVE ZEROS TO IVA-PAID-AMT
           ELSE
               MOVE PAID-AMT-4152 OF R4152-INV-ACCT
               TO IVA-PAID-AMT
           END-IF.

               MOVE RULE-CLASS-CODE-4152 OF R4152-INV-ACCT
               TO IVA-RULE-CLS-CD.

               MOVE DSCNT-RULE-CLASS-4152 OF R4152-INV-ACCT
               TO IVA-DSCNT-RULE-CLS.

               MOVE TAX-RULE-CLASS-4152 OF R4152-INV-ACCT
               TO IVA-TAX-RULE-CLS.

               MOVE ADDL-CHRG-RULE-CLASS-4152 OF R4152-INV-ACCT
               TO IVA-ADDL-CHRG-RUL-CLS.

               MOVE PSTNG-PRD-4152 OF R4152-INV-ACCT
               TO IVA-PSTNG-PRD.

               MOVE PRJCT-CODE-4152 OF R4152-INV-ACCT
               TO IVA-PRJCT-CD.

               MOVE PO-NMBR-4152 OF R4152-INV-ACCT
               TO IVA-PO-NBR.

           IF PO-ITEM-NMBR-4152 OF R4152-INV-ACCT  NOT NUMERIC
               MOVE ZEROS TO IVA-PO-ITEM-NBR
           ELSE
               MOVE PO-ITEM-NMBR-4152 OF R4152-INV-ACCT
               TO IVA-PO-ITEM-NBR
           END-IF.

           IF PO-SEQ-NMBR-4152 OF R4152-INV-ACCT  NOT NUMERIC
               MOVE ZEROS TO IVA-PO-SEQ-NBR
           ELSE
               MOVE PO-SEQ-NMBR-4152 OF R4152-INV-ACCT
               TO IVA-PO-SEQ-NBR
           END-IF.
       976-FROM-R4152-INV-ACCT-EXIT.
           EXIT.
